000010*==========================================================%      DS413
000020*=    COPYMEMBER: CLWSASC2                                =%      DS413
000030*=    CHANGE # DS413        PROJ. REQUEST: DS413          =%      DS413
000040*=    NAME: MARI MCGEE      MODIFICATION DATE: 07/19/89   =%      DS413
000050*=                                                        =%      DS413
000060*=    DESCRIPTION:                                        =%      DS413
000070*=     COBOL II CONVERSION                                =%      DS413
000080*=                                                        =%      DS413
000090*==========================================================%      DS413
000100*01  TABLE-EBCDIC-TO-ASCII.                                       DS413
000200     05  FILLER    PIC 9(4) COMP SYNC VALUE 000.                  CLWSASC2
000300     05  FILLER    PIC 9(4) COMP SYNC VALUE 001.                  CLWSASC2
00004      05  FILLER    PIC 9(4) COMP SYNC VALUE 002.                  CPWSASC2
00005      05  FILLER    PIC 9(4) COMP SYNC VALUE 003.                  CPWSASC2
00006      05  FILLER    PIC 9(4) COMP SYNC VALUE 000.                  CPWSASC2
00007      05  FILLER    PIC 9(4) COMP SYNC VALUE 009.                  CPWSASC2
00008      05  FILLER    PIC 9(4) COMP SYNC VALUE 000.                  CPWSASC2
00009      05  FILLER    PIC 9(4) COMP SYNC VALUE 127.                  CPWSASC2
00010      05  FILLER    PIC 9(4) COMP SYNC VALUE 000.                  CPWSASC2
00011      05  FILLER    PIC 9(4) COMP SYNC VALUE 000.                  CPWSASC2
00012      05  FILLER    PIC 9(4) COMP SYNC VALUE 000.                  CPWSASC2
00013      05  FILLER    PIC 9(4) COMP SYNC VALUE 011.                  CPWSASC2
00014      05  FILLER    PIC 9(4) COMP SYNC VALUE 012.                  CPWSASC2
00015      05  FILLER    PIC 9(4) COMP SYNC VALUE 013.                  CPWSASC2
00016      05  FILLER    PIC 9(4) COMP SYNC VALUE 014.                  CPWSASC2
00017      05  FILLER    PIC 9(4) COMP SYNC VALUE 015.                  CPWSASC2
00018      05  FILLER    PIC 9(4) COMP SYNC VALUE 016.                  CPWSASC2
00019      05  FILLER    PIC 9(4) COMP SYNC VALUE 017.                  CPWSASC2
00020      05  FILLER    PIC 9(4) COMP SYNC VALUE 018.                  CPWSASC2
00021      05  FILLER    PIC 9(4) COMP SYNC VALUE 019.                  CPWSASC2
00022      05  FILLER    PIC 9(4) COMP SYNC VALUE 000.                  CPWSASC2
00023      05  FILLER    PIC 9(4) COMP SYNC VALUE 000.                  CPWSASC2
00024      05  FILLER    PIC 9(4) COMP SYNC VALUE 008.                  CPWSASC2
00025      05  FILLER    PIC 9(4) COMP SYNC VALUE 000.                  CPWSASC2
00026      05  FILLER    PIC 9(4) COMP SYNC VALUE 024.                  CPWSASC2
00027      05  FILLER    PIC 9(4) COMP SYNC VALUE 025.                  CPWSASC2
00028      05  FILLER    PIC 9(4) COMP SYNC VALUE 000.                  CPWSASC2
00029      05  FILLER    PIC 9(4) COMP SYNC VALUE 000.                  CPWSASC2
00030      05  FILLER    PIC 9(4) COMP SYNC VALUE 028.                  CPWSASC2
00031      05  FILLER    PIC 9(4) COMP SYNC VALUE 029.                  CPWSASC2
00032      05  FILLER    PIC 9(4) COMP SYNC VALUE 030.                  CPWSASC2
00033      05  FILLER    PIC 9(4) COMP SYNC VALUE 031.                  CPWSASC2
00034      05  FILLER    PIC 9(4) COMP SYNC VALUE 000.                  CPWSASC2
00035      05  FILLER    PIC 9(4) COMP SYNC VALUE 000.                  CPWSASC2
00036      05  FILLER    PIC 9(4) COMP SYNC VALUE 000.                  CPWSASC2
00037      05  FILLER    PIC 9(4) COMP SYNC VALUE 000.                  CPWSASC2
00038      05  FILLER    PIC 9(4) COMP SYNC VALUE 000.                  CPWSASC2
00039      05  FILLER    PIC 9(4) COMP SYNC VALUE 010.                  CPWSASC2
00040      05  FILLER    PIC 9(4) COMP SYNC VALUE 023.                  CPWSASC2
00041      05  FILLER    PIC 9(4) COMP SYNC VALUE 027.                  CPWSASC2
00042      05  FILLER    PIC 9(4) COMP SYNC VALUE 000.                  CPWSASC2
00043      05  FILLER    PIC 9(4) COMP SYNC VALUE 000.                  CPWSASC2
00044      05  FILLER    PIC 9(4) COMP SYNC VALUE 000.                  CPWSASC2
00045      05  FILLER    PIC 9(4) COMP SYNC VALUE 000.                  CPWSASC2
00046      05  FILLER    PIC 9(4) COMP SYNC VALUE 000.                  CPWSASC2
00047      05  FILLER    PIC 9(4) COMP SYNC VALUE 005.                  CPWSASC2
00048      05  FILLER    PIC 9(4) COMP SYNC VALUE 006.                  CPWSASC2
00049      05  FILLER    PIC 9(4) COMP SYNC VALUE 007.                  CPWSASC2
00050      05  FILLER    PIC 9(4) COMP SYNC VALUE 000.                  CPWSASC2
00051      05  FILLER    PIC 9(4) COMP SYNC VALUE 000.                  CPWSASC2
00052      05  FILLER    PIC 9(4) COMP SYNC VALUE 022.                  CPWSASC2
00053      05  FILLER    PIC 9(4) COMP SYNC VALUE 000.                  CPWSASC2
00054      05  FILLER    PIC 9(4) COMP SYNC VALUE 000.                  CPWSASC2
00055      05  FILLER    PIC 9(4) COMP SYNC VALUE 000.                  CPWSASC2
00056      05  FILLER    PIC 9(4) COMP SYNC VALUE 000.                  CPWSASC2
00057      05  FILLER    PIC 9(4) COMP SYNC VALUE 004.                  CPWSASC2
00058      05  FILLER    PIC 9(4) COMP SYNC VALUE 000.                  CPWSASC2
00059      05  FILLER    PIC 9(4) COMP SYNC VALUE 000.                  CPWSASC2
00060      05  FILLER    PIC 9(4) COMP SYNC VALUE 000.                  CPWSASC2
00061      05  FILLER    PIC 9(4) COMP SYNC VALUE 000.                  CPWSASC2
00062      05  FILLER    PIC 9(4) COMP SYNC VALUE 020.                  CPWSASC2
00063      05  FILLER    PIC 9(4) COMP SYNC VALUE 021.                  CPWSASC2
00064      05  FILLER    PIC 9(4) COMP SYNC VALUE 000.                  CPWSASC2
00065      05  FILLER    PIC 9(4) COMP SYNC VALUE 026.                  CPWSASC2
00066      05  FILLER    PIC 9(4) COMP SYNC VALUE 032.                  CPWSASC2
00067      05  FILLER    PIC 9(4) COMP SYNC VALUE 000.                  CPWSASC2
00068      05  FILLER    PIC 9(4) COMP SYNC VALUE 000.                  CPWSASC2
00069      05  FILLER    PIC 9(4) COMP SYNC VALUE 000.                  CPWSASC2
00070      05  FILLER    PIC 9(4) COMP SYNC VALUE 000.                  CPWSASC2
00071      05  FILLER    PIC 9(4) COMP SYNC VALUE 000.                  CPWSASC2
00072      05  FILLER    PIC 9(4) COMP SYNC VALUE 000.                  CPWSASC2
00073      05  FILLER    PIC 9(4) COMP SYNC VALUE 000.                  CPWSASC2
00074      05  FILLER    PIC 9(4) COMP SYNC VALUE 000.                  CPWSASC2
00075      05  FILLER    PIC 9(4) COMP SYNC VALUE 000.                  CPWSASC2
00076      05  FILLER    PIC 9(4) COMP SYNC VALUE 091.                  CPWSASC2
00077      05  FILLER    PIC 9(4) COMP SYNC VALUE 046.                  CPWSASC2
00078      05  FILLER    PIC 9(4) COMP SYNC VALUE 060.                  CPWSASC2
00079      05  FILLER    PIC 9(4) COMP SYNC VALUE 040.                  CPWSASC2
00080      05  FILLER    PIC 9(4) COMP SYNC VALUE 043.                  CPWSASC2
00081      05  FILLER    PIC 9(4) COMP SYNC VALUE 033.                  CPWSASC2
00082      05  FILLER    PIC 9(4) COMP SYNC VALUE 038.                  CPWSASC2
00083      05  FILLER    PIC 9(4) COMP SYNC VALUE 000.                  CPWSASC2
00084      05  FILLER    PIC 9(4) COMP SYNC VALUE 000.                  CPWSASC2
00085      05  FILLER    PIC 9(4) COMP SYNC VALUE 000.                  CPWSASC2
00086      05  FILLER    PIC 9(4) COMP SYNC VALUE 000.                  CPWSASC2
00087      05  FILLER    PIC 9(4) COMP SYNC VALUE 000.                  CPWSASC2
00088      05  FILLER    PIC 9(4) COMP SYNC VALUE 000.                  CPWSASC2
00089      05  FILLER    PIC 9(4) COMP SYNC VALUE 000.                  CPWSASC2
00090      05  FILLER    PIC 9(4) COMP SYNC VALUE 000.                  CPWSASC2
00091      05  FILLER    PIC 9(4) COMP SYNC VALUE 000.                  CPWSASC2
00092      05  FILLER    PIC 9(4) COMP SYNC VALUE 093.                  CPWSASC2
00093      05  FILLER    PIC 9(4) COMP SYNC VALUE 036.                  CPWSASC2
00094      05  FILLER    PIC 9(4) COMP SYNC VALUE 042.                  CPWSASC2
00095      05  FILLER    PIC 9(4) COMP SYNC VALUE 041.                  CPWSASC2
00096      05  FILLER    PIC 9(4) COMP SYNC VALUE 059.                  CPWSASC2
00097      05  FILLER    PIC 9(4) COMP SYNC VALUE 094.                  CPWSASC2
00098      05  FILLER    PIC 9(4) COMP SYNC VALUE 045.                  CPWSASC2
00099      05  FILLER    PIC 9(4) COMP SYNC VALUE 047.                  CPWSASC2
00100      05  FILLER    PIC 9(4) COMP SYNC VALUE 000.                  CPWSASC2
00101      05  FILLER    PIC 9(4) COMP SYNC VALUE 000.                  CPWSASC2
00102      05  FILLER    PIC 9(4) COMP SYNC VALUE 000.                  CPWSASC2
00103      05  FILLER    PIC 9(4) COMP SYNC VALUE 000.                  CPWSASC2
00104      05  FILLER    PIC 9(4) COMP SYNC VALUE 000.                  CPWSASC2
00105      05  FILLER    PIC 9(4) COMP SYNC VALUE 000.                  CPWSASC2
00106      05  FILLER    PIC 9(4) COMP SYNC VALUE 000.                  CPWSASC2
00107      05  FILLER    PIC 9(4) COMP SYNC VALUE 000.                  CPWSASC2
00108      05  FILLER    PIC 9(4) COMP SYNC VALUE 124.                  CPWSASC2
00109      05  FILLER    PIC 9(4) COMP SYNC VALUE 044.                  CPWSASC2
00110      05  FILLER    PIC 9(4) COMP SYNC VALUE 037.                  CPWSASC2
00111      05  FILLER    PIC 9(4) COMP SYNC VALUE 095.                  CPWSASC2
00112      05  FILLER    PIC 9(4) COMP SYNC VALUE 062.                  CPWSASC2
00113      05  FILLER    PIC 9(4) COMP SYNC VALUE 063.                  CPWSASC2
00114      05  FILLER    PIC 9(4) COMP SYNC VALUE 000.                  CPWSASC2
00115      05  FILLER    PIC 9(4) COMP SYNC VALUE 000.                  CPWSASC2
00116      05  FILLER    PIC 9(4) COMP SYNC VALUE 000.                  CPWSASC2
00117      05  FILLER    PIC 9(4) COMP SYNC VALUE 000.                  CPWSASC2
00118      05  FILLER    PIC 9(4) COMP SYNC VALUE 000.                  CPWSASC2
00119      05  FILLER    PIC 9(4) COMP SYNC VALUE 000.                  CPWSASC2
00120      05  FILLER    PIC 9(4) COMP SYNC VALUE 000.                  CPWSASC2
00121      05  FILLER    PIC 9(4) COMP SYNC VALUE 000.                  CPWSASC2
00122      05  FILLER    PIC 9(4) COMP SYNC VALUE 000.                  CPWSASC2
00123      05  FILLER    PIC 9(4) COMP SYNC VALUE 096.                  CPWSASC2
00124      05  FILLER    PIC 9(4) COMP SYNC VALUE 058.                  CPWSASC2
00125      05  FILLER    PIC 9(4) COMP SYNC VALUE 035.                  CPWSASC2
00126      05  FILLER    PIC 9(4) COMP SYNC VALUE 064.                  CPWSASC2
00127      05  FILLER    PIC 9(4) COMP SYNC VALUE 039.                  CPWSASC2
00128      05  FILLER    PIC 9(4) COMP SYNC VALUE 061.                  CPWSASC2
00129      05  FILLER    PIC 9(4) COMP SYNC VALUE 034.                  CPWSASC2
00130      05  FILLER    PIC 9(4) COMP SYNC VALUE 000.                  CPWSASC2
00131      05  FILLER    PIC 9(4) COMP SYNC VALUE 097.                  CPWSASC2
00132      05  FILLER    PIC 9(4) COMP SYNC VALUE 098.                  CPWSASC2
00133      05  FILLER    PIC 9(4) COMP SYNC VALUE 099.                  CPWSASC2
00134      05  FILLER    PIC 9(4) COMP SYNC VALUE 100.                  CPWSASC2
00135      05  FILLER    PIC 9(4) COMP SYNC VALUE 101.                  CPWSASC2
00136      05  FILLER    PIC 9(4) COMP SYNC VALUE 102.                  CPWSASC2
00137      05  FILLER    PIC 9(4) COMP SYNC VALUE 103.                  CPWSASC2
00138      05  FILLER    PIC 9(4) COMP SYNC VALUE 104.                  CPWSASC2
00139      05  FILLER    PIC 9(4) COMP SYNC VALUE 105.                  CPWSASC2
00140      05  FILLER    PIC 9(4) COMP SYNC VALUE 000.                  CPWSASC2
00141      05  FILLER    PIC 9(4) COMP SYNC VALUE 000.                  CPWSASC2
00142      05  FILLER    PIC 9(4) COMP SYNC VALUE 000.                  CPWSASC2
00143      05  FILLER    PIC 9(4) COMP SYNC VALUE 000.                  CPWSASC2
00144      05  FILLER    PIC 9(4) COMP SYNC VALUE 000.                  CPWSASC2
00145      05  FILLER    PIC 9(4) COMP SYNC VALUE 000.                  CPWSASC2
00146      05  FILLER    PIC 9(4) COMP SYNC VALUE 000.                  CPWSASC2
00147      05  FILLER    PIC 9(4) COMP SYNC VALUE 106.                  CPWSASC2
00148      05  FILLER    PIC 9(4) COMP SYNC VALUE 107.                  CPWSASC2
00149      05  FILLER    PIC 9(4) COMP SYNC VALUE 108.                  CPWSASC2
00150      05  FILLER    PIC 9(4) COMP SYNC VALUE 109.                  CPWSASC2
00151      05  FILLER    PIC 9(4) COMP SYNC VALUE 110.                  CPWSASC2
00152      05  FILLER    PIC 9(4) COMP SYNC VALUE 111.                  CPWSASC2
00153      05  FILLER    PIC 9(4) COMP SYNC VALUE 112.                  CPWSASC2
00154      05  FILLER    PIC 9(4) COMP SYNC VALUE 113.                  CPWSASC2
00155      05  FILLER    PIC 9(4) COMP SYNC VALUE 114.                  CPWSASC2
00156      05  FILLER    PIC 9(4) COMP SYNC VALUE 000.                  CPWSASC2
00157      05  FILLER    PIC 9(4) COMP SYNC VALUE 000.                  CPWSASC2
00158      05  FILLER    PIC 9(4) COMP SYNC VALUE 000.                  CPWSASC2
00159      05  FILLER    PIC 9(4) COMP SYNC VALUE 000.                  CPWSASC2
00160      05  FILLER    PIC 9(4) COMP SYNC VALUE 000.                  CPWSASC2
00161      05  FILLER    PIC 9(4) COMP SYNC VALUE 000.                  CPWSASC2
00162      05  FILLER    PIC 9(4) COMP SYNC VALUE 000.                  CPWSASC2
00163      05  FILLER    PIC 9(4) COMP SYNC VALUE 126.                  CPWSASC2
00164      05  FILLER    PIC 9(4) COMP SYNC VALUE 115.                  CPWSASC2
00165      05  FILLER    PIC 9(4) COMP SYNC VALUE 116.                  CPWSASC2
00166      05  FILLER    PIC 9(4) COMP SYNC VALUE 117.                  CPWSASC2
00167      05  FILLER    PIC 9(4) COMP SYNC VALUE 118.                  CPWSASC2
00168      05  FILLER    PIC 9(4) COMP SYNC VALUE 119.                  CPWSASC2
00169      05  FILLER    PIC 9(4) COMP SYNC VALUE 120.                  CPWSASC2
00170      05  FILLER    PIC 9(4) COMP SYNC VALUE 121.                  CPWSASC2
00171      05  FILLER    PIC 9(4) COMP SYNC VALUE 122.                  CPWSASC2
00172      05  FILLER    PIC 9(4) COMP SYNC VALUE 000.                  CPWSASC2
00173      05  FILLER    PIC 9(4) COMP SYNC VALUE 000.                  CPWSASC2
00174      05  FILLER    PIC 9(4) COMP SYNC VALUE 000.                  CPWSASC2
00175      05  FILLER    PIC 9(4) COMP SYNC VALUE 000.                  CPWSASC2
00176      05  FILLER    PIC 9(4) COMP SYNC VALUE 000.                  CPWSASC2
00177      05  FILLER    PIC 9(4) COMP SYNC VALUE 000.                  CPWSASC2
00178      05  FILLER    PIC 9(4) COMP SYNC VALUE 000.                  CPWSASC2
00179      05  FILLER    PIC 9(4) COMP SYNC VALUE 000.                  CPWSASC2
00180      05  FILLER    PIC 9(4) COMP SYNC VALUE 000.                  CPWSASC2
00181      05  FILLER    PIC 9(4) COMP SYNC VALUE 000.                  CPWSASC2
00182      05  FILLER    PIC 9(4) COMP SYNC VALUE 000.                  CPWSASC2
00183      05  FILLER    PIC 9(4) COMP SYNC VALUE 000.                  CPWSASC2
00184      05  FILLER    PIC 9(4) COMP SYNC VALUE 000.                  CPWSASC2
00185      05  FILLER    PIC 9(4) COMP SYNC VALUE 000.                  CPWSASC2
00186      05  FILLER    PIC 9(4) COMP SYNC VALUE 000.                  CPWSASC2
00187      05  FILLER    PIC 9(4) COMP SYNC VALUE 000.                  CPWSASC2
00188      05  FILLER    PIC 9(4) COMP SYNC VALUE 000.                  CPWSASC2
00189      05  FILLER    PIC 9(4) COMP SYNC VALUE 000.                  CPWSASC2
00190      05  FILLER    PIC 9(4) COMP SYNC VALUE 000.                  CPWSASC2
00191      05  FILLER    PIC 9(4) COMP SYNC VALUE 000.                  CPWSASC2
00192      05  FILLER    PIC 9(4) COMP SYNC VALUE 000.                  CPWSASC2
00193      05  FILLER    PIC 9(4) COMP SYNC VALUE 000.                  CPWSASC2
00194      05  FILLER    PIC 9(4) COMP SYNC VALUE 123.                  CPWSASC2
00195      05  FILLER    PIC 9(4) COMP SYNC VALUE 065.                  CPWSASC2
00196      05  FILLER    PIC 9(4) COMP SYNC VALUE 066.                  CPWSASC2
00197      05  FILLER    PIC 9(4) COMP SYNC VALUE 067.                  CPWSASC2
00198      05  FILLER    PIC 9(4) COMP SYNC VALUE 068.                  CPWSASC2
00199      05  FILLER    PIC 9(4) COMP SYNC VALUE 069.                  CPWSASC2
00200      05  FILLER    PIC 9(4) COMP SYNC VALUE 070.                  CPWSASC2
00201      05  FILLER    PIC 9(4) COMP SYNC VALUE 071.                  CPWSASC2
00202      05  FILLER    PIC 9(4) COMP SYNC VALUE 072.                  CPWSASC2
00203      05  FILLER    PIC 9(4) COMP SYNC VALUE 073.                  CPWSASC2
00204      05  FILLER    PIC 9(4) COMP SYNC VALUE 000.                  CPWSASC2
00205      05  FILLER    PIC 9(4) COMP SYNC VALUE 000.                  CPWSASC2
00206      05  FILLER    PIC 9(4) COMP SYNC VALUE 000.                  CPWSASC2
00207      05  FILLER    PIC 9(4) COMP SYNC VALUE 000.                  CPWSASC2
00208      05  FILLER    PIC 9(4) COMP SYNC VALUE 000.                  CPWSASC2
00209      05  FILLER    PIC 9(4) COMP SYNC VALUE 000.                  CPWSASC2
00210      05  FILLER    PIC 9(4) COMP SYNC VALUE 125.                  CPWSASC2
00211      05  FILLER    PIC 9(4) COMP SYNC VALUE 074.                  CPWSASC2
00212      05  FILLER    PIC 9(4) COMP SYNC VALUE 075.                  CPWSASC2
00213      05  FILLER    PIC 9(4) COMP SYNC VALUE 076.                  CPWSASC2
00214      05  FILLER    PIC 9(4) COMP SYNC VALUE 077.                  CPWSASC2
00215      05  FILLER    PIC 9(4) COMP SYNC VALUE 078.                  CPWSASC2
00216      05  FILLER    PIC 9(4) COMP SYNC VALUE 079.                  CPWSASC2
00217      05  FILLER    PIC 9(4) COMP SYNC VALUE 080.                  CPWSASC2
00218      05  FILLER    PIC 9(4) COMP SYNC VALUE 081.                  CPWSASC2
00219      05  FILLER    PIC 9(4) COMP SYNC VALUE 082.                  CPWSASC2
00220      05  FILLER    PIC 9(4) COMP SYNC VALUE 000.                  CPWSASC2
00221      05  FILLER    PIC 9(4) COMP SYNC VALUE 000.                  CPWSASC2
00222      05  FILLER    PIC 9(4) COMP SYNC VALUE 000.                  CPWSASC2
00223      05  FILLER    PIC 9(4) COMP SYNC VALUE 000.                  CPWSASC2
00224      05  FILLER    PIC 9(4) COMP SYNC VALUE 000.                  CPWSASC2
00225      05  FILLER    PIC 9(4) COMP SYNC VALUE 000.                  CPWSASC2
00226      05  FILLER    PIC 9(4) COMP SYNC VALUE 092.                  CPWSASC2
00227      05  FILLER    PIC 9(4) COMP SYNC VALUE 000.                  CPWSASC2
00228      05  FILLER    PIC 9(4) COMP SYNC VALUE 083.                  CPWSASC2
00229      05  FILLER    PIC 9(4) COMP SYNC VALUE 084.                  CPWSASC2
00230      05  FILLER    PIC 9(4) COMP SYNC VALUE 085.                  CPWSASC2
00231      05  FILLER    PIC 9(4) COMP SYNC VALUE 086.                  CPWSASC2
00232      05  FILLER    PIC 9(4) COMP SYNC VALUE 087.                  CPWSASC2
00233      05  FILLER    PIC 9(4) COMP SYNC VALUE 088.                  CPWSASC2
00234      05  FILLER    PIC 9(4) COMP SYNC VALUE 089.                  CPWSASC2
00235      05  FILLER    PIC 9(4) COMP SYNC VALUE 090.                  CPWSASC2
00236      05  FILLER    PIC 9(4) COMP SYNC VALUE 000.                  CPWSASC2
00237      05  FILLER    PIC 9(4) COMP SYNC VALUE 000.                  CPWSASC2
00238      05  FILLER    PIC 9(4) COMP SYNC VALUE 000.                  CPWSASC2
00239      05  FILLER    PIC 9(4) COMP SYNC VALUE 000.                  CPWSASC2
00240      05  FILLER    PIC 9(4) COMP SYNC VALUE 000.                  CPWSASC2
00241      05  FILLER    PIC 9(4) COMP SYNC VALUE 000.                  CPWSASC2
00242      05  FILLER    PIC 9(4) COMP SYNC VALUE 048.                  CPWSASC2
00243      05  FILLER    PIC 9(4) COMP SYNC VALUE 049.                  CPWSASC2
00244      05  FILLER    PIC 9(4) COMP SYNC VALUE 050.                  CPWSASC2
00245      05  FILLER    PIC 9(4) COMP SYNC VALUE 051.                  CPWSASC2
00246      05  FILLER    PIC 9(4) COMP SYNC VALUE 052.                  CPWSASC2
00247      05  FILLER    PIC 9(4) COMP SYNC VALUE 053.                  CPWSASC2
00248      05  FILLER    PIC 9(4) COMP SYNC VALUE 054.                  CPWSASC2
00249      05  FILLER    PIC 9(4) COMP SYNC VALUE 055.                  CPWSASC2
00250      05  FILLER    PIC 9(4) COMP SYNC VALUE 056.                  CPWSASC2
00251      05  FILLER    PIC 9(4) COMP SYNC VALUE 057.                  CPWSASC2
00252      05  FILLER    PIC 9(4) COMP SYNC VALUE 000.                  CPWSASC2
00253      05  FILLER    PIC 9(4) COMP SYNC VALUE 000.                  CPWSASC2
00254      05  FILLER    PIC 9(4) COMP SYNC VALUE 000.                  CPWSASC2
00255      05  FILLER    PIC 9(4) COMP SYNC VALUE 000.                  CPWSASC2
00256      05  FILLER    PIC 9(4) COMP SYNC VALUE 000.                  CPWSASC2
00257      05  FILLER    PIC 9(4) COMP SYNC VALUE 000.                  CPWSASC2
