000100**************************************************************/   36300699
000200*  COPYMENBER: CPFDXPPI                                      */   36300699
000300*  RELEASE: ____0699____  SERVICE REQUEST(S): ____3630____   */   36300699
000400*  NAME:____PXP___________CREATION DATE:      __09/17/92__   */   36300699
000500*  DESCRIPTION:                                              */   36300699
000600*  - FD FOR PPI FILE                                         */   36300699
000700**************************************************************/   36300699
000800*    COPYID=CPFDXPPI                                              CPFDXPPI
000900     BLOCK CONTAINS 0 RECORDS                                     CPFDXPPI
001000     RECORDING MODE IS F                                          CPFDXPPI
001100     LABEL RECORDS STANDARD.                                      CPFDXPPI
