      *    COPYID=CPFDXACT                                              CPFDXACT
      *                                                                 CPFDXACT
           BLOCK CONTAINS 0 RECORDS                                     CPFDXACT
           RECORD CONTAINS 80 CHARACTERS                                CPFDXACT
           RECORDING MODE IS F                                          CPFDXACT
           LABEL RECORDS ARE STANDARD.                                  CPFDXACT
