000100*    COPYID=CPFDXRAT                                              CPFDXRAT
   200     BLOCK CONTAINS 0 RECORDS                                     CPFDXRAT
   300     RECORD CONTAINS 80 CHARACTERS                                CPFDXRAT
   400     LABEL RECORDS ARE OMITTED.                                   CPFDXRAT
