000100**************************************************************/   32021138
000200*  COPYMEMBER: CPPDEUCI                                      */   32021138
000300*  RELEASE: ___1138______ SERVICE REQUEST(S): ____13202____  */   32021138
000400*  NAME:_PHIL THOMPSON___ CREATION DATE:      ___08/04/97__  */   32021138
000500*  DESCRIPTION:                                              */   32021138
000600*  BASE FAU RELATED PROCEDURE CODE FOR ONLINE FUNCTION EUCI. */   32021138
000700*  THIS CODE ONLY WORKS WITH THE BASE PROGRAM PPWEUCI AND    */   32021138
000800*  BASE MAP PPEUCI0.                                         */   32021138
000900**************************************************************/   CPPDEUCI
001000 CPPD-SET-PROTECTED-FIELDS      SECTION.                          CPPDEUCI
001100**************************************************************/   CPPDEUCI
001200     PERFORM VARYING ARRAY-SUB FROM 1 BY 1                        CPPDEUCI
001300                                    UNTIL ARRAY-SUB > 10          CPPDEUCI
001400        MOVE UCCOMMON-ATR-ENTRY-PRO TO                            CPPDEUCI
001500                      DE0647-FBA-LOCATION-CODEA (ARRAY-SUB)       CPPDEUCI
001600        MOVE UCCOMMON-ATR-ENTRY-PRO TO                            CPPDEUCI
001700                      DE0647-FBA-ACCOUNTA (ARRAY-SUB)             CPPDEUCI
001800        MOVE UCCOMMON-ATR-ENTRY-PRO TO                            CPPDEUCI
001900                      DE0647-FBA-COST-CENTERA (ARRAY-SUB)         CPPDEUCI
002000        MOVE UCCOMMON-ATR-ENTRY-PRO TO                            CPPDEUCI
002100                      DE0647-FBA-FUNDA (ARRAY-SUB)                CPPDEUCI
002110        MOVE UCCOMMON-ATR-ENTRY-PRO TO                            CPPDEUCI
002120                      DE0647-FBA-PROJECT-CODEA (ARRAY-SUB)        CPPDEUCI
002200     END-PERFORM.                                                 CPPDEUCI
002300**************************************************************/   CPPDEUCI
002400 CPPD-INITIALIZE-FIELDS         SECTION.                          CPPDEUCI
002500**************************************************************/   CPPDEUCI
002600     MOVE UCCOMMON-CLR-ENTRY TO                                   CPPDEUCI
002700                      DE0647-FBA-LOCATION-CODEC (ARRAY-SUB)       CPPDEUCI
002800                      DE0647-FBA-ACCOUNTC       (ARRAY-SUB)       CPPDEUCI
002900                      DE0647-FBA-COST-CENTERC   (ARRAY-SUB)       CPPDEUCI
003000                      DE0647-FBA-FUNDC          (ARRAY-SUB)       CPPDEUCI
003010                      DE0647-FBA-PROJECT-CODEC  (ARRAY-SUB).      CPPDEUCI
003100     MOVE WS-ATR TO                                               CPPDEUCI
003200                      DE0647-FBA-LOCATION-CODEA (ARRAY-SUB)       CPPDEUCI
003300                      DE0647-FBA-ACCOUNTA       (ARRAY-SUB)       CPPDEUCI
003400                      DE0647-FBA-COST-CENTERA   (ARRAY-SUB)       CPPDEUCI
003500                      DE0647-FBA-FUNDA          (ARRAY-SUB)       CPPDEUCI
003510                      DE0647-FBA-PROJECT-CODEA  (ARRAY-SUB).      CPPDEUCI
003600     MOVE UCCOMMON-HLT-ENTRY TO                                   CPPDEUCI
003700                      DE0647-FBA-LOCATION-CODEH (ARRAY-SUB)       CPPDEUCI
003800                      DE0647-FBA-ACCOUNTH       (ARRAY-SUB)       CPPDEUCI
003900                      DE0647-FBA-COST-CENTERH   (ARRAY-SUB)       CPPDEUCI
004000                      DE0647-FBA-FUNDH          (ARRAY-SUB)       CPPDEUCI
004010                      DE0647-FBA-PROJECT-CODEH  (ARRAY-SUB).      CPPDEUCI
005600**************************************************************/   CPPDEUCI
005700 CPPD-SET-BUNDLE-HIGHLIGHTS     SECTION.                          CPPDEUCI
005800**************************************************************/   CPPDEUCI
005900     MOVE UCCOMMON-CLR-BUNDLE TO L-BEN-ACCTC                      CPPDEUCI
006000                                 L-BEN-FAUC.                      CPPDEUCI
006200     MOVE UCCOMMON-ATR-BUNDLE TO L-BEN-ACCTA                      CPPDEUCI
006300                                 L-BEN-FAUA.                      CPPDEUCI
006500     MOVE UCCOMMON-HLT-BUNDLE TO L-BEN-ACCTH                      CPPDEUCI
006600                                 L-BEN-FAUH.                      CPPDEUCI
006800**************************************************************/   CPPDEUCI
006900 CPPD-FORMAT-FBA-DATA           SECTION.                          CPPDEUCI
007000**************************************************************/   CPPDEUCI
007100     ADD +1  TO CPWSDEED-CNT                                      CPPDEUCI
007200     MOVE 0647 TO CPWSDEED-ELEM-NUMBER (CPWSDEED-CNT)             CPPDEUCI
007300     MOVE ARRAY-SUB TO                                            CPPDEUCI
007400                   CPWSDEED-ELEM-SCREEN-OCCURNCE (CPWSDEED-CNT)   CPPDEUCI
007500     SET CPWSDEED-ELEM-REQUEST-DISPLAY (CPWSDEED-CNT) TO TRUE     CPPDEUCI
007600     IF EFBA-FBA-ADC-CODE  OF                                     CPPDEUCI
007700                     FURLOUGH-ACCT-ARRAY (ARRAY-SUB) = 'D'        CPPDEUCI
007800        MOVE SPACES TO CPWSDEED-EDB-DATA (CPWSDEED-CNT)           CPPDEUCI
007900                          CPWSWORK-WA-FBA-FAU (ARRAY-SUB)         CPPDEUCI
008000     ELSE                                                         CPPDEUCI
008100        MOVE EFBA-FBA-FULL-ACCT-UNIT OF                           CPPDEUCI
008200                        FURLOUGH-ACCT-ARRAY (ARRAY-SUB)           CPPDEUCI
008300              TO CPWSDEED-EDB-DATA (CPWSDEED-CNT)                 CPPDEUCI
008400                 CPWSWORK-WA-FBA-FAU (ARRAY-SUB)                  CPPDEUCI
008500     END-IF.                                                      CPPDEUCI
008600**************************************************************/   CPPDEUCI
008700 CPPD-FORMAT-SCREEN             SECTION.                          CPPDEUCI
008800**************************************************************/   CPPDEUCI
008900     MOVE CPWSDEED-SCREEN-DATA (EDIT-SUB)                         CPPDEUCI
009000          TO XFAU-FAU-UNFORMATTED.                                CPPDEUCI
009100     MOVE XFAU-FAU-LOCATION OF XFAU-FAU-UNFORMATTED               CPPDEUCI
009200          TO DE0647-FBA-LOCATION-CODEO (ARRAY-SUB).               CPPDEUCI
009300     MOVE XFAU-FAU-ACCOUNT OF XFAU-FAU-UNFORMATTED                CPPDEUCI
009400          TO DE0647-FBA-ACCOUNTO (ARRAY-SUB).                     CPPDEUCI
009500     PERFORM CPPD-FORMAT-ACCOUNT-FIELDS.                          CPPDEUCI
009600     MOVE XFAU-FAU-COST-CENTER OF XFAU-FAU-UNFORMATTED            CPPDEUCI
009700          TO DE0647-FBA-COST-CENTERO (ARRAY-SUB).                 CPPDEUCI
009800     MOVE XFAU-FAU-FUND OF XFAU-FAU-UNFORMATTED                   CPPDEUCI
009900          TO DE0647-FBA-FUNDO (ARRAY-SUB).                        CPPDEUCI
010000     PERFORM CPPD-FORMAT-FUND-FIELDS.                             CPPDEUCI
010010     MOVE XFAU-FAU-PROJECT-CODE OF XFAU-FAU-UNFORMATTED           CPPDEUCI
010020          TO DE0647-FBA-PROJECT-CODEO (ARRAY-SUB).                CPPDEUCI
010100                                                                  CPPDEUCI
010200**************************************************************/   CPPDEUCI
010300 CPPD-FORMAT-ACCOUNT-FIELDS     SECTION.                          CPPDEUCI
010400**************************************************************/   CPPDEUCI
010500     EVALUATE TRUE                                                CPPDEUCI
010600        WHEN DE0647-FBA-ACCOUNTO (ARRAY-SUB) = SPACES             CPPDEUCI
010700        WHEN DE0647-FBA-ACCOUNTO (ARRAY-SUB) (1:1) = '*'          CPPDEUCI
010800        WHEN DE0647-FBA-ACCOUNTO (ARRAY-SUB) (1:1) NOT = SPACE    CPPDEUCI
010900            CONTINUE                                              CPPDEUCI
011000        WHEN (DE0647-FBA-ACCOUNTO (ARRAY-SUB) (5:1) = SPACE) AND  CPPDEUCI
011100             (DE0647-FBA-ACCOUNTO (ARRAY-SUB) (6:1) = '0')        CPPDEUCI
011200            MOVE SPACES TO DE0647-FBA-ACCOUNTO (ARRAY-SUB)        CPPDEUCI
011300        WHEN OTHER                                                CPPDEUCI
011400            PERFORM VARYING WS-SUB FROM 1 BY 1 UNTIL WS-SUB > 6   CPPDEUCI
011500               IF DE0647-FBA-ACCOUNTO (ARRAY-SUB) (WS-SUB:1)      CPPDEUCI
011600                                      = SPACE                     CPPDEUCI
011700                  MOVE '0' TO                                     CPPDEUCI
011800                      DE0647-FBA-ACCOUNTO (ARRAY-SUB) (WS-SUB:1)  CPPDEUCI
011900               END-IF                                             CPPDEUCI
012000            END-PERFORM                                           CPPDEUCI
012100     END-EVALUATE.                                                CPPDEUCI
012200**************************************************************/   CPPDEUCI
012300 CPPD-FORMAT-FUND-FIELDS        SECTION.                          CPPDEUCI
012400**************************************************************/   CPPDEUCI
012500     EVALUATE TRUE                                                CPPDEUCI
012600        WHEN DE0647-FBA-FUNDO (ARRAY-SUB) = SPACES                CPPDEUCI
012700        WHEN DE0647-FBA-FUNDO (ARRAY-SUB) (1:1) = '*'             CPPDEUCI
012800        WHEN DE0647-FBA-FUNDO (ARRAY-SUB) (1:1) NOT = SPACE       CPPDEUCI
012900            CONTINUE                                              CPPDEUCI
013000        WHEN (DE0647-FBA-FUNDO (ARRAY-SUB) (4:1) = SPACE) AND     CPPDEUCI
013100             (DE0647-FBA-FUNDO (ARRAY-SUB) (5:1) = '0')           CPPDEUCI
013200            MOVE SPACES TO DE0647-FBA-FUNDO (ARRAY-SUB)           CPPDEUCI
013300        WHEN OTHER                                                CPPDEUCI
013400            PERFORM VARYING WS-SUB FROM 1 BY 1 UNTIL WS-SUB > 5   CPPDEUCI
013500               IF DE0647-FBA-FUNDO (ARRAY-SUB) (WS-SUB:1)         CPPDEUCI
013600                                      = SPACE                     CPPDEUCI
013700                  MOVE '0' TO                                     CPPDEUCI
013800                      DE0647-FBA-FUNDO (ARRAY-SUB) (WS-SUB:1)     CPPDEUCI
013900               END-IF                                             CPPDEUCI
014000            END-PERFORM                                           CPPDEUCI
014100     END-EVALUATE.                                                CPPDEUCI
014600**************************************************************/   CPPDEUCI
014700 CPPD-EDIT-FBA-FULL-ACCT-UNIT   SECTION.                          CPPDEUCI
014800**************************************************************/   CPPDEUCI
014900***ALTERED FBA FULL ACCOUNTING UNIT WILL BE PASSED TP VREDIT    * CPPDEUCI
015000                                                                  CPPDEUCI
015100     EVALUATE TRUE                                                CPPDEUCI
015200        WHEN DE0647-FBA-LOCATION-CODEL (EDIT-SUB) > ZERO          CPPDEUCI
015300        WHEN DE0647-FBA-ACCOUNTL       (EDIT-SUB) > ZERO          CPPDEUCI
015400        WHEN DE0647-FBA-COST-CENTERL   (EDIT-SUB) > ZERO          CPPDEUCI
015500        WHEN DE0647-FBA-FUNDL          (EDIT-SUB) > ZERO          CPPDEUCI
015510        WHEN DE0647-FBA-PROJECT-CODEL  (EDIT-SUB) > ZERO          CPPDEUCI
015600           ADD +1 TO CPWSDEED-CNT                                 CPPDEUCI
015700           MOVE 0647 TO CPWSDEED-ELEM-NUMBER (CPWSDEED-CNT)       CPPDEUCI
015800           MOVE EFBA-FBA-FULL-ACCT-UNIT                           CPPDEUCI
015900                   OF FURLOUGH-ACCT-ARRAY (EDIT-SUB) TO           CPPDEUCI
016000                   XFAU-FAU-UNFORMATTED                           CPPDEUCI
016100           IF DE0647-FBA-LOCATION-CODEL (EDIT-SUB) > ZERO         CPPDEUCI
016200              MOVE DE0647-FBA-LOCATION-CODEI (EDIT-SUB) TO        CPPDEUCI
016300                   XFAU-FAU-LOCATION OF XFAU-FAU-UNFORMATTED      CPPDEUCI
016400              IF XFAU-FAU-LOCATION OF                             CPPDEUCI
016410                   XFAU-FAU-UNFORMATTED (1:1) = '*'               CPPDEUCI
016510                 MOVE SPACES TO                                   CPPDEUCI
016520                   XFAU-FAU-LOCATION OF XFAU-FAU-UNFORMATTED      CPPDEUCI
016530              END-IF                                              CPPDEUCI
016600           END-IF                                                 CPPDEUCI
016700           IF DE0647-FBA-ACCOUNTL (EDIT-SUB) > ZERO               CPPDEUCI
016800              MOVE DE0647-FBA-ACCOUNTI (EDIT-SUB) TO              CPPDEUCI
016900                   XFAU-FAU-ACCOUNT OF XFAU-FAU-UNFORMATTED       CPPDEUCI
017000              IF XFAU-FAU-ACCOUNT OF                              CPPDEUCI
017100                   XFAU-FAU-UNFORMATTED (1:1) = '*'               CPPDEUCI
017110                 MOVE SPACES TO                                   CPPDEUCI
017120                   XFAU-FAU-ACCOUNT OF XFAU-FAU-UNFORMATTED       CPPDEUCI
017130              END-IF                                              CPPDEUCI
017200           END-IF                                                 CPPDEUCI
017300           IF DE0647-FBA-COST-CENTERL (EDIT-SUB) > ZERO           CPPDEUCI
017400              MOVE DE0647-FBA-COST-CENTERI (EDIT-SUB) TO          CPPDEUCI
017500                   XFAU-FAU-COST-CENTER OF XFAU-FAU-UNFORMATTED   CPPDEUCI
017600              IF XFAU-FAU-COST-CENTER OF                          CPPDEUCI
017700                   XFAU-FAU-UNFORMATTED (1:1) = '*'               CPPDEUCI
017710                 MOVE SPACES TO                                   CPPDEUCI
017720                   XFAU-FAU-COST-CENTER OF XFAU-FAU-UNFORMATTED   CPPDEUCI
017730              END-IF                                              CPPDEUCI
017800           END-IF                                                 CPPDEUCI
017900           IF DE0647-FBA-FUNDL (EDIT-SUB) > ZERO                  CPPDEUCI
018000              MOVE DE0647-FBA-FUNDI (EDIT-SUB) TO                 CPPDEUCI
018100                   XFAU-FAU-FUND OF XFAU-FAU-UNFORMATTED          CPPDEUCI
018200              IF XFAU-FAU-FUND OF                                 CPPDEUCI
018300                   XFAU-FAU-UNFORMATTED (1:1) = '*'               CPPDEUCI
018310                 MOVE SPACES TO                                   CPPDEUCI
018320                   XFAU-FAU-FUND OF XFAU-FAU-UNFORMATTED          CPPDEUCI
018330              END-IF                                              CPPDEUCI
018400           END-IF                                                 CPPDEUCI
018410           IF DE0647-FBA-PROJECT-CODEL (EDIT-SUB) > ZERO          CPPDEUCI
018420              MOVE DE0647-FBA-PROJECT-CODEI (EDIT-SUB) TO         CPPDEUCI
018430                   XFAU-FAU-PROJECT-CODE OF XFAU-FAU-UNFORMATTED  CPPDEUCI
018440              IF XFAU-FAU-PROJECT-CODE OF                         CPPDEUCI
018450                   XFAU-FAU-UNFORMATTED (1:1) = '*'               CPPDEUCI
018460                 MOVE SPACES TO                                   CPPDEUCI
018470                   XFAU-FAU-PROJECT-CODE OF XFAU-FAU-UNFORMATTED  CPPDEUCI
018480              END-IF                                              CPPDEUCI
018490           END-IF                                                 CPPDEUCI
018500           MOVE XFAU-FAU-UNFORMATTED TO                           CPPDEUCI
018600                  CPWSDEED-ENTERED-DATA (CPWSDEED-CNT)            CPPDEUCI
018700           SET CPWSDEED-ELEM-REQUEST-EDIT (CPWSDEED-CNT) TO TRUE  CPPDEUCI
018800           MOVE EDIT-SUB TO                                       CPPDEUCI
018900                   CPWSDEED-ELEM-SCREEN-OCCURNCE (CPWSDEED-CNT)   CPPDEUCI
018910           MOVE UCCOMMON-ATR-ENTRY-MDT TO                         CPPDEUCI
018920                   DE0647-FBA-LOCATION-CODEA (EDIT-SUB)           CPPDEUCI
018940                   DE0647-FBA-ACCOUNTA (EDIT-SUB)                 CPPDEUCI
018960                   DE0647-FBA-COST-CENTERA (EDIT-SUB)             CPPDEUCI
018980                   DE0647-FBA-FUNDA (EDIT-SUB)                    CPPDEUCI
018990                   DE0647-FBA-PROJECT-CODEA (EDIT-SUB)            CPPDEUCI
019000                                                                  CPPDEUCI
019100        WHEN DE0647-FBA-LOCATION-CODEF (EDIT-SUB) = ERASE-EOF     CPPDEUCI
019200        WHEN DE0647-FBA-ACCOUNTF       (EDIT-SUB) = ERASE-EOF     CPPDEUCI
019300        WHEN DE0647-FBA-COST-CENTERF   (EDIT-SUB) = ERASE-EOF     CPPDEUCI
019400        WHEN DE0647-FBA-FUNDF          (EDIT-SUB) = ERASE-EOF     CPPDEUCI
019410        WHEN DE0647-FBA-PROJECT-CODEF  (EDIT-SUB) = ERASE-EOF     CPPDEUCI
019500           IF CPWSWORK-WA-FBA-SUB (EDIT-SUB) > ZERO               CPPDEUCI
019600              ADD +1 TO CPWSDEED-CNT                              CPPDEUCI
019700              MOVE 0647 TO CPWSDEED-ELEM-NUMBER (CPWSDEED-CNT)    CPPDEUCI
019800              MOVE EDIT-SUB TO                                    CPPDEUCI
019900                   CPWSDEED-ELEM-SCREEN-OCCURNCE (CPWSDEED-CNT)   CPPDEUCI
020000              MOVE EFBA-FBA-FULL-ACCT-UNIT                        CPPDEUCI
020100                   OF FURLOUGH-ACCT-ARRAY-HOLD (EDIT-SUB) TO      CPPDEUCI
020200                   XFAU-FAU-UNFORMATTED                           CPPDEUCI
020300              MOVE CORR XFAU-FAU-UNFORMATTED TO                   CPPDEUCI
020400                   XFAU-FAU-HYPHEN-FORMAT                         CPPDEUCI
020600              MOVE EFBA-FBA-FULL-ACCT-UNIT                        CPPDEUCI
020700                   OF FURLOUGH-ACCT-ARRAY (EDIT-SUB) TO           CPPDEUCI
020800                   XFAU-FAU-UNFORMATTED                           CPPDEUCI
020900              SET CPWSDEED-ELEM-REQUEST-EDIT (CPWSDEED-CNT)       CPPDEUCI
021000                                                        TO TRUE   CPPDEUCI
021100**************SET CPWSDEED-ERASE-EOF-YES (CPWSDEED-CNT) TO TRUE   CPPDEUCI
021200              IF DE0647-FBA-LOCATION-CODEF (EDIT-SUB) = ERASE-EOF CPPDEUCI
021300                 MOVE XFAU-FAU-LOCATION OF XFAU-FAU-HYPHEN-FORMAT CPPDEUCI
021400                   TO XFAU-FAU-LOCATION OF XFAU-FAU-UNFORMATTED   CPPDEUCI
021500              END-IF                                              CPPDEUCI
021600              IF DE0647-FBA-COST-CENTERF (EDIT-SUB) = ERASE-EOF   CPPDEUCI
021800                 MOVE SPACES                                      CPPDEUCI
021900                   TO XFAU-FAU-COST-CENTER OF XFAU-FAU-UNFORMATTEDCPPDEUCI
022000              END-IF                                              CPPDEUCI
022100              IF DE0647-FBA-ACCOUNTF (EDIT-SUB) = ERASE-EOF       CPPDEUCI
022200                 MOVE XFAU-FAU-ACCOUNT OF XFAU-FAU-HYPHEN-FORMAT  CPPDEUCI
022300                   TO XFAU-FAU-ACCOUNT OF XFAU-FAU-UNFORMATTED    CPPDEUCI
022400              END-IF                                              CPPDEUCI
022500              IF DE0647-FBA-FUNDF (EDIT-SUB) = ERASE-EOF          CPPDEUCI
022600                 MOVE XFAU-FAU-FUND OF XFAU-FAU-HYPHEN-FORMAT     CPPDEUCI
022700                   TO XFAU-FAU-FUND OF XFAU-FAU-UNFORMATTED       CPPDEUCI
022800              END-IF                                              CPPDEUCI
022810              IF DE0647-FBA-PROJECT-CODEF (EDIT-SUB) = ERASE-EOF  CPPDEUCI
022820                 MOVE XFAU-FAU-PROJECT-CODE                       CPPDEUCI
022821                                    OF XFAU-FAU-HYPHEN-FORMAT     CPPDEUCI
022830                   TO XFAU-FAU-PROJECT-CODE                       CPPDEUCI
022831                                    OF XFAU-FAU-UNFORMATTED       CPPDEUCI
022840              END-IF                                              CPPDEUCI
022900              MOVE XFAU-FAU-UNFORMATTED TO                        CPPDEUCI
023000                            CPWSDEED-ENTERED-DATA (CPWSDEED-CNT)  CPPDEUCI
023100              MOVE UCCOMMON-ATR-ENTRY TO                          CPPDEUCI
023200                            DE0647-FBA-LOCATION-CODEA (EDIT-SUB)  CPPDEUCI
023300                            DE0647-FBA-ACCOUNTA (EDIT-SUB)        CPPDEUCI
023400                            DE0647-FBA-COST-CENTERA (EDIT-SUB)    CPPDEUCI
023500                            DE0647-FBA-FUNDA (EDIT-SUB)           CPPDEUCI
023510                            DE0647-FBA-PROJECT-CODEA (EDIT-SUB)   CPPDEUCI
023600           END-IF                                                 CPPDEUCI
023700                                                                  CPPDEUCI
023800        WHEN OTHER                                                CPPDEUCI
023900           IF CPWSWORK-WA-FBA-SUB (EDIT-SUB) > ZERO               CPPDEUCI
024000              ADD +1 TO CPWSDEED-CNT                              CPPDEUCI
024100              MOVE 0647 TO CPWSDEED-ELEM-NUMBER (CPWSDEED-CNT)    CPPDEUCI
024200              MOVE EDIT-SUB TO                                    CPPDEUCI
024300                   CPWSDEED-ELEM-SCREEN-OCCURNCE (CPWSDEED-CNT)   CPPDEUCI
024400              SET CPWSDEED-ELEM-REQUEST-DISPLAY (CPWSDEED-CNT)    CPPDEUCI
024500                                                        TO TRUE   CPPDEUCI
024600              IF EFBA-FBA-ADC-CODE OF                             CPPDEUCI
024700                 FURLOUGH-ACCT-ARRAY (EDIT-SUB) = 'D'             CPPDEUCI
024800                 MOVE SPACES TO CPWSDEED-EDB-DATA (CPWSDEED-CNT)  CPPDEUCI
024900              ELSE                                                CPPDEUCI
025000                 MOVE EFBA-FBA-FULL-ACCT-UNIT OF                  CPPDEUCI
025100                      FURLOUGH-ACCT-ARRAY (EDIT-SUB)              CPPDEUCI
025200                      TO CPWSDEED-EDB-DATA (CPWSDEED-CNT)         CPPDEUCI
025300              END-IF                                              CPPDEUCI
025400              MOVE UCCOMMON-ATR-ENTRY TO                          CPPDEUCI
025500                            DE0647-FBA-LOCATION-CODEA (EDIT-SUB)  CPPDEUCI
025600                            DE0647-FBA-ACCOUNTA (EDIT-SUB)        CPPDEUCI
025700                            DE0647-FBA-COST-CENTERA (EDIT-SUB)    CPPDEUCI
025800                            DE0647-FBA-FUNDA (EDIT-SUB)           CPPDEUCI
025810                            DE0647-FBA-PROJECT-CODEA (EDIT-SUB)   CPPDEUCI
025900           ELSE                                                   CPPDEUCI
026000              MOVE UCCOMMON-ATR-ENTRY TO                          CPPDEUCI
026100                            DE0647-FBA-LOCATION-CODEA (EDIT-SUB)  CPPDEUCI
026200                            DE0647-FBA-ACCOUNTA (EDIT-SUB)        CPPDEUCI
026300                            DE0647-FBA-COST-CENTERA (EDIT-SUB)    CPPDEUCI
026400                            DE0647-FBA-FUNDA (EDIT-SUB)           CPPDEUCI
026410                            DE0647-FBA-PROJECT-CODEA (EDIT-SUB)   CPPDEUCI
026500           END-IF                                                 CPPDEUCI
026600                                                                  CPPDEUCI
026700     END-EVALUATE.                                                CPPDEUCI
026800     MOVE UCCOMMON-CLR-ENTRY TO                                   CPPDEUCI
026900                   DE0647-FBA-LOCATION-CODEC (EDIT-SUB)           CPPDEUCI
027000                   DE0647-FBA-ACCOUNTC (EDIT-SUB)                 CPPDEUCI
027100                   DE0647-FBA-COST-CENTERC (EDIT-SUB)             CPPDEUCI
027200                   DE0647-FBA-FUNDC (EDIT-SUB)                    CPPDEUCI
027210                   DE0647-FBA-PROJECT-CODEC (EDIT-SUB).           CPPDEUCI
027300     MOVE UCCOMMON-HLT-ENTRY TO                                   CPPDEUCI
027400                   DE0647-FBA-LOCATION-CODEH (EDIT-SUB)           CPPDEUCI
027500                   DE0647-FBA-ACCOUNTH (EDIT-SUB)                 CPPDEUCI
027600                   DE0647-FBA-COST-CENTERH (EDIT-SUB)             CPPDEUCI
027700                   DE0647-FBA-FUNDH (EDIT-SUB)                    CPPDEUCI
027710                   DE0647-FBA-PROJECT-CODEH (EDIT-SUB).           CPPDEUCI
027800**************************************************************/   CPPDEUCI
027900 CPPD-UPDATE-DATA-ELEM          SECTION.                          CPPDEUCI
028000**************************************************************/   CPPDEUCI
028100     EVALUATE TRUE                                                CPPDEUCI
028200        WHEN CPWSDEED-ELEM-NUMBER (EDIT-SUB) = 0647               CPPDEUCI
028300           IF CPWSDEED-ELEM-REQUEST-EDIT (EDIT-SUB)               CPPDEUCI
028400              IF CPWSDEED-EDB-DATA (EDIT-SUB) = SPACES            CPPDEUCI
028500                 INITIALIZE EFBA-FBA-FULL-ACCT-UNIT OF            CPPDEUCI
028600                   FURLOUGH-ACCT-ARRAY (ARRAY-SUB)                CPPDEUCI
028700                   CPWSWORK-WA-FBA-FAU (ARRAY-SUB)                CPPDEUCI
028800              ELSE                                                CPPDEUCI
028900                 MOVE CPWSDEED-EDB-DATA (EDIT-SUB) TO             CPPDEUCI
029000                    EFBA-FBA-FULL-ACCT-UNIT OF                    CPPDEUCI
029100                    FURLOUGH-ACCT-ARRAY (ARRAY-SUB)               CPPDEUCI
029200                    CPWSWORK-WA-FBA-FAU (ARRAY-SUB)               CPPDEUCI
029300              END-IF                                              CPPDEUCI
029400              MOVE ARRAY-SUB TO CPWSWORK-WA-FBA-SUB (ARRAY-SUB)   CPPDEUCI
029500           END-IF                                                 CPPDEUCI
029600     END-EVALUATE.                                                CPPDEUCI
029700**************************************************************/   CPPDEUCI
029800 CPPD-CHECK-FOR-DUPLICATES      SECTION.                          CPPDEUCI
029900**************************************************************/   CPPDEUCI
030000     IF (CPWSWORK-WA-FBA-FAU (EDIT-SUB) NOT = SPACES)             CPPDEUCI
030100        PERFORM VARYING ARRAY-SUB FROM 1 BY 1 UNTIL               CPPDEUCI
030200           ARRAY-SUB > CPWSWORK-WA-TOTAL-ENTRIES                  CPPDEUCI
030300           IF CPWSWORK-WA-FBA-FAU (EDIT-SUB) =                    CPPDEUCI
030400              EFBA-FBA-FULL-ACCT-UNIT OF                          CPPDEUCI
030500                   FURLOUGH-ACCT-ARRAY (ARRAY-SUB)                CPPDEUCI
030600              AND CPWSWORK-WA-FBA-SUB (EDIT-SUB) NOT = ARRAY-SUB  CPPDEUCI
030700                                                                  CPPDEUCI
030800              MOVE UCCOMMON-HLT-ERROR TO                          CPPDEUCI
030900                   DE0647-FBA-LOCATION-CODEH (EDIT-SUB)           CPPDEUCI
031000                   DE0647-FBA-ACCOUNTH       (EDIT-SUB)           CPPDEUCI
031100                   DE0647-FBA-COST-CENTERH   (EDIT-SUB)           CPPDEUCI
031200                   DE0647-FBA-FUNDH          (EDIT-SUB)           CPPDEUCI
031210                   DE0647-FBA-PROJECT-CODEH  (EDIT-SUB)           CPPDEUCI
031300                   DE0651-FBA-PERCENTH       (EDIT-SUB)           CPPDEUCI
031400                                                                  CPPDEUCI
031500              MOVE UCCOMMON-ATR-ERROR-MDT TO                      CPPDEUCI
031600                   DE0647-FBA-LOCATION-CODEA (EDIT-SUB)           CPPDEUCI
031700                   DE0647-FBA-ACCOUNTA       (EDIT-SUB)           CPPDEUCI
031800                   DE0647-FBA-COST-CENTERA   (EDIT-SUB)           CPPDEUCI
031900                   DE0647-FBA-FUNDA          (EDIT-SUB)           CPPDEUCI
031910                   DE0647-FBA-PROJECT-CODEA  (EDIT-SUB)           CPPDEUCI
032000                   DE0651-FBA-PERCENTA       (EDIT-SUB)           CPPDEUCI
032100                                                                  CPPDEUCI
032200              MOVE UCCOMMON-CLR-ERROR TO                          CPPDEUCI
032300                   DE0647-FBA-LOCATION-CODEC (EDIT-SUB)           CPPDEUCI
032400                   DE0647-FBA-ACCOUNTC       (EDIT-SUB)           CPPDEUCI
032500                   DE0647-FBA-COST-CENTERC   (EDIT-SUB)           CPPDEUCI
032600                   DE0647-FBA-FUNDC          (EDIT-SUB)           CPPDEUCI
032610                   DE0647-FBA-PROJECT-CODEC  (EDIT-SUB)           CPPDEUCI
032700                   DE0651-FBA-PERCENTC       (EDIT-SUB)           CPPDEUCI
032800                                                                  CPPDEUCI
032900              SET UCCOMMON-EDIT-ERRORS-FOUND TO TRUE              CPPDEUCI
033000              MOVE MP0602 TO UCCOMMON-MSG-NUMBER                  CPPDEUCI
033100           END-IF                                                 CPPDEUCI
033200        END-PERFORM                                               CPPDEUCI
033300     END-IF.                                                      CPPDEUCI
033400**************************************************************/   CPPDEUCI
033500 CPPD-EDIT-ERROR-ROUTINE        SECTION.                          CPPDEUCI
033600**************************************************************/   CPPDEUCI
033700     EVALUATE TRUE                                                CPPDEUCI
033800        WHEN CPWSDEED-ELEM-NUMBER (EDIT-SUB) = 0647               CPPDEUCI
033900            IF CPWSDEED-ELEM-ERRORS-FOUND (EDIT-SUB)              CPPDEUCI
034000               MOVE UCCOMMON-CLR-ERROR TO                         CPPDEUCI
034100                    DE0647-FBA-LOCATION-CODEC (ARRAY-SUB)         CPPDEUCI
034200                    DE0647-FBA-ACCOUNTC       (ARRAY-SUB)         CPPDEUCI
034300                    DE0647-FBA-COST-CENTERC   (ARRAY-SUB)         CPPDEUCI
034400                    DE0647-FBA-FUNDC          (ARRAY-SUB)         CPPDEUCI
034410                    DE0647-FBA-PROJECT-CODEC  (ARRAY-SUB)         CPPDEUCI
034500                    DE0651-FBA-PERCENTC       (ARRAY-SUB)         CPPDEUCI
034600               MOVE UCCOMMON-ATR-ERROR-MDT TO                     CPPDEUCI
034700                    DE0647-FBA-LOCATION-CODEA (ARRAY-SUB)         CPPDEUCI
034800                    DE0647-FBA-ACCOUNTA       (ARRAY-SUB)         CPPDEUCI
034900                    DE0647-FBA-COST-CENTERA   (ARRAY-SUB)         CPPDEUCI
035000                    DE0647-FBA-FUNDA          (ARRAY-SUB)         CPPDEUCI
035010                    DE0647-FBA-PROJECT-CODEA  (ARRAY-SUB)         CPPDEUCI
035100                    DE0651-FBA-PERCENTA       (ARRAY-SUB)         CPPDEUCI
035200               MOVE UCCOMMON-HLT-ERROR TO                         CPPDEUCI
035300                    DE0647-FBA-LOCATION-CODEH (ARRAY-SUB)         CPPDEUCI
035400                    DE0647-FBA-ACCOUNTH       (ARRAY-SUB)         CPPDEUCI
035500                    DE0647-FBA-COST-CENTERH   (ARRAY-SUB)         CPPDEUCI
035600                    DE0647-FBA-FUNDH          (ARRAY-SUB)         CPPDEUCI
035610                    DE0647-FBA-PROJECT-CODEH  (ARRAY-SUB)         CPPDEUCI
035700                    DE0651-FBA-PERCENTH       (ARRAY-SUB)         CPPDEUCI
035800               MOVE CPWSDEED-SCREEN-DATA (EDIT-SUB) TO            CPPDEUCI
035900                    XFAU-FAU-UNFORMATTED                          CPPDEUCI
036000               MOVE XFAU-FAU-LOCATION OF XFAU-FAU-UNFORMATTED     CPPDEUCI
036100                    TO DE0647-FBA-LOCATION-CODEO (ARRAY-SUB)      CPPDEUCI
036200               MOVE XFAU-FAU-ACCOUNT OF XFAU-FAU-UNFORMATTED      CPPDEUCI
036300                    TO DE0647-FBA-ACCOUNTO (ARRAY-SUB)            CPPDEUCI
036400               MOVE XFAU-FAU-COST-CENTER OF XFAU-FAU-UNFORMATTED  CPPDEUCI
036500                    TO DE0647-FBA-COST-CENTERO (ARRAY-SUB)        CPPDEUCI
036600               MOVE XFAU-FAU-FUND OF XFAU-FAU-UNFORMATTED         CPPDEUCI
036700                    TO DE0647-FBA-FUNDO (ARRAY-SUB)               CPPDEUCI
036710               MOVE XFAU-FAU-PROJECT-CODE OF XFAU-FAU-UNFORMATTED CPPDEUCI
036720                    TO DE0647-FBA-PROJECT-CODEO (ARRAY-SUB)       CPPDEUCI
036800               MOVE -1 TO DE0647-FBA-LOCATION-CODEL (ARRAY-SUB)   CPPDEUCI
036900               SET ERRORS-FLAGGED TO TRUE                         CPPDEUCI
037000            END-IF                                                CPPDEUCI
037100     END-EVALUATE.                                                CPPDEUCI
037200**************************************************************/   CPPDEUCI
037300 CPPD-CHECK-FBA-REQUIRED-FIELDS SECTION.                          CPPDEUCI
037400**************************************************************/   CPPDEUCI
037500     IF  (DE0647-FBA-LOCATION-CODEO (EDIT-SUB) = SPACE            CPPDEUCI
037600     OR   DE0647-FBA-LOCATION-CODEO (EDIT-SUB) = LOW-VALUE        CPPDEUCI
037700     OR   DE0647-FBA-LOCATION-CODEO (EDIT-SUB)(1:1) = '*' )       CPPDEUCI
037800     AND (DE0647-FBA-ACCOUNTO (EDIT-SUB) = SPACE                  CPPDEUCI
037900     OR   DE0647-FBA-ACCOUNTO (EDIT-SUB) = LOW-VALUE              CPPDEUCI
038000     OR   DE0647-FBA-ACCOUNTO (EDIT-SUB)(1:1) = '*' )             CPPDEUCI
038100     AND (DE0647-FBA-COST-CENTERO (EDIT-SUB) = SPACE              CPPDEUCI
038200     OR   DE0647-FBA-COST-CENTERO (EDIT-SUB) = LOW-VALUE          CPPDEUCI
038300     OR   DE0647-FBA-COST-CENTERO (EDIT-SUB)(1:1) = '*' )         CPPDEUCI
038400     AND (DE0647-FBA-FUNDO (EDIT-SUB) = SPACE                     CPPDEUCI
038500     OR   DE0647-FBA-FUNDO (EDIT-SUB) = LOW-VALUE                 CPPDEUCI
038600     OR   DE0647-FBA-FUNDO (EDIT-SUB)(1:1) = '*' )                CPPDEUCI
038610     AND (DE0647-FBA-PROJECT-CODEO (EDIT-SUB) = SPACE             CPPDEUCI
038620     OR   DE0647-FBA-PROJECT-CODEO (EDIT-SUB) = LOW-VALUE         CPPDEUCI
038630     OR   DE0647-FBA-PROJECT-CODEO (EDIT-SUB)(1:1) = '*' )        CPPDEUCI
038700     AND (DE0651-FBA-PERCENTO (EDIT-SUB) = SPACE                  CPPDEUCI
038800     OR   DE0651-FBA-PERCENTO (EDIT-SUB) = LOW-VALUE              CPPDEUCI
038900     OR   DE0651-FBA-PERCENTO (EDIT-SUB)(1:1) = '*' )             CPPDEUCI
039000           CONTINUE                                               CPPDEUCI
039100     ELSE                                                         CPPDEUCI
039200        IF (DE0647-FBA-LOCATION-CODEO (EDIT-SUB)                  CPPDEUCI
039300                            = SPACES OR LOW-VALUES OR '*')        CPPDEUCI
039400              MOVE UCCOMMON-HLT-ERROR TO                          CPPDEUCI
039500                DE0647-FBA-LOCATION-CODEH (EDIT-SUB)              CPPDEUCI
039600              MOVE UCCOMMON-CLR-ERROR TO                          CPPDEUCI
039700                DE0647-FBA-LOCATION-CODEC (EDIT-SUB)              CPPDEUCI
039800              MOVE UCCOMMON-ATR-ERROR-MDT TO                      CPPDEUCI
039900                DE0647-FBA-LOCATION-CODEA (EDIT-SUB)              CPPDEUCI
040000              MOVE -1 TO DE0647-FBA-LOCATION-CODEL (EDIT-SUB)     CPPDEUCI
040100              MOVE MP0601 TO UCCOMMON-MSG-NUMBER                  CPPDEUCI
040200              SET UCCOMMON-EDIT-ERRORS-FOUND TO TRUE              CPPDEUCI
040300              SET ERRORS-FLAGGED TO TRUE                          CPPDEUCI
040400        END-IF                                                    CPPDEUCI
040500        IF (DE0647-FBA-ACCOUNTO (EDIT-SUB)                        CPPDEUCI
040600                            = SPACES OR LOW-VALUES OR '*')        CPPDEUCI
040700              MOVE UCCOMMON-HLT-ERROR TO                          CPPDEUCI
040800                DE0647-FBA-ACCOUNTH (EDIT-SUB)                    CPPDEUCI
040900              MOVE UCCOMMON-CLR-ERROR TO                          CPPDEUCI
041000                DE0647-FBA-ACCOUNTC (EDIT-SUB)                    CPPDEUCI
041100              MOVE UCCOMMON-ATR-ERROR-MDT TO                      CPPDEUCI
041200                DE0647-FBA-ACCOUNTA (EDIT-SUB)                    CPPDEUCI
041300              MOVE -1 TO DE0647-FBA-ACCOUNTL (EDIT-SUB)           CPPDEUCI
041400              MOVE MP0601 TO UCCOMMON-MSG-NUMBER                  CPPDEUCI
041500              SET UCCOMMON-EDIT-ERRORS-FOUND TO TRUE              CPPDEUCI
041600              SET ERRORS-FLAGGED TO TRUE                          CPPDEUCI
041700        END-IF                                                    CPPDEUCI
041800        IF (DE0647-FBA-FUNDO (EDIT-SUB)                           CPPDEUCI
041900                            = SPACES OR LOW-VALUES OR '*')        CPPDEUCI
042000              MOVE UCCOMMON-HLT-ERROR TO                          CPPDEUCI
042100                DE0647-FBA-FUNDH (EDIT-SUB)                       CPPDEUCI
042200              MOVE UCCOMMON-CLR-ERROR TO                          CPPDEUCI
042300                DE0647-FBA-FUNDC (EDIT-SUB)                       CPPDEUCI
042400              MOVE UCCOMMON-ATR-ERROR-MDT TO                      CPPDEUCI
042500                DE0647-FBA-FUNDA (EDIT-SUB)                       CPPDEUCI
042600              MOVE -1 TO DE0647-FBA-FUNDL (EDIT-SUB)              CPPDEUCI
042700              MOVE MP0601 TO UCCOMMON-MSG-NUMBER                  CPPDEUCI
042800              SET UCCOMMON-EDIT-ERRORS-FOUND TO TRUE              CPPDEUCI
042900              SET ERRORS-FLAGGED TO TRUE                          CPPDEUCI
043000        END-IF                                                    CPPDEUCI
043100     END-IF.                                                      CPPDEUCI
043200**************************************************************/   CPPDEUCI
043300 CPPD-COMPRESS-SKIPPED-ROWS     SECTION.                          36430875
043400**************************************************************/   CPPDEUCI
043500     MOVE ZERO TO  NEST-SUB                                       CPPDEUCI
043600     MOVE ZERO TO  PRIM-SUB                                       CPPDEUCI
043700     PERFORM                                                      CPPDEUCI
043800        VARYING PRIM-SUB FROM 1 BY 1                              CPPDEUCI
043900          UNTIL PRIM-SUB > ROW-PER-SCRN                           CPPDEUCI
044000**************************************************************/   CPPDEUCI
044100*       IF THE ROW WAS PREVIOUSLY APPLIED TO THE EDB ARRAY        CPPDEUCI
044200**************************************************************/   CPPDEUCI
044300        IF CPWSWORK-WA-FBA-SUB (PRIM-SUB) > ZERO                  CPPDEUCI
044400        OR NOT                                                    CPPDEUCI
044500**************************************************************/   CPPDEUCI
044600*       OR IF THE ROW IS NOT BLANK IT IS RETAINED.                CPPDEUCI
044700**************************************************************/   CPPDEUCI
044800        (   (DE0647-FBA-LOCATION-CODEI (PRIM-SUB) = SPACE         CPPDEUCI
044900        OR   DE0647-FBA-LOCATION-CODEI (PRIM-SUB) = LOW-VALUE     CPPDEUCI
045000        OR   DE0647-FBA-LOCATION-CODEI (PRIM-SUB) (1:1) = '*' )   CPPDEUCI
045100        AND (DE0647-FBA-ACCOUNTI (PRIM-SUB) = SPACE               CPPDEUCI
045200        OR   DE0647-FBA-ACCOUNTI (PRIM-SUB) = ZERO                CPPDEUCI
045300        OR   DE0647-FBA-ACCOUNTI (PRIM-SUB) = LOW-VALUE           CPPDEUCI
045400        OR   DE0647-FBA-ACCOUNTI (PRIM-SUB) (1:1) = '*' )         CPPDEUCI
045500        AND (DE0647-FBA-COST-CENTERI (PRIM-SUB) = SPACE           CPPDEUCI
045600        OR   DE0647-FBA-COST-CENTERI (PRIM-SUB) = ZERO            CPPDEUCI
045700        OR   DE0647-FBA-COST-CENTERI (PRIM-SUB) = LOW-VALUE       CPPDEUCI
045800        OR   DE0647-FBA-COST-CENTERI (PRIM-SUB) (1:1) = '*' )     CPPDEUCI
045900        AND (DE0647-FBA-FUNDI (PRIM-SUB) = SPACE                  CPPDEUCI
046000        OR   DE0647-FBA-FUNDI (PRIM-SUB) = ZERO                   CPPDEUCI
046100        OR   DE0647-FBA-FUNDI (PRIM-SUB) = LOW-VALUE              CPPDEUCI
046200        OR   DE0647-FBA-FUNDI (PRIM-SUB) (1:1) = '*' )            CPPDEUCI
046210        AND (DE0647-FBA-PROJECT-CODEI (PRIM-SUB) = SPACE          CPPDEUCI
046220        OR   DE0647-FBA-PROJECT-CODEI (PRIM-SUB) = ZERO           CPPDEUCI
046230        OR   DE0647-FBA-PROJECT-CODEI (PRIM-SUB) = LOW-VALUE      CPPDEUCI
046240        OR   DE0647-FBA-PROJECT-CODEI (PRIM-SUB) (1:1) = '*' )    CPPDEUCI
046300        AND (DE0651-FBA-PERCENTI (PRIM-SUB) = SPACE               CPPDEUCI
046400        OR   DE0651-FBA-PERCENTI (PRIM-SUB) = ZERO                CPPDEUCI
046500        OR   DE0651-FBA-PERCENTI (PRIM-SUB) = LOW-VALUE           CPPDEUCI
046600        OR   DE0651-FBA-PERCENTI (PRIM-SUB) (1:1) = '*' ) )       CPPDEUCI
046700           ADD 1 TO NEST-SUB                                      CPPDEUCI
046800           IF PRIM-SUB > NEST-SUB                                 CPPDEUCI
046900              MOVE DE0647-FBA-LOCATION-CODED(PRIM-SUB)            CPPDEUCI
047000                TO DE0647-FBA-LOCATION-CODED(NEST-SUB)            CPPDEUCI
047100              MOVE DE0647-FBA-ACCOUNTD(PRIM-SUB)                  CPPDEUCI
047200                TO DE0647-FBA-ACCOUNTD(NEST-SUB)                  CPPDEUCI
047300              MOVE DE0647-FBA-COST-CENTERD(PRIM-SUB)              CPPDEUCI
047400                TO DE0647-FBA-COST-CENTERD(NEST-SUB)              CPPDEUCI
047500              MOVE DE0647-FBA-FUNDD(PRIM-SUB)                     CPPDEUCI
047600                TO DE0647-FBA-FUNDD(NEST-SUB)                     CPPDEUCI
047610              MOVE DE0647-FBA-PROJECT-CODED(PRIM-SUB)             CPPDEUCI
047620                TO DE0647-FBA-PROJECT-CODED(NEST-SUB)             CPPDEUCI
047700              MOVE DE0651-FBA-PERCENTD(PRIM-SUB)                  CPPDEUCI
047800                TO DE0651-FBA-PERCENTD(NEST-SUB)                  CPPDEUCI
047900           END-IF                                                 CPPDEUCI
048000        END-IF                                                    CPPDEUCI
048100     END-PERFORM.                                                 CPPDEUCI
048200                                                                  CPPDEUCI
048300**************************************************************/   CPPDEUCI
048400*    CLEAR THE REST OF THE TABLE                                  CPPDEUCI
048500**************************************************************/   CPPDEUCI
048600     IF NEST-SUB > ZERO                                           CPPDEUCI
048700        ADD 1 TO NEST-SUB                                         CPPDEUCI
048800        PERFORM                                                   CPPDEUCI
048900           VARYING PRIM-SUB FROM NEST-SUB BY 1                    CPPDEUCI
049000             UNTIL PRIM-SUB > ROW-PER-SCRN                        CPPDEUCI
049100           MOVE LOW-VALUE TO DE0647-FBA-LOCATION-CODED (PRIM-SUB) CPPDEUCI
049200           MOVE LOW-VALUE TO DE0647-FBA-ACCOUNTD (PRIM-SUB)       CPPDEUCI
049300           MOVE LOW-VALUE TO DE0647-FBA-COST-CENTERD (PRIM-SUB)   CPPDEUCI
049400           MOVE LOW-VALUE TO DE0647-FBA-FUNDD (PRIM-SUB)          CPPDEUCI
049410           MOVE LOW-VALUE TO DE0647-FBA-PROJECT-CODED (PRIM-SUB)  CPPDEUCI
049500           MOVE LOW-VALUE TO DE0651-FBA-PERCENTD (PRIM-SUB)       CPPDEUCI
049600        END-PERFORM                                               CPPDEUCI
049700     END-IF.                                                      CPPDEUCI
049800**************************************************************/   CPPDEUCI
049900 CPPD-COMPRESS-SCRN-TBL-INPUT   SECTION.                          36430875
050000**************************************************************/   CPPDEUCI
050100     MOVE ZERO TO  NEST-SUB                                       CPPDEUCI
050200     MOVE ZERO TO  PRIM-SUB                                       CPPDEUCI
050300     PERFORM                                                      CPPDEUCI
050400        VARYING PRIM-SUB FROM 1 BY 1                              CPPDEUCI
050500          UNTIL PRIM-SUB > ROW-PER-SCRN                           CPPDEUCI
050600**************************************************************/   CPPDEUCI
050700*       IF THE ROW SHOULD BE PROTECTED OR FLAGGED AS AN ERROR,    CPPDEUCI
050800*       RETAIN IT.                                                CPPDEUCI
050900**************************************************************/   CPPDEUCI
051000        IF DE0647-FBA-LOCATION-CODEA (PRIM-SUB)                   CPPDEUCI
051100           = UCCOMMON-ATR-ENTRY-PRO                               CPPDEUCI
051200        OR DE0647-FBA-LOCATION-CODEA (PRIM-SUB)                   CPPDEUCI
051300           = UCCOMMON-ATR-ERROR-MDT                               CPPDEUCI
051400        OR NOT                                                    CPPDEUCI
051500**************************************************************/   CPPDEUCI
051600*       OR IF THE ROW IS NOT BLANK RETAIN IT.                     CPPDEUCI
051700**************************************************************/   CPPDEUCI
051800        (   (DE0647-FBA-LOCATION-CODEI (PRIM-SUB) = SPACE         CPPDEUCI
051900        OR   DE0647-FBA-LOCATION-CODEI (PRIM-SUB) = LOW-VALUE     CPPDEUCI
052000        OR   DE0647-FBA-LOCATION-CODEI (PRIM-SUB) (1:1) = '*' )   CPPDEUCI
052100        AND (DE0647-FBA-ACCOUNTI (PRIM-SUB) = SPACE               CPPDEUCI
052200        OR   DE0647-FBA-ACCOUNTI (PRIM-SUB) = ZERO                CPPDEUCI
052300        OR   DE0647-FBA-ACCOUNTI (PRIM-SUB) = LOW-VALUE           CPPDEUCI
052400        OR   DE0647-FBA-ACCOUNTI (PRIM-SUB) (1:1) = '*' )         CPPDEUCI
052500        AND (DE0647-FBA-COST-CENTERI (PRIM-SUB) = SPACE           CPPDEUCI
052600        OR   DE0647-FBA-COST-CENTERI (PRIM-SUB) = ZERO            CPPDEUCI
052700        OR   DE0647-FBA-COST-CENTERI (PRIM-SUB) = LOW-VALUE       CPPDEUCI
052800        OR   DE0647-FBA-COST-CENTERI (PRIM-SUB) (1:1) = '*' )     CPPDEUCI
052900        AND (DE0647-FBA-FUNDI (PRIM-SUB) = SPACE                  CPPDEUCI
053000        OR   DE0647-FBA-FUNDI (PRIM-SUB) = ZERO                   CPPDEUCI
053100        OR   DE0647-FBA-FUNDI (PRIM-SUB) = LOW-VALUE              CPPDEUCI
053200        OR   DE0647-FBA-FUNDI (PRIM-SUB) (1:1) = '*' )            CPPDEUCI
053210        AND (DE0647-FBA-PROJECT-CODEI (PRIM-SUB) = SPACE          CPPDEUCI
053220        OR   DE0647-FBA-PROJECT-CODEI (PRIM-SUB) = ZERO           CPPDEUCI
053230        OR   DE0647-FBA-PROJECT-CODEI (PRIM-SUB) = LOW-VALUE      CPPDEUCI
053240        OR   DE0647-FBA-PROJECT-CODEI (PRIM-SUB) (1:1) = '*' )    CPPDEUCI
053300        AND (DE0651-FBA-PERCENTI (PRIM-SUB) = SPACE               CPPDEUCI
053400        OR   DE0651-FBA-PERCENTI (PRIM-SUB) = ZERO                CPPDEUCI
053500        OR   DE0651-FBA-PERCENTI (PRIM-SUB) = LOW-VALUE           CPPDEUCI
053600        OR   DE0651-FBA-PERCENTI (PRIM-SUB) (1:1) = '*' ) )       CPPDEUCI
053700           ADD 1 TO NEST-SUB                                      CPPDEUCI
053800           IF PRIM-SUB > NEST-SUB                                 CPPDEUCI
053900              MOVE CPWSWORK-WA-SCRN-ITEM(PRIM-SUB)                CPPDEUCI
054000                TO CPWSWORK-WA-SCRN-ITEM(NEST-SUB)                CPPDEUCI
054100              MOVE DE0647-FBA-LOCATION-CODED(PRIM-SUB)            CPPDEUCI
054200                TO DE0647-FBA-LOCATION-CODED(NEST-SUB)            CPPDEUCI
054300              MOVE DE0647-FBA-ACCOUNTD(PRIM-SUB)                  CPPDEUCI
054400                TO DE0647-FBA-ACCOUNTD(NEST-SUB)                  CPPDEUCI
054500              MOVE DE0647-FBA-COST-CENTERD(PRIM-SUB)              CPPDEUCI
054600                TO DE0647-FBA-COST-CENTERD(NEST-SUB)              CPPDEUCI
054700              MOVE DE0647-FBA-FUNDD(PRIM-SUB)                     CPPDEUCI
054800                TO DE0647-FBA-FUNDD(NEST-SUB)                     CPPDEUCI
054810              MOVE DE0647-FBA-PROJECT-CODED(PRIM-SUB)             CPPDEUCI
054820                TO DE0647-FBA-PROJECT-CODED(NEST-SUB)             CPPDEUCI
054900              MOVE DE0651-FBA-PERCENTD(PRIM-SUB)                  CPPDEUCI
055000                TO DE0651-FBA-PERCENTD(NEST-SUB)                  CPPDEUCI
055100           END-IF                                                 CPPDEUCI
055200        END-IF                                                    CPPDEUCI
055300     END-PERFORM.                                                 CPPDEUCI
055400                                                                  CPPDEUCI
055500**************************************************************/   CPPDEUCI
055600*    CLEAR THE REST OF THE TABLE                                  CPPDEUCI
055700**************************************************************/   CPPDEUCI
055800     IF NEST-SUB > ZERO                                           CPPDEUCI
055900        ADD 1 TO NEST-SUB                                         CPPDEUCI
056000        PERFORM                                                   CPPDEUCI
056100           VARYING PRIM-SUB FROM NEST-SUB BY 1                    CPPDEUCI
056200             UNTIL PRIM-SUB > ROW-PER-SCRN                        CPPDEUCI
056300           INITIALIZE CPWSWORK-WA-SCRN-ITEM (PRIM-SUB)            CPPDEUCI
056400           MOVE LOW-VALUE TO DE0647-FBA-LOCATION-CODEI (PRIM-SUB) CPPDEUCI
056500           MOVE LOW-VALUE TO DE0647-FBA-ACCOUNTI (PRIM-SUB)       CPPDEUCI
056600           MOVE LOW-VALUE TO DE0647-FBA-COST-CENTERI (PRIM-SUB)   CPPDEUCI
056700           MOVE LOW-VALUE TO DE0647-FBA-FUNDI (PRIM-SUB)          CPPDEUCI
056710           MOVE LOW-VALUE TO DE0647-FBA-PROJECT-CODEI (PRIM-SUB)  CPPDEUCI
056800           MOVE LOW-VALUE TO DE0651-FBA-PERCENTI (PRIM-SUB)       CPPDEUCI
056900**************************************************************/   CPPDEUCI
057000*          RESET DEFAULT ATTRIBUTES FOR EMPTY ROWS                CPPDEUCI
057100**************************************************************/   CPPDEUCI
057200           MOVE UCCOMMON-CLR-ENTRY                                CPPDEUCI
057300             TO DE0647-FBA-LOCATION-CODEC (PRIM-SUB)              CPPDEUCI
057400           MOVE UCCOMMON-HLT-ENTRY                                CPPDEUCI
057500             TO DE0647-FBA-LOCATION-CODEH (PRIM-SUB)              CPPDEUCI
057600           MOVE WS-ATR                                            CPPDEUCI
057700                    TO DE0647-FBA-LOCATION-CODEA (PRIM-SUB)       CPPDEUCI
057800           MOVE UCCOMMON-CLR-ENTRY                                CPPDEUCI
057900             TO DE0647-FBA-ACCOUNTC (PRIM-SUB)                    CPPDEUCI
058000           MOVE UCCOMMON-HLT-ENTRY                                CPPDEUCI
058100             TO DE0647-FBA-ACCOUNTH (PRIM-SUB)                    CPPDEUCI
058200           MOVE WS-ATR                                            CPPDEUCI
058300                 TO DE0647-FBA-ACCOUNTA (PRIM-SUB)                CPPDEUCI
058400           MOVE UCCOMMON-CLR-ENTRY                                CPPDEUCI
058500             TO DE0647-FBA-COST-CENTERC (PRIM-SUB)                CPPDEUCI
058600           MOVE UCCOMMON-HLT-ENTRY                                CPPDEUCI
058700             TO DE0647-FBA-COST-CENTERH (PRIM-SUB)                CPPDEUCI
058800           MOVE WS-ATR                                            CPPDEUCI
058900                 TO DE0647-FBA-COST-CENTERA (PRIM-SUB)            CPPDEUCI
059000           MOVE UCCOMMON-CLR-ENTRY                                CPPDEUCI
059100             TO DE0647-FBA-FUNDC (PRIM-SUB)                       CPPDEUCI
059200           MOVE UCCOMMON-HLT-ENTRY                                CPPDEUCI
059300             TO DE0647-FBA-FUNDH (PRIM-SUB)                       CPPDEUCI
059400           MOVE WS-ATR                                            CPPDEUCI
059500                 TO DE0647-FBA-FUNDA (PRIM-SUB)                   CPPDEUCI
059510           MOVE UCCOMMON-CLR-ENTRY                                CPPDEUCI
059520             TO DE0647-FBA-PROJECT-CODEC (PRIM-SUB)               CPPDEUCI
059530           MOVE UCCOMMON-HLT-ENTRY                                CPPDEUCI
059540             TO DE0647-FBA-PROJECT-CODEH (PRIM-SUB)               CPPDEUCI
059550           MOVE WS-ATR                                            CPPDEUCI
059560                 TO DE0647-FBA-PROJECT-CODEA (PRIM-SUB)           CPPDEUCI
059600           MOVE UCCOMMON-CLR-ENTRY                                CPPDEUCI
059700             TO DE0651-FBA-PERCENTC (PRIM-SUB)                    CPPDEUCI
059800           MOVE UCCOMMON-HLT-ENTRY                                CPPDEUCI
059900             TO DE0651-FBA-PERCENTH (PRIM-SUB)                    CPPDEUCI
060000           MOVE WS-ATR                                            CPPDEUCI
060100                 TO DE0651-FBA-PERCENTA (PRIM-SUB)                CPPDEUCI
060200        END-PERFORM                                               CPPDEUCI
060300        PERFORM 0110-SET-PROTECTED-FIELDS                         CPPDEUCI
060400     END-IF.                                                      CPPDEUCI
060500                                                                  CPPDEUCI
060600     IF UCCOMMON-NO-EDIT-ERRORS                                   CPPDEUCI
060700        MOVE -1 TO DE0647-FBA-LOCATION-CODEL (1)                  CPPDEUCI
060800     END-IF.                                                      CPPDEUCI
060900**************************************************************/   CPPDEUCI
061000 CPPD-COMPRESS-CURR-ARRAY       SECTION.                          36430875
061100**************************************************************/   CPPDEUCI
061200     MOVE ZERO TO  NEST-SUB                                       CPPDEUCI
061300     MOVE ZERO TO  PRIM-SUB                                       CPPDEUCI
061400     PERFORM                                                      CPPDEUCI
061500        VARYING PRIM-SUB FROM 1 BY 1                              CPPDEUCI
061600          UNTIL PRIM-SUB > 10                                     CPPDEUCI
061700        IF  EFBA-FBA-FULL-ACCT-UNIT                               CPPDEUCI
061800            OF FURLOUGH-ACCT-ARRAY (PRIM-SUB) = SPACE             CPPDEUCI
061900        AND EFBA-FBA-ADC-CODE OF FURLOUGH-ACCT-ARRAY (PRIM-SUB)   CPPDEUCI
062000            = 'A' OR SPACE                                        CPPDEUCI
062100           CONTINUE                                               CPPDEUCI
062200        ELSE                                                      CPPDEUCI
062300           ADD 1 TO NEST-SUB                                      CPPDEUCI
062400           IF PRIM-SUB > NEST-SUB                                 CPPDEUCI
062500              MOVE EFBA-FURLOUGH-ACCT-DATA                        CPPDEUCI
062600                   OF FURLOUGH-ACCT-ARRAY (PRIM-SUB)              CPPDEUCI
062700                TO EFBA-FURLOUGH-ACCT-DATA                        CPPDEUCI
062800                   OF FURLOUGH-ACCT-ARRAY (NEST-SUB)              CPPDEUCI
062900           END-IF                                                 CPPDEUCI
063000        END-IF                                                    CPPDEUCI
063100     END-PERFORM.                                                 CPPDEUCI
063200                                                                  CPPDEUCI
063300**************************************************************/   CPPDEUCI
063400*    CLEAR THE REST OF THE TABLE                                  CPPDEUCI
063500**************************************************************/   CPPDEUCI
063600     ADD 1 TO NEST-SUB                                            CPPDEUCI
063700     PERFORM                                                      CPPDEUCI
063800        VARYING PRIM-SUB FROM NEST-SUB BY 1                       CPPDEUCI
063900          UNTIL PRIM-SUB > 10                                     CPPDEUCI
064000        INITIALIZE EFBA-FURLOUGH-ACCT-DATA                        CPPDEUCI
064100                   OF FURLOUGH-ACCT-ARRAY (PRIM-SUB)              CPPDEUCI
064200     END-PERFORM.                                                 CPPDEUCI
