000800*==========================================================%      UCSD0102
000200*=    COPY MEMBER: CPPDETAP                               =%      UCSD0102
000300*=    CHANGE #UCSD0102      PROJ. REQUEST: RELEASE 1138   =%      UCSD0102
000400*=    NAME: D. CHILCOAT     MODIFICATION DATE: 09/09/97   =%      UCSD0102
000500*=                                                        =%      UCSD0102
000600*=    DESCRIPTION                                         =%      UCSD0102
000700*=    CHANGES MADE TO ACCOMMODATE THE LOCAL COA           =%      UCSD0102
000900*=                                                        =%      UCSD0102
008000*==========================================================%      UCSD0102
000100**************************************************************/   32021138
000200*  COPYMEMBER: CPPDETAP                                      */   32021138
000300*  RELEASE: ___1138______ SERVICE REQUEST(S): ____13202____  */   32021138
000400*  NAME:_PHIL THOMPSON___ CREATION DATE:      ___08/04/97__  */   32021138
000500*  DESCRIPTION:                                              */   32021138
000600*  BASE FAU RELATED PROCEDURE CODE FOR ONLINE FUNCTION ETAP. */   32021138
000700*  THIS CODE ONLY WORKS WITH THE BASE PROGRAM CPPDETAP AND   */   32021138
000800*  BASE MAP PPETAP0.                                         */   32021138
000900**************************************************************/   32021138
072700 CPPD-INITIALIZE-FIELDS SECTION.                                  CPPDETAP
072800******************************************************************CPPDETAP
072900*  INITIALIZE COLOR, HIGHLIGHTING AND PROTECTION ATTRIBUTES      *CPPDETAP
073000******************************************************************CPPDETAP
073300     PERFORM VARYING I FROM                                       CPPDETAP
073400         1 BY 1 UNTIL I > WS-NUMBER-SCRN-TRANS                    CPPDETAP
073500         MOVE UCCOMMON-CLR-ENTRY TO                               CPPDETAP
074500*****                           DE0230-XTAT-LOCC (I)              UCSD0102
074600*****                           DE0230-XTAT-ACCTC (I)             UCSD0102
074700*****                           DE0230-XTAT-COST-CENTERC (I)      UCSD0102
074800*****                           DE0230-XTAT-FNDC (I)              UCSD0102
074900*****                           DE0230-XTAT-PROJECT-CODEC (I)     UCSD0102
074910                                DE0230-XTAT-IFIS-INDEXC (I)       UCSD0102
075000                                DE0230-XTAT-SUBC (I)              CPPDETAP
076100     END-PERFORM.                                                 CPPDETAP
077700     PERFORM VARYING I FROM                                       CPPDETAP
077800         1 BY 1 UNTIL I > WS-NUMBER-SCRN-TRANS                    CPPDETAP
079800*****    MOVE WS-ATR TO         DE0230-XTAT-LOCA (I)              UCSD0102
080000*****    MOVE WS-ATR TO         DE0230-XTAT-ACCTA (I)             UCSD0102
080200*****    MOVE WS-ATR TO         DE0230-XTAT-COST-CENTERA (I)      UCSD0102
080400*****    MOVE WS-ATR TO         DE0230-XTAT-FNDA (I)              UCSD0102
080600*****    MOVE WS-ATR TO         DE0230-XTAT-PROJECT-CODEA (I)     UCSD0102
074910         MOVE WS-ATR TO         DE0230-XTAT-IFIS-INDEXA (I)       UCSD0102
080800         MOVE WS-ATR TO         DE0230-XTAT-SUBA (I)              CPPDETAP
083800     END-PERFORM.                                                 CPPDETAP
083900                                                                  CPPDETAP
084000     PERFORM VARYING I FROM                                       CPPDETAP
084100         1 BY 1 UNTIL I > WS-NUMBER-SCRN-TRANS                    CPPDETAP
084200         MOVE UCCOMMON-HLT-ENTRY TO                               CPPDETAP
085200*****                           DE0230-XTAT-LOCH (I)              UCSD0102
085300*****                           DE0230-XTAT-ACCTH (I)             UCSD0102
085400*****                           DE0230-XTAT-COST-CENTERH (I)      UCSD0102
085500*****                           DE0230-XTAT-FNDH (I)              UCSD0102
085600*****                           DE0230-XTAT-PROJECT-CODEH (I)     UCSD0102
074910                                DE0230-XTAT-IFIS-INDEXH (I)       UCSD0102
085700                                DE0230-XTAT-SUBH (I)              CPPDETAP
086800     END-PERFORM.                                                 CPPDETAP
087500                                                                  CPPDETAP
102400 CPPD-FORMAT-DATA           SECTION.                              CPPDETAP
102500******************************************************************CPPDETAP
102600*  FORMAT CPWSEDTH WITH DATA FROM THE TRANSACTION FOR PPVRTHFO   *CPPDETAP
102700******************************************************************CPPDETAP
109400                                                                  CPPDETAP
109510     ADD +1  TO CPWSEDTH-CNT.                                     CPPDETAP
109600     MOVE I TO CPWSEDTH-ELEM-SCREEN-OCCURNCE (CPWSEDTH-CNT).      CPPDETAP
109610     MOVE XTAT-FAU OF CCWSTHFT-ITEM (I)                           CPPDETAP
109620       TO CPWSEDTH-TRN-DATA(CPWSEDTH-CNT).                        CPPDETAP
109900     MOVE 0230 TO CPWSEDTH-ELEM-NUMBER(CPWSEDTH-CNT).             CPPDETAP
110000     SET CPWSEDTH-ELEM-REQUEST-DISPLAY(CPWSEDTH-CNT) TO TRUE.     CPPDETAP
121400                                                                  CPPDETAP
121500 CPPD-FORMAT-SCREEN         SECTION.                              CPPDETAP
121600******************************************************************CPPDETAP
121700*  MOVE DATA FORMATTED BY PPVRTHFO TO THE MAP                    *CPPDETAP
121800******************************************************************CPPDETAP
121900                                                                  CPPDETAP
130300     MOVE CPWSEDTH-ELEM-SCREEN-OCCURNCE (EDIT-SUB) TO I.          CPPDETAP
130400     MOVE CPWSEDTH-SCREEN-DATA(EDIT-SUB) TO FAUR-FAU.             CPPDETAP
130510*****MOVE FAUR-LOCATION TO DE0230-XTAT-LOCO (I).                  UCSD0102
130530*****MOVE FAUR-ACCOUNT TO DE0230-XTAT-ACCTO (I).                  UCSD0102
130550*****MOVE FAUR-COST-CENTER TO DE0230-XTAT-COST-CENTERO (I).       UCSD0102
130560*****MOVE FAUR-FUND TO DE0230-XTAT-FNDO (I).                      UCSD0102
130570*****MOVE FAUR-PROJECT-CODE TO DE0230-XTAT-PROJECT-CODEO (I).     UCSD0102
130580     MOVE FAUR-INDEX TO DE0230-XTAT-IFIS-INDEXO (I)               UCSD0102
130580     MOVE FAUR-FUND TO DE0230-XTAT-IFIS-FUNDO (I)                 UCSD0102
130580     MOVE FAUR-SUB-ACCOUNT TO DE0230-XTAT-SUBO (I).               CPPDETAP
130600     IF CCWSTHFT-CHANGED-AT (I) > SPACE                           CPPDETAP
130700            AND UCCOMMON-FUNCTION(1:2) NOT = 'ET'                 CPPDETAP
130800        MOVE UCCOMMON-ATR-ENTRY-PRO TO                            CPPDETAP
130900*****                           DE0230-XTAT-LOCA (I)              UCSD0102
130910*****                           DE0230-XTAT-ACCTA (I)             UCSD0102
130920*****                           DE0230-XTAT-COST-CENTERA (I)      UCSD0102
130930*****                           DE0230-XTAT-FNDA (I)              UCSD0102
130940*****                           DE0230-XTAT-PROJECT-CODEA (I)     UCSD0102
130945                                DE0230-XTAT-IFIS-FUNDA (I)        UCSD0102
130950                                DE0230-XTAT-SUBA (I)              CPPDETAP
131000     END-IF.                                                      CPPDETAP
145300                                                                  CPPDETAP
145400 CPPD-EDIT-DATA   SECTION.                                        CPPDETAP
145500***************************************************************** CPPDETAP
145600*  ALL ALTERED MAP FIELDS WILL BE PASSED TO VREDIT FOR          * CPPDETAP
145700*  VALUE-RANGE EDITING.                                         * CPPDETAP
145900*  FOR MAP FIELDS NOT ALTERED, VALUES FROM THE TRN EXTERNALS    * CPPDETAP
146000*  WILL BE PASSED TO VREDIT FOR DATA FORMATTING.                * CPPDETAP
146200***************************************************************** CPPDETAP
175500                                                                  CPPDETAP
175501                                                                  CPPDETAP
175502     ADD +1 TO CPWSEDTH-CNT                                       UCSD0102
175503     MOVE I TO  CPWSEDTH-ELEM-SCREEN-OCCURNCE (CPWSEDTH-CNT)      UCSD0102
175504     MOVE 0230 TO CPWSEDTH-ELEM-NUMBER(CPWSEDTH-CNT)              UCSD0102
175507     MOVE XTAT-FAU OF CCWSTHFT-ITEM (I) TO FAUR-FAU               CPPDETAP
175508     MOVE XTAT-FAU OF CCWSTHFH-ITEM-HOLD (I) TO FAUR-FAU-HOLD     CPPDETAP
175509*****                                                             UCSD0102
175510*****MOVE UCCOMMON-CLR-ENTRY TO                                   UCSD0102
175511*****                 DE0230-XTAT-LOCC (I)                        UCSD0102
175512*****MOVE UCCOMMON-HLT-ENTRY TO                                   UCSD0102
175513*****                 DE0230-XTAT-LOCH (I)                        UCSD0102
175514*****IF DE0230-XTAT-LOCL (I) > ZERO    OR                         UCSD0102
175515*****   DE0230-XTAT-LOCF (I) = ERASE-EOF                          UCSD0102
175516*****   SET CPWSEDTH-ELEM-REQUEST-EDIT(CPWSEDTH-CNT) TO TRUE      UCSD0102
175517*****   IF DE0230-XTAT-LOCF (I) = ERASE-EOF                       UCSD0102
175518*****      OR (CPWSEDTH-ELEM-NUMBER(CPWSEDTH-CNT) = 0180          UCSD0102
175519*****          AND DE0040-LINE-COMMANDI (I) = 'R')                UCSD0102
175520*****      OR (DE0040-LINE-COMMANDI (I) = 'B'                     UCSD0102
175521*****      AND CPWSEDTH-ELEM-NUMBER(CPWSEDTH-CNT) NOT = 0040)     UCSD0102
175522*****      SET CPWSEDTH-ERASE-EOF-YES(CPWSEDTH-CNT) TO TRUE       UCSD0102
175523*****      MOVE FAUR-LOCATION-HOLD TO FAUR-LOCATION               UCSD0102
175524*****      MOVE UCCOMMON-ATR-ENTRY TO                             UCSD0102
175525*****                  DE0230-XTAT-LOCA (I)                       UCSD0102
175526*****   ELSE                                                      UCSD0102
175527*****      MOVE UCCOMMON-ATR-ENTRY-MDT TO                         UCSD0102
175600*****                  DE0230-XTAT-LOCA (I)                       UCSD0102
175700*****      MOVE DE0230-XTAT-LOCI (I) TO FAUR-LOCATION             UCSD0102
175900*****   END-IF                                                    UCSD0102
176000*****ELSE                                                         UCSD0102
176100*****   IF NOT CPWSEDTH-ELEM-REQUEST-EDIT(CPWSEDTH-CNT)           UCSD0102
176200*****      SET CPWSEDTH-ELEM-REQUEST-DISPLAY(CPWSEDTH-CNT) TO TRUEUCSD0102
176300*****   END-IF                                                    UCSD0102
176400*****END-IF.                                                      UCSD0102
176500*****                                                             UCSD0102
176900*****MOVE UCCOMMON-CLR-ENTRY TO                                   UCSD0102
177000*****                 DE0230-XTAT-ACCTC (I)                       UCSD0102
177100*****MOVE UCCOMMON-HLT-ENTRY TO                                   UCSD0102
177200*****                 DE0230-XTAT-ACCTH (I)                       UCSD0102
177300*****IF DE0230-XTAT-ACCTL (I) > ZERO    OR                        UCSD0102
177400*****   DE0230-XTAT-ACCTF (I) = ERASE-EOF                         UCSD0102
177500*****   SET CPWSEDTH-ELEM-REQUEST-EDIT(CPWSEDTH-CNT) TO TRUE      UCSD0102
177600*****   IF DE0230-XTAT-ACCTF (I) = ERASE-EOF                      UCSD0102
177700*****      OR (CPWSEDTH-ELEM-NUMBER(CPWSEDTH-CNT) = 0180          UCSD0102
177800*****          AND DE0040-LINE-COMMANDI (I) = 'R')                UCSD0102
177900*****      OR (DE0040-LINE-COMMANDI (I) = 'B'                     UCSD0102
178000*****      AND CPWSEDTH-ELEM-NUMBER(CPWSEDTH-CNT) NOT = 0040)     UCSD0102
178100*****      SET CPWSEDTH-ERASE-EOF-YES(CPWSEDTH-CNT) TO TRUE       UCSD0102
178200*****      MOVE FAUR-ACCOUNT-HOLD TO FAUR-ACCOUNT                 UCSD0102
178400*****      MOVE UCCOMMON-ATR-ENTRY TO                             UCSD0102
178500*****                  DE0230-XTAT-ACCTA (I)                      UCSD0102
178600*****   ELSE                                                      UCSD0102
178700*****      MOVE UCCOMMON-ATR-ENTRY-MDT TO                         UCSD0102
178800*****                  DE0230-XTAT-ACCTA (I)                      UCSD0102
178900*****      MOVE DE0230-XTAT-ACCTI (I) TO FAUR-ACCOUNT             UCSD0102
179100*****   END-IF                                                    UCSD0102
179200*****ELSE                                                         UCSD0102
179210*****   IF NOT CPWSEDTH-ELEM-REQUEST-EDIT(CPWSEDTH-CNT)           UCSD0102
179400*****      SET CPWSEDTH-ELEM-REQUEST-DISPLAY(CPWSEDTH-CNT) TO TRUEUCSD0102
179500*****   END-IF                                                    UCSD0102
179600*****END-IF.                                                      UCSD0102
179700*****                                                             UCSD0102
180100*****MOVE UCCOMMON-CLR-ENTRY TO                                   UCSD0102
180200*****                 DE0230-XTAT-COST-CENTERC (I)                UCSD0102
180300*****MOVE UCCOMMON-HLT-ENTRY TO                                   UCSD0102
180400*****                 DE0230-XTAT-COST-CENTERH (I)                UCSD0102
180500*****IF DE0230-XTAT-COST-CENTERL (I) > ZERO    OR                 UCSD0102
180600*****   DE0230-XTAT-COST-CENTERF (I) = ERASE-EOF                  UCSD0102
180700*****   SET CPWSEDTH-ELEM-REQUEST-EDIT(CPWSEDTH-CNT) TO TRUE      UCSD0102
180800*****   IF DE0230-XTAT-COST-CENTERF (I) = ERASE-EOF               UCSD0102
180900*****      OR (CPWSEDTH-ELEM-NUMBER(CPWSEDTH-CNT) = 0180          UCSD0102
181000*****          AND DE0040-LINE-COMMANDI (I) = 'R')                UCSD0102
181100*****      OR (DE0040-LINE-COMMANDI (I) = 'B'                     UCSD0102
181200*****      AND CPWSEDTH-ELEM-NUMBER(CPWSEDTH-CNT) NOT = 0040)     UCSD0102
181300*****      SET CPWSEDTH-ERASE-EOF-YES(CPWSEDTH-CNT) TO TRUE       UCSD0102
181400*****      MOVE FAUR-COST-CENTER-HOLD TO FAUR-COST-CENTER         UCSD0102
181600*****      MOVE UCCOMMON-ATR-ENTRY TO                             UCSD0102
181700*****                  DE0230-XTAT-COST-CENTERA (I)               UCSD0102
181800*****   ELSE                                                      UCSD0102
181900*****      MOVE UCCOMMON-ATR-ENTRY-MDT TO                         UCSD0102
182000*****                  DE0230-XTAT-COST-CENTERA (I)               UCSD0102
182100*****      MOVE DE0230-XTAT-COST-CENTERI (I) TO FAUR-COST-CENTER  UCSD0102
182300*****   END-IF                                                    UCSD0102
182400*****ELSE                                                         UCSD0102
182410*****   IF NOT CPWSEDTH-ELEM-REQUEST-EDIT(CPWSEDTH-CNT)           UCSD0102
182600*****      SET CPWSEDTH-ELEM-REQUEST-DISPLAY(CPWSEDTH-CNT) TO TRUEUCSD0102
182700*****   END-IF                                                    UCSD0102
182800*****END-IF.                                                      UCSD0102
182900*****                                                             UCSD0102
183300*****MOVE UCCOMMON-CLR-ENTRY TO                                   UCSD0102
183400*****                 DE0230-XTAT-FNDC (I)                        UCSD0102
183500*****MOVE UCCOMMON-HLT-ENTRY TO                                   UCSD0102
183600*****                 DE0230-XTAT-FNDH (I)                        UCSD0102
183700*****IF DE0230-XTAT-FNDL (I) > ZERO    OR                         UCSD0102
183800*****   DE0230-XTAT-FNDF (I) = ERASE-EOF                          UCSD0102
183900*****   SET CPWSEDTH-ELEM-REQUEST-EDIT(CPWSEDTH-CNT) TO TRUE      UCSD0102
184000*****   IF DE0230-XTAT-FNDF (I) = ERASE-EOF                       UCSD0102
184100*****      OR (CPWSEDTH-ELEM-NUMBER(CPWSEDTH-CNT) = 0180          UCSD0102
184200*****          AND DE0040-LINE-COMMANDI (I) = 'R')                UCSD0102
184300*****      OR (DE0040-LINE-COMMANDI (I) = 'B'                     UCSD0102
184400*****      AND CPWSEDTH-ELEM-NUMBER(CPWSEDTH-CNT) NOT = 0040)     UCSD0102
184500*****      SET CPWSEDTH-ERASE-EOF-YES(CPWSEDTH-CNT) TO TRUE       UCSD0102
184600*****      MOVE FAUR-FUND-HOLD TO FAUR-FUND                       UCSD0102
184800*****      MOVE UCCOMMON-ATR-ENTRY TO                             UCSD0102
184900*****                  DE0230-XTAT-FNDA (I)                       UCSD0102
185000*****   ELSE                                                      UCSD0102
185100*****      MOVE UCCOMMON-ATR-ENTRY-MDT TO                         UCSD0102
185200*****                  DE0230-XTAT-FNDA (I)                       UCSD0102
185300*****      MOVE DE0230-XTAT-FNDI (I) TO FAUR-FUND                 UCSD0102
185500*****   END-IF                                                    UCSD0102
185600*****ELSE                                                         UCSD0102
185610*****   IF NOT CPWSEDTH-ELEM-REQUEST-EDIT(CPWSEDTH-CNT)           UCSD0102
185800*****      SET CPWSEDTH-ELEM-REQUEST-DISPLAY(CPWSEDTH-CNT) TO TRUEUCSD0102
185900*****   END-IF                                                    UCSD0102
186000*****END-IF.                                                      UCSD0102
186100*****                                                             UCSD0102
186500*****MOVE UCCOMMON-CLR-ENTRY TO                                   UCSD0102
186600*****                 DE0230-XTAT-PROJECT-CODEC (I)               UCSD0102
186700*****MOVE UCCOMMON-HLT-ENTRY TO                                   UCSD0102
186800*****                 DE0230-XTAT-PROJECT-CODEH (I)               UCSD0102
186900*****IF DE0230-XTAT-PROJECT-CODEL (I) > ZERO    OR                UCSD0102
187000*****   DE0230-XTAT-PROJECT-CODEF (I) = ERASE-EOF                 UCSD0102
187100*****   SET CPWSEDTH-ELEM-REQUEST-EDIT(CPWSEDTH-CNT) TO TRUE      UCSD0102
187200*****   IF DE0230-XTAT-PROJECT-CODEF (I) = ERASE-EOF              UCSD0102
187300*****      OR (CPWSEDTH-ELEM-NUMBER(CPWSEDTH-CNT) = 0180          UCSD0102
187400*****          AND DE0040-LINE-COMMANDI (I) = 'R')                UCSD0102
187500*****      OR (DE0040-LINE-COMMANDI (I) = 'B'                     UCSD0102
187600*****      AND CPWSEDTH-ELEM-NUMBER(CPWSEDTH-CNT) NOT = 0040)     UCSD0102
187700*****      SET CPWSEDTH-ERASE-EOF-YES(CPWSEDTH-CNT) TO TRUE       UCSD0102
187800*****      MOVE FAUR-PROJECT-CODE-HOLD TO FAUR-PROJECT-CODE       UCSD0102
188000*****      MOVE UCCOMMON-ATR-ENTRY TO                             UCSD0102
188100*****                  DE0230-XTAT-PROJECT-CODEA (I)              UCSD0102
188200*****   ELSE                                                      UCSD0102
188300*****      MOVE UCCOMMON-ATR-ENTRY-MDT TO                         UCSD0102
188400*****                  DE0230-XTAT-PROJECT-CODEA (I)              UCSD0102
188500*****      MOVE DE0230-XTAT-PROJECT-CODEI (I) TO FAUR-PROJECT-CODEUCSD0102
188700*****   END-IF                                                    UCSD0102
188800*****ELSE                                                         UCSD0102
188810*****   IF NOT CPWSEDTH-ELEM-REQUEST-EDIT(CPWSEDTH-CNT)           UCSD0102
189000*****      SET CPWSEDTH-ELEM-REQUEST-DISPLAY(CPWSEDTH-CNT) TO TRUEUCSD0102
189100*****   END-IF                                                    UCSD0102
189200*****END-IF.                                                      UCSD0102
189300                                                                  CPPDETAP
182550     MOVE UCCOMMON-CLR-ENTRY TO                                   UCSD0102
182560                      DE0230-XTAT-IFIS-INDEXC (I)                 UCSD0102
182570     MOVE UCCOMMON-HLT-ENTRY TO                                   UCSD0102
182580                      DE0230-XTAT-IFIS-INDEXH (I)                 UCSD0102
182590     IF DE0230-XTAT-IFIS-INDEXL (I) > ZERO      OR                UCSD0102
182591        DE0230-XTAT-IFIS-INDEXF (I) = ERASE-EOF                   UCSD0102
182592        SET CPWSEDTH-ELEM-REQUEST-EDIT(CPWSEDTH-CNT) TO TRUE      UCSD0102
182593        IF DE0230-XTAT-IFIS-INDEXF (I) = ERASE-EOF                UCSD0102
182594           OR (CPWSEDTH-ELEM-NUMBER(CPWSEDTH-CNT) = 0180          UCSD0102
182595               AND DE0040-LINE-COMMANDI (I) = 'R')                UCSD0102
182596           OR (DE0040-LINE-COMMANDI (I) = 'B'                     UCSD0102
182597           AND CPWSEDTH-ELEM-NUMBER(CPWSEDTH-CNT) NOT = 0040)     UCSD0102
182598           SET CPWSEDTH-ERASE-EOF-YES(CPWSEDTH-CNT) TO TRUE       UCSD0102
182599           MOVE FAUR-INDEX-HOLD TO FAUR-INDEX                     UCSD0102
182599           MOVE FAUR-ORGANIZATION-HOLD                            UCSD0102
182599                                    TO FAUR-ORGANIZATION
182599           MOVE FAUR-PROGRAM-HOLD TO FAUR-PROGRAM                 UCSD0102
182599           MOVE FAUR-FUND-HOLD    TO FAUR-FUND                    UCSD0102
182599           MOVE FAUR-LOCATION-HOLD    TO FAUR-LOCATION            UCSD0102
182601           MOVE UCCOMMON-ATR-ENTRY TO                             UCSD0102
182602                       DE0230-XTAT-IFIS-INDEXA (I)                UCSD0102
182603        ELSE                                                      UCSD0102
182604           MOVE UCCOMMON-ATR-ENTRY-MDT TO                         UCSD0102
182605                       DE0230-XTAT-IFIS-INDEXA (I)                UCSD0102
182606           MOVE DE0230-XTAT-IFIS-INDEXI (I)                       UCSD0102
182607                         TO FAUR-INDEX                            UCSD0102
182608           MOVE DE0230-XTAT-SUBI (I) TO FAUR-SUB-ACCOUNT          UCSD0102
182678           MOVE FAUR-FAU TO  F001-FAU                             UCSD0102
271142           CALL PGM-PPFAU001 USING PPFAU001-INTERFACE             UCSD0102
330334           IF F001-FAU-VALID                                      UCSD0102
330335              MOVE F001-FAU        TO CPWSFAUR                    UCSD0102
330337           ELSE                                                   UCSD0102
330339              MOVE SPACES          TO FAUR-FUND                   UCSD0102
330339                                      FAUR-ORGANIZATION           UCSD0102
330339                                      FAUR-PROGRAM                UCSD0102
330339                                      FAUR-LOCATION               UCSD0102
330340           END-IF                                                 UCSD0102
330341        END-IF                                                    UCSD0102
182609     ELSE                                                         UCSD0102
330342        IF NOT CPWSEDTH-ELEM-REQUEST-EDIT(CPWSEDTH-CNT)           UCSD0102
182610           SET CPWSEDTH-ELEM-REQUEST-DISPLAY(CPWSEDTH-CNT) TO TRUEUCSD0102
182620        END-IF                                                    UCSD0102
182613     END-IF                                                       UCSD0102
182624                                                                  UCSD0102
189700     MOVE UCCOMMON-CLR-ENTRY TO                                   CPPDETAP
189800                      DE0230-XTAT-SUBC (I)                        CPPDETAP
189900     MOVE UCCOMMON-HLT-ENTRY TO                                   CPPDETAP
190000                      DE0230-XTAT-SUBH (I)                        CPPDETAP
190100     IF DE0230-XTAT-SUBL (I) > ZERO    OR                         CPPDETAP
190200        DE0230-XTAT-SUBF (I) = ERASE-EOF                          CPPDETAP
190300        SET CPWSEDTH-ELEM-REQUEST-EDIT(CPWSEDTH-CNT) TO TRUE      CPPDETAP
190400        IF DE0230-XTAT-SUBF (I) = ERASE-EOF                       CPPDETAP
190500           OR (CPWSEDTH-ELEM-NUMBER(CPWSEDTH-CNT) = 0180          CPPDETAP
190600               AND DE0040-LINE-COMMANDI (I) = 'R')                CPPDETAP
190700           OR (DE0040-LINE-COMMANDI (I) = 'B'                     CPPDETAP
190800           AND CPWSEDTH-ELEM-NUMBER(CPWSEDTH-CNT) NOT = 0040)     CPPDETAP
190900           SET CPWSEDTH-ERASE-EOF-YES(CPWSEDTH-CNT) TO TRUE       CPPDETAP
191000           MOVE FAUR-SUB-ACCOUNT-HOLD TO FAUR-SUB-ACCOUNT         CPPDETAP
191200           MOVE UCCOMMON-ATR-ENTRY TO                             CPPDETAP
191300                       DE0230-XTAT-SUBA (I)                       CPPDETAP
191400        ELSE                                                      CPPDETAP
191500           MOVE UCCOMMON-ATR-ENTRY-MDT TO                         CPPDETAP
191600                       DE0230-XTAT-SUBA (I)                       CPPDETAP
191700           MOVE DE0230-XTAT-SUBI (I) TO FAUR-SUB-ACCOUNT          CPPDETAP
191900        END-IF                                                    CPPDETAP
192400     ELSE                                                         CPPDETAP
192401        IF NOT CPWSEDTH-ELEM-REQUEST-EDIT(CPWSEDTH-CNT)           CPPDETAP
192404           SET CPWSEDTH-ELEM-REQUEST-DISPLAY(CPWSEDTH-CNT) TO TRUECPPDETAP
192405        END-IF                                                    CPPDETAP
192406     END-IF.                                                      CPPDETAP
192407                                                                  CPPDETAP
192408*****IF CPWSEDTH-ELEM-REQUEST-EDIT(CPWSEDTH-CNT)                  CPPDETAP
192409        MOVE FAUR-FAU TO CPWSEDTH-ENTERED-DATA(CPWSEDTH-CNT).     CPPDETAP
192410*****ELSE                                                         CPPDETAP
192411*****IF CPWSEDTH-ELEM-REQUEST-DISPLAY(CPWSEDTH-CNT)               CPPDETAP
192412        MOVE FAUR-FAU TO CPWSEDTH-TRN-DATA(CPWSEDTH-CNT).         CPPDETAP
192420*****END-IF                                                       CPPDETAP
192430*****END-IF.                                                      CPPDETAP
228900                                                                  CPPDETAP
251800 CPPD-SET-VR-ERROR SECTION.                                       CPPDETAP
251900******************************************************************CPPDETAP
252000*  SET ERROR CODE AND HIGHLIGHTING FOR FIELDS WITH VALUE RANGE   *CPPDETAP
252100*  ERRORS RETURNED FROM PPEDTMGR                                 *CPPDETAP
252200******************************************************************CPPDETAP
252300                                                                  CPPDETAP
268400       SET CPWSEDTH-ELEM-ERRORS-FOUND(EDIT-SUB) TO TRUE.          CPPDETAP
268500       MOVE UCCOMMON-HLT-ERROR                                    CPPDETAP
268600*****            TO DE0230-XTAT-LOCH (I).                         UCSD0102
268600                 TO DE0230-XTAT-IFIS-INDEXH (I).                  UCSD0102
268700       MOVE UCCOMMON-ATR-ERROR-MDT                                CPPDETAP
268800*****            TO DE0230-XTAT-LOCA (I).                         UCSD0102
268800                 TO DE0230-XTAT-IFIS-INDEXA (I).                  UCSD0102
268900       MOVE UCCOMMON-CLR-ERROR                                    CPPDETAP
269000*****            TO DE0230-XTAT-LOCC (I).                         UCSD0102
268600                 TO DE0230-XTAT-IFIS-INDEXC (I).                  UCSD0102
269100       MOVE CPWSEDTH-SCREEN-DATA(EDIT-SUB)                        CPPDETAP
269200*****            TO DE0230-XTAT-LOCO (I).                         UCSD0102
269200                 TO FAUR-FAU.                                     UCSD0102
269201       MOVE FAUR-INDEX   TO DE0230-XTAT-IFIS-INDEXO (I).          UCSD0102
269201       MOVE FAUR-SUB-ACCOUNT TO DE0230-XTAT-SUBO (I).             UCSD0102
269300*****  MOVE  -1 TO DE0230-XTAT-LOCL (I)                           UCSD0102
268600       MOVE -1  TO DE0230-XTAT-IFIS-INDEXL (I).                   UCSD0102
269400       SET ERRORS-FLAGGED TO TRUE.                                CPPDETAP
269500       SET UCCOMMON-EDIT-ERRORS-FOUND TO TRUE.                    CPPDETAP
269600                                                                  CPPDETAP
269700       MOVE CPWSSEVX-SEV-FATAL TO                                 CPPDETAP
269800                 HIGHEST-SEV OF CCWSTHFT-ITEM (I).                CPPDETAP
296100                                                                  CPPDETAP
299300 CPPD-EDIT-ERROR-ROUTINE    SECTION.                              CPPDETAP
299400******************************************************************CPPDETAP
299500*  SET ATTRIBUTES AND ERROR CODE FOR FIELDS IN ERROR             *CPPDETAP
299600******************************************************************CPPDETAP
315300       IF CPWSEDTH-ELEM-ERRORS-FOUND(EDIT-SUB)                    CPPDETAP
315400          MOVE CPWSEDTH-ELEM-SCREEN-OCCURNCE (EDIT-SUB) TO I      CPPDETAP
268500*****     MOVE UCCOMMON-HLT-ERROR                                 UCSD0102
268600*****            TO DE0230-XTAT-LOCH (I).                         UCSD0102
268700*****     MOVE UCCOMMON-ATR-ERROR-MDT                             UCSD0102
268800*****            TO DE0230-XTAT-LOCA (I).                         UCSD0102
268900*****     MOVE UCCOMMON-CLR-ERROR                                 UCSD0102
269000*****            TO DE0230-XTAT-LOCC (I).                         UCSD0102
269201          IF UCCOMMON-MSG-NUMBER = 'AU002'                        UCSD0102
268900             MOVE UCCOMMON-HLT-ERROR                              UCSD0102
268600                 TO DE0230-XTAT-IFIS-INDEXH (I)                   UCSD0102
268700             MOVE UCCOMMON-ATR-ERROR-MDT                          UCSD0102
315600                 TO DE0230-XTAT-IFIS-INDEXA (I)                   UCSD0102
268900             MOVE UCCOMMON-CLR-ERROR                              UCSD0102
315600                 TO DE0230-XTAT-IFIS-INDEXC (I)                   UCSD0102
268600             MOVE -1  TO DE0230-XTAT-IFIS-INDEXL (I)              UCSD0102
268601          ELSE                                                    UCSD0102
269201          IF UCCOMMON-MSG-NUMBER = 'AU001'                        UCSD0102
268900             MOVE UCCOMMON-HLT-ERROR                              UCSD0102
268600                 TO DE0230-XTAT-SUBH (I)                          UCSD0102
268700             MOVE UCCOMMON-ATR-ERROR-MDT                          UCSD0102
268800                 TO DE0230-XTAT-SUBA (I)                          UCSD0102
268900             MOVE UCCOMMON-CLR-ERROR                              UCSD0102
268600                 TO DE0230-XTAT-SUBC (I)                          UCSD0102
268600             MOVE -1  TO DE0230-XTAT-SUBL (I)                     UCSD0102
268600          END-IF                                                  UCSD0102
268600          END-IF                                                  UCSD0102
316100          MOVE CPWSEDTH-SCREEN-DATA(EDIT-SUB)                     CPPDETAP
316200*****            TO DE0230-XTAT-LOCO (I)                          UCSD0102
269200                 TO FAUR-FAU                                      UCSD0102
269201          MOVE FAUR-INDEX   TO DE0230-XTAT-IFIS-INDEXO (I)        UCSD0102
269201          MOVE FAUR-SUB-ACCOUNT TO DE0230-XTAT-SUBO (I)           UCSD0102
316300*****     MOVE  -1 TO DE0230-XTAT-LOCL (I)                        UCSD0102
316400               SET ERRORS-FLAGGED TO TRUE                         CPPDETAP
316500          MOVE CPWSSEVX-SEV-FATAL TO                              CPPDETAP
316600                 HIGHEST-SEV OF CCWSTHFT-ITEM (I)                 CPPDETAP
316700       END-IF.                                                    CPPDETAP
342900                                                                  CPPDETAP
343000 CPPD-UPDATE-TRANS         SECTION.                               CPPDETAP
343100******************************************************************CPPDETAP
343200*  UPDATE TRANSACTION WITH DATA IN CPWSEDTH ARRAY                *CPPDETAP
343300******************************************************************CPPDETAP
349800                                                                  CPPDETAP
350000       IF CPWSEDTH-ELEM-REQUEST-EDIT(EDIT-SUB)                    CPPDETAP
350100          MOVE CPWSEDTH-ELEM-SCREEN-OCCURNCE (EDIT-SUB) TO I      CPPDETAP
350200          MOVE CPWSEDTH-TRN-DATA(EDIT-SUB)                        CPPDETAP
350300                 TO XTAT-FAU OF CCWSTHFT-ITEM (I)                 CPPDETAP
350400       END-IF.                                                    CPPDETAP
361200                                                                  CPPDETAP
385000 CPPD-COMPLETE-LINE-COMMANDS SECTION.                             CPPDETAP
385100******************************************************************CPPDETAP
385200*  MOVE COPIED OR RETRIEVED TRANSACTIONS FROM THE HOLD AREA      *CPPDETAP
385300*  TO THE CURRENT TRANSACTION AREA                               *CPPDETAP
385400******************************************************************CPPDETAP
390500       MOVE UCCOMMON-ATR-ENTRY-MDT TO                             CPPDETAP
390600*****                  DE0230-XTAT-LOCA (J).                      UCSD0102
390600                       DE0230-XTAT-IFIS-INDEXA (J)                UCSD0102
390700*****  MOVE UCCOMMON-ATR-ENTRY-MDT TO                             UCSD0102
390800*****                  DE0230-XTAT-ACCTA (J).                     UCSD0102
390900*****  MOVE UCCOMMON-ATR-ENTRY-MDT TO                             UCSD0102
391000*****                  DE0230-XTAT-COST-CENTERA (J).              UCSD0102
391100*****  MOVE UCCOMMON-ATR-ENTRY-MDT TO                             UCSD0102
391200*****                  DE0230-XTAT-FNDA (J).                      UCSD0102
391300*****  MOVE UCCOMMON-ATR-ENTRY-MDT TO                             UCSD0102
391400*****                  DE0230-XTAT-PROJECT-CODEA (J).             UCSD0102
391500       MOVE UCCOMMON-ATR-ENTRY-MDT TO                             32021138
391600                       DE0230-XTAT-SUBA (J).                      32021138
401400                                                                  CPPDETAP
428800 CPPD-SET-ATTRIBUTES SECTION.                                     CPPDETAP
428900******************************************************************CPPDETAP
429000*  SET ATTRIBUTES FOR THE DATA ASSOCIATED WITH A MESSAGE         *CPPDETAP
429100******************************************************************CPPDETAP
429200                                                                  CPPDETAP
438700*****  MOVE -1   TO DE0230-XTAT-LOCL (WS-TRANS).                  UCSD0102
438700       MOVE -1   TO DE0230-XTAT-IFIS-INDEXL (WS-TRANS)            UCSD0102
438800       MOVE UCCOMMON-ATR-ERROR-MDT                                CPPDETAP
438900*****            TO DE0230-XTAT-LOCA (WS-TRANS).                  UCSD0102
438900                 TO DE0230-XTAT-IFIS-INDEXA (WS-TRANS)            UCSD0102
438900                    DE0230-XTAT-SUBA (WS-TRANS)                   UCSD0102
439000       MOVE UCCOMMON-CLR-ERROR                                    CPPDETAP
439100*****            TO DE0230-XTAT-LOCC (WS-TRANS).                  UCSD0102
438900                 TO DE0230-XTAT-IFIS-INDEXC (WS-TRANS)            UCSD0102
438900                    DE0230-XTAT-SUBC (WS-TRANS)                   UCSD0102
439200       MOVE UCCOMMON-HLT-ERROR                                    CPPDETAP
439300*****            TO DE0230-XTAT-LOCH (WS-TRANS).                  UCSD0102
438900                 TO DE0230-XTAT-IFIS-INDEXH (WS-TRANS)            UCSD0102
438900                    DE0230-XTAT-SUBH (WS-TRANS).                  UCSD0102
