000100*    COPYID=CPSLXPUI                                              CPSLXPUI
000200*        PRINT FILE DDNAME FOR UI/CETA REPORTS                    CPSLXPUI
000300         ASSIGN TO UT-S-PRINTUI.                                  CPSLXPUI
