000100*==========================================================%      UCSD9999
000200*= UCSD LOCAL CHANGES HAVE BEEN IMPLEMENTED.              =%      UCSD9999
000300*= COLUMN 73 THRU 80 DENOTES CHANGE NUMBER - UCSD9999     =%      UCSD9999
000040*==========================================================%      UCSD9999
000050*==========================================================%      UCSD0023
000060*=    COPY MEMBER: CPWSXEDB                               =%      UCSD0023
000070*=    CHANGE # 0023         PROJ. REQUEST: SD0023         =%      UCSD0023
000080*=    NAME: MARI MCGEE      MODIFICATION DATE: 10/10/91   =%      UCSD0023
000090*=    DESCRIPTION                                         =%      UCSD0023
000091*=    CHANGED  XEDB-0191-TIMEKP-DEPT TO                   =%      UCSD0023
000092*=             XEDB-0198-TIMEKP-DEPT                      =%      UCSD0023
000093*=    CHANGED  XEDB-0191-TIMEKP-SUB  TO                   =%      UCSD0023
000094*=             XEDB-0199-TIMEKP-SUB                       =%      UCSD0023
000095*=     CHANGES NEEDED FOR FETCH COMPLEX                   =%      UCSD0023
000096*==========================================================%      UCSD0023
002593*==========================================================%      UCSD9999
002594*= UCSD LOCAL CHANGES HAVE BEEN IMPLEMENTED.              =%      UCSD9999
002595*= COLUMN 73 THRU 80 DENOTES CHANGE NUMBER - UCSD9999     =%      UCSD9999
000400*=                                                        =%      UCSD9999
000500*==========================================================%      UCSD9999
000600*==========================================================%      UCSD0035
000700*=   COPY MEMBER: CPWSDB01                                =%      UCSD0035
000800*=   CHANGE: ___0035____  SERVICE REQUEST(S): ___DT-035___=%      UCSD0035
000900*=   NAME:   JIM PIERCE   MODIFICATION DATE:  __03/14/91__=%      UCSD0035
001000*=   DESCRIPTION:                                         =%      UCSD0035
001100*=   ADDED LOCAL DATA ELEMENTS TO 0100 SEGMENT:           =%      UCSD0035
001200*=     XDBS-0194-VICE-CHAN-UNIT                           =%      UCSD0035
001300*=     XDBS-0195-COLLEGE-CODE                             =%      UCSD0035
001400*=     XDBS-0196-MAIL-DROP-CODE                           =%      UCSD0035
001500*=     XDBS-0197-ACAD-REVIEW-DATE                         =%      UCSD0035
001600*==========================================================%      UCSD0035
000094*==========================================================%      UCSD0023
000095*=    COPY MEMBER: CPWSDB01                               =%      UCSD0023
000096*=    CHANGE # 0023         PROJ. REQUEST: SD0023         =%      UCSD0023
000097*=    NAME: GRACE CHIU      MODIFICATION DATE: 11/11/88   =%      UCSD0023
000098*=                                                        =%      UCSD0023
000099*=    DESCRIPTION                                         =%      UCSD0023
000100*=    ADD DATA ITEMS TO MEET LOCAL NEEDS:                 =%      UCSD0023
000101*=           XDBS-0191-TIMEKP                             =%      UCSD0023
000102*=           XDBS-0192-EMPL-LV-CD                         =%      UCSD0023
000104*==========================================================%      UCSD0023
000046**************************************************************/   37640580
000047*  COPYMEMBER: CPWSDB01                                      */   37640580
000048*  RELEASE: ___0580______ SERVICE REQUEST(S): _____3764____  */   37640580
000049*  NAME: __MADELYN_SANO__ MODIFICATION DATE:  ___05/17/91__  */   37640580
000050*  DESCRIPTION:                                              */   37640580
000051*  - ADDED FY COVERD COMP RETIREMENT CODES                   */   37640580
000052**************************************************************/   37640580
000053**************************************************************/   01900580
000054*  COPYMEMBER: CPWSDB01                                      */   01900580
000055*  RELEASE: ___0580______ SERVICE REQUEST(S): ____10190____  */   01900580
000056*  NAME:___LOU DULANEY___ MODIFICATION DATE:  ___05/29/91__  */   01900580
000057*  DESCRIPTION:                                              */   01900580
000058*  - ADDED SAFE HARBOR RETIREMENT CODE                       */   01900580
000060**************************************************************/   01900580
000100**************************************************************/   36070535
000200*  COPYMEMBER: CPWSDB01                                      */   36070535
000300*  RELEASE:______0535____  SERVICE REQ NO(S)__3607__________ */   36070535
000400*  NAME:___J.LUCAS_______  MODIFICATION DATE    __02/06/91__ */   36070535
000500*  DESCRIPTION                                               */   36070535
000600*  ADDED NEW DATA ELEMENT  FOR REVISED PAF PROCESSING        */   36070535
003300*  ---  XDBS-0189-LAST-DAY-ON-PAY                            */   36070535
000800*  DELETED DATA ELEMENTS   FOR REVISED PAF PROCESSING        */   36070535
003500*  ---  XDBS-0134-CHANGE-PAYRATE                             */   36070535
003600*  ---  XDBS-0150-RECLASS-TYPE                               */   36070535
001100**************************************************************/   36070535
001200**************************************************************/   40070510
001300*  COPYMEMBER: CPWSDB01                                      */   40070510
001400*  REL#: _0510_  REF: _0508_ SERVICE REQUESTS:    ___4007___ */   40070510
001500*  NAME      _L_DULANEY__    MODIFICATION DATE    _10/29/90_ */   40070510
001600*  DESCRIPTION                                               */   40070510
001700*   - RE-DEFINED XDBS-0129-DCP-PLAN-CODE FROM AN 07 LEVEL    */   40070510
001800*     TO AN 05 LEVEL.                                        */   40070510
001900*   - RE-DEFINED XDBS-0189-FILLER-OP2 FROM AN 07 LEVEL       */   40070510
002000*     TO AN 05 LEVEL.                                        */   40070510
002100**************************************************************/   40070510
000100**************************************************************/   40070508
000200*  COPYMEMBER: CPWSDB01                                      */   40070508
000300*  RELEASE # ____0508____  SERVICE REQUEST NO(S)____4007____ */   40070508
000400*  NAME      _L_DULANEY__  MODIFICATION DATE    __10/05/90__ */   40070508
000500*  DESCRIPTION                                               */   40070508
000600*   - ADDED DEFINED CONTRIBUTION PLAN (DCP) ELEMENTS FOR     */   40070508
000700*     UCRP REVAMP.                                           */   40070508
000800*   - DELETED CODE PREVIOUSLY COMMENTED OUT                  */   40070508
000900**************************************************************/   40070508
000105**************************************************************/   45440439
000106*  COPYMEMBER: CPWSDB01                                      */   45440439
000107*  RELEASE # ____0439____ SERVICE REQUEST NO(S)___4544_______*/   45440439
000108*  NAME __W._JAYNES____   MODIFICATION DATE ____11/14/89_____*/   45440439
000109*  DESCRIPTION                                               */   45440439
000110*   - CHANGED XDBS-0167-FILLER TO XDBS-0167-FORM-8233-IND    */   45440439
000111*     FOR NON-RESIDENT ALIEN TAX FORM TRACKING PURPOSES.     */   45440439
000112**************************************************************/   45440439
000105**************************************************************/   30930413
000106*  COPYMEMBER: CPWSDB01                                      */   30930413
000107*  RELEASE # ____0413____ SERVICE REQUEST NO(S)___3093_______*/   30930413
000108*  NAME __JIM WILLIAMS_   MODIFICATION DATE ____06/25/89_____*/   30930413
000109*  DESCRIPTION                                               */   30930413
000110*   - CHANGED FOR CONVERSION FROM OS/VS COBOL TO VS COBOL II.*/   30930413
000111**************************************************************/   30930413
000120**************************************************************/   45350412
000200*  COPYMEMBER: CPWSDB01                                      */   45350412
000300*  RELEASE: ____0412____  SERVICE REQUEST(S): ____4535____   */   45350412
000400*  NAME:    __J.WILCOX__  MODIFICATION DATE:  __06/05/89__   */   45350412
000500*  DESCRIPTION:                                              */   45350412
000600*                                                            */   45350412
000700*    - ADD XDBS-0188-DEP-LI-DATE                             */   45350412
000800*    - SPACE TAKEN FROM 0188-FILLER, WITH REMAINING FILLER   */   45350412
000900*      ADDED TO 0189-FILLER                                  */   45350412
001000**************************************************************/   45350412
001100**************************************************************/   36010405
001200*  COPYMEMBER: CPWSDB01                                      */   36010405
001300*  RELEASE: ____0405____  SERVICE REQUEST(S): ____3601____   */   36010405
001400*  NAME:    __J.WILCOX__  MODIFICATION DATE:  __02/07/89__   */   36010405
001500*  DESCRIPTION:                                              */   36010405
001600*                                                            */   36010405
001700*    - ADD XDBS-0115-FILLER-OP TO PERMIT FUTURE EXPANSION OF */   36010405
001800*      THE XDBS-0183-BELI-CHG-DATE TO INCLUDE A DAY.         */   36010405
001900*    - ADD NEW DATA ELEMENTS FOR CORPORATE CREDIT CARD:      */   36010405
002000*      - XDBS-0133-CORP-CC-TYPE                              */   36010405
002100*      - XDBS-0168-CORP-CC-STATUS                            */   36010405
002200*      - XDBS-0169-CORP-CC-DATE                              */   36010405
002300*    - SPACE OBTAINED BY REDUCING XDBS-0188-FILLER-OP1       */   36010405
002400**************************************************************/   36010405
002500**************************************************************/   30920391
002600*  COPYMEMBER: CPWSDB01                                      */   30920391
002700*  RELEASE: ____0391____  SERVICE REQUEST(S): ____3092____   */   30920391
002800*  NAME:    __J.WILCOX__  MODIFICATION DATE:  __01/19/89__   */   30920391
002900*  DESCRIPTION:                                              */   30920391
003000*                                                            */   30920391
003100*    - ADD NEW XDBS-0183-BELI-CHG-DATE                       */   30920391
003200*      SPACE OBTAINED BY REDUCING XBDS-0188-FILLER-OP1       */   30920391
003300**************************************************************/   30920391
003400**************************************************************/   45240381
003500*  COPYMEMBER: CPWSDB01                                      */   45240381
003600*  RELEASE: ____0381____  SERVICE REQUEST(S): ____4524____   */   45240381
003700*  NAME:    __J.WILCOX__  MODIFICATION DATE:  __10/06/88__   */   45240381
003800*  DESCRIPTION:                                              */   45240381
003900*                                                            */   45240381
004000*    - ADD NEW ELEMENTS FOR DEPENDENT LIFE DE-ENROLLMENT     */   45240381
004100*      - XDBS-0166-DEP-LI-DE-ENROL                           */   45240381
004200*      - XDBS-0167-FILLER                                    */   45240381
004300*        (ORIGINAL XDBS-0166-FILLER DELETED)                 */   45240381
004400**************************************************************/   45240381
004500**************************************************************/   14920327
004600*  COPYMEMBER: CPWSDB01                                      */   14920327
004700*  REL:  -----0327---------  SERVICE REQEUSTS: __1492________*/   14920327
004800*                                                            */   14920327
004900*  NAME _S._ISAACS_____   MODIFICATION DATE ____11/10/87_____*/   14920327
005000*  DESCRIPTION                                               */   14920327
005100*                                                            */   14920327
005200*  S.R. 1492: IMPLEMENT GROUP LEGAL SERVICES PLAN            */   14920327
005300*             ADDED NEW DATA ELEMENT 0165 FOR LEGAL          */   14920327
005400*             DE-ENROLLMENT INDICATOR                        */   14920327
005500*                                                            */   14920327
005600**************************************************************/   14920327
005700**************************************************************/   14590300
005800*  COPYMEMBER: CPWSDB01                                      */   14590300
005900*  RELEASE # ____0300____ SERVICE REQUEST NO(S)___1459_______*/   14590300
006000*  NAME___K.KELLER_______ MODIFICATION DATE ____06/29/87_____*/   14590300
006100*  DESCRIPTION                                               */   14590300
006200*  ADDED NEW DATA ELEMENT 0184 FOR VISA/WORK PERMIT END DATE */   14590300
006300**************************************************************/   14590300
006400**************************************************************/   13360276
006500*  COPYID:   CPWSDB01                                        */   13360276
006600*  RELEASE # _0276_______ SERVICE REQUEST NO(S)____1336______*/   13360276
006700*  NAME ___K.KELLER____   MODIFICATION DATE ____02/09/87_____*/   13360276
006800*  DESCRIPTION                                               */   13360276
006900*  ADD DATA ELEMENT XDBS-0159-DNTL-DE-ENROLL-IND             */   13360276
007000**************************************************************/   13360276
007100**************************************************************/   14370265
007200*  COPYID:   CPWSDB01                                        */   14370265
007300*  RELEASE # _0265_______ SERVICE REQUEST NO(S)____1437______*/   14370265
007400*  NAME ___K.KELLER____   MODIFICATION DATE ____01/16/87_____*/   14370265
007500*  DESCRIPTION                                               */   14370265
007600*  CHANGE DATE ELEMENT XDBS-0164-RANGE-ADJ-IND TO            */   14370265
007700*  XDBS-0164-W4-RCVD-IND                                     */   14370265
007800**************************************************************/   14370265
007900**************************************************************/   14140251
008000*  COPYID:   CPWSDB01                                        */   14140251
008100*  RELEASE # _0251_______ SERVICE REQUEST NO(S)____1414______*/   14140251
008200*  NAME ___JLT_________   MODIFICATION DATE ____10/22/86_____*/   14140251
008300*  DESCRIPTION                                               */   14140251
008400*   ADDED:     MEDICARE VALUE (88 LEVEL) OF 'M' FOR FICA     */   14140251
008500*              ELIG CODE (D.E.#0120).                        */   14140251
008600**************************************************************/   14140251
008700**************************************************************/   14120250
008800*  COPY MODULE:  CPWSDB01                                    */   14120250
008900*  RELEASE # ___0250___   SERVICE REQUEST NO(S)____1412______*/   14120250
009000*  NAME ___DBS_________   MODIFICATION DATE ____11/10/86_____*/   14120250
009100*  DESCRIPTION                                               */   14120250
009200*  ADDED VISION CARE ELEMENT EDB 0187.                       */   14120250
009300**************************************************************/   13190159
009400**************************************************************/   14030225
009500*  COPYID:   CPWSDB01                                        */   14030225
009600*  RELEASE # _225 _______ SERVICE REQUEST NO(S)____1403______*/   14030225
009700*  NAME ___DBS_________   MODIFICATION DATE ____07/22/86_____*/   14030225
009800*  DESCRIPTION                                               */   14030225
009900*  CHANGED 0114-HOME-DEPT FROM 9(6) TO X(6) TO SUPPORT       */   14030225
010000*  MULTIPLE HOME DEPARTMENTS.                                */   14030225
010100**************************************************************/   13880212
010200*  COPYMEMBER: CPWSDB01                                      */   13880212
010300*  REL#:  0212   REF: NONE  SERVICE REQUESTS:   ____1388____ */   13880212
010400*  NAME __M.NISHI______   MODIFICATION DATE ____04/22/86_____*/   13880212
010500*  DESCRIPTION                                               */   13880212
010600*                                                            */   13880212
010700*  CHANGE FIELD NAME FROM XDBS-0162-MGMT-BENEFIT TO          */   13880212
010800*                         XDBS-0162-EXEC-BENEFIT.            */   13880212
010900*                                                            */   13880212
011000**************************************************************/   13880212
011100     SKIP1                                                        13880212
011200**************************************************************/   SUP10167
011300*  COPYMEMBER: CPWSDB01                                      */   SUP10167
011400*  RELEASE # ___0167___   SERVICE REQUEST NO(S) SUP1         */   SUP10167
011500*  NAME ___PAJ_________   MODIFICATION DATE ____12/16/85_____*/   SUP10167
011600*  DESCRIPTION                                               */   SUP10167
011700*     FILLER FOR 4 BYTES FOLLOWING XDBS-0143-COUNTRY-CODE    */   SUP10167
011800*     SHOULD READ XDBS-0165-FILLER.                          */   SUP10167
011900**************************************************************/   SUP10167
012000**************************************************************/   13450167
012100*  COPYMEMBER: CPWSDB01                                      */   13450167
012200*  RELEASE # ___0167___   SERVICE REQUEST NO(S) 1345         */   13450167
012300*  NAME ___PAJ_________   MODIFICATION DATE ____11/26/85_____*/   13450167
012400*  DESCRIPTION                                               */   13450167
012500*     DATA ELEMENT NUMBER 0143 HAS BEEN CHANGED TO CARRY THE */   13450167
012600*     COUNTRY CODE OF RESIDENCY FOR ALIEN EMPLOYEES. DATA    */   13450167
012700*     ELEMENT NUMBER 0143 IS NOW 2 BYTES ALPHANUMERIC        */   13450167
012800*     FOLLOWED BY FOUR BYTES OF FILLER.                      */   13450167
012900**************************************************************/   13450167
013000**************************************************************/   13500164
013100*  COPYMEMBER: CPWSDB01                                      */   13500164
013200*  RELEASE # ___0164___   SERVICE REQUEST NO(S) 1350         */   13500164
013300*  NAME ___JAG_________   MODIFICATION DATE ____10/15/85_____*/   13500164
013400*  DESCRIPTION                                               */   13500164
013500*     MODIFIED TO INCLUDE THREE NEW DATA ELEMENTS:           */   13500164
013600*        0186 - LTD DE-ENROLLMENT INDICATOR                  */   13500164
013700**************************************************************/   13500164
013800**************************************************************/   13190159
013900*  COPY MODULE:  CPWSDB01                                    */   13190159
014000*  RELEASE # ___0159___   SERVICE REQUEST NO(S)____1319______*/   13190159
014100*  NAME ___JAL_________   MODIFICATION DATE ____09/20/85_____*/   13190159
014200*  DESCRIPTION                                               */   13190159
014300*  FOR PHASE 2 OF THE PAYROLL FILE EXPANSION PROJECT,        */   13190159
014400*  USER-CODED TRANSACTION INPUT RECORD LENGTHS WILL BE       */   13190159
014500*  EXPANDED BY 22 BYTES, AND RECORDS AND WORK AREAS          */   13190159
014600*  RELATING TO THE EDB FILE WILL BE EXPANDED AS WELL.        */   13190159
014700*  0100 EDB SEGMENTS WILL BE EXPANDED                        */   13190159
014800*  BY 46 BYTES FOR OFFICE OF THE PRESIDENT USE AND           */   13190159
014900*  BY 20 BYTES FOR INDIVIDUAL CAMPUS USE.                    */   13190159
015000**************************************************************/   13190159
015100     SKIP2                                                        13190159
015200**************************************************************/   21920145
015300*  COPYMEMBER: CPWSDB01                                      */   21920145
015400*  RELEASE # ___0145___   SERVICE REQUEST NO(S) 2192         */   21920145
015500*  NAME ___DEC_________   MODIFICATION DATE ____04/05/85_____*/   21920145
015600*  DESCRIPTION                                               */   21920145
015700*    ADDED DATA ELEMENT 0185, CALIFORNIA CASUALTY            */   21920145
020300*    DEDUCTION INDICATOR (XEDB-0185-CAL-CAS-DED-IND)         */   21920145
015900*    AND 88-LEVEL INDICATOR FOR 'NO DEDUCTION'               */   21920145
020500*    (XEDB-0185-CAL-CAS-NO-DED).                             */   21920145
016100***********************************************************  */   21920145
016200**************************************************************/   22070127
016300*  COPYMEMBER: CPWSDB01                                      */   22070127
016400*  RELEASE # ___0127___   SERVICE REQUEST NO(S) 2207         */   22070127
016500*  NAME ___JAG_________   MODIFICATION DATE ____10/15/84_____*/   22070127
016600*  DESCRIPTION                                               */   22070127
016700*    MODIFICATIONS WERE MADE TO THIS COPYMEMBER TO ELIMINATE */   22070127
016800*  FBCO DISTRIBUTION OPTION   INDICATOR. THE FIELD           */   22070127
016900*  XDBS-0185-FBCO-INS-IND HAS BEEN CHANGED TO 'FILLER'.      */   22070127
017000*                                                            */   22070127
017100**************************************************************/   22070127
017200*****EJECT                                                        45240381
017300**************************************************************/   21440085
017400*  COPY MODULE:  CPWSDB01                                    */   21440085
017500*  RELEASE # ___0085___   SERVICE REQUEST NO(S) ____2144______/   21440085
017600*  NAME ___AMC_________   MODIFICATION DATE ____10/17/83_____*/   21440085
017700*  DESCRIPTION                                               */   21440085
017800*  ADDED NEW FBCO INSURANCE INDICATORE (VALUES ARE 1=OFFSET  */   21440085
017900*  2=DO NOT OFFSET).                                         */   21440085
022500*  ALSO PUT REL 0059 & 0070 CHANGES TO XEDB HERE ALSO.       */   21440085
018100**************************************************************/   21440085
018200**************************************************************/   20320077
018300*  COPY MODULE:  CPWSDB01                                    */   20320077
018400*  RELEASE # ___0077___   SERVICE REQUEST NO(S) ____2032______/   20320077
018500*  NAME ___GWH_________   MODIFICATION DATE ____09/23/83_____*/   20320077
018600*  DESCRIPTION                                               */   20320077
018700*  ADDED 88 VALUES TO XDBS-0135-NXT-SAL-RVW                  */   20320077
018800**************************************************************/   20320077
018900**************************************************************/   00820049
019000*  CALLIB:   CPWSDB01                                        */   00820049
019100*  RELEASE # ___0049___   SERVICE REQUEST NO(S) ____0082____ */   00820049
019200*  NAME ___MCN_________   MODIFICATION DATE ____02/18/83_____*/   00820049
019300*  DESCRIPTION                                               */   00820049
019400*  - ADDED '88' VALUES TO XDBS-0160-EMP-REL-CODE.            */   00820049
019500**************************************************************/   00820049
019600**************************************************************/   00870047
019700*  PROGRAM:  CPWSDB01                                        */   00870047
019800*  RELEASE # ___0047___   SERVICE REQUEST NO(S) ____0087____ */   00870047
019900*  NAME ___AMC_________   MODIFICATION DATE ____02/18/83_____*/   00870047
020000*  DESCRIPTION                                               */   00870047
020100*  FIELD XDBS-0164-RANGE-ADJ-IND WAS ADDED AND FIELD         */   00870047
020200*       XDBS-0170-FILLER WAS CHANGED                         */   00870047
020300**************************************************************/   00870047
020400     SKIP3                                                        00870047
020500*    COPYID=CPWSDB01                                              CPWSDB01
020510*01  XDBS-PERSONAL-DATA1.                                         30930413
020700*                                                                *CPWSDB01
020800******************************************************************CPWSDB01
020900*    P E R S O N A L   D A T A   S E G M E N T   0 1 0 0         *CPWSDB01
021000******************************************************************CPWSDB01
021100*                                                                *CPWSDB01
021200     03  XDBS-DELETE                 PICTURE X.                   CPWSDB01
021300         88  XDBS-SEG-DELETED                VALUE HIGH-VALUES.   CPWSDB01
021400     03  XDBS-KEY.                                                CPWSDB01
021500         05  XDBS-ID-NUMBER          PICTURE X(9).                CPWSDB01
021600         05  XDBS-SEGMENT.                                        CPWSDB01
021700             07  XDBS-SEG-NO         PICTURE XX.                  CPWSDB01
021800             07  FILLER              PICTURE XX.                  CPWSDB01
021900     03  XDBS-PERSONAL-DATA1-ELEMENTS.                            CPWSDB01
022000         05  XDBS-0101-LAST-ACTION   PICTURE 99.                  CPWSDB01
022100         05  XDBS-0102-LAST-ACT-OTHR PICTURE X(8).                CPWSDB01
022200         05  XDBS-0103-LAST-ACTION-DATE.                          CPWSDB01
022300             07  XDBS-0103-ACTION-YR PICTURE 99.                  CPWSDB01
022400             07  XDBS-0103-ACTION-MO PICTURE 99.                  CPWSDB01
022500             07  XDBS-0103-ACTION-DA PICTURE 99.                  CPWSDB01
022600*                                                                *CPWSDB01
022700*****            **************************************      *****CPWSDB01
022800*                **  V I T A L   S T A T I S T I C S **          *CPWSDB01
022900*****            **************************************      *****CPWSDB01
023000*                                                                *CPWSDB01
023100         05  XDBS-0104-GENERATION-NR PICTURE 9(4).                CPWSDB01
023200         05  XDBS-0105-NAME          PICTURE X(26).               CPWSDB01
023300         05  XDBS-0106-NAME-SUFFIX   PICTURE X(4).                CPWSDB01
023400         05  XDBS-0107-BIRTH-DATE.                                CPWSDB01
023500             07  XDBS-0107-BIRTH-YR  PICTURE 99.                  CPWSDB01
023600             07  XDBS-0107-BIRTH-MO  PICTURE 99.                  CPWSDB01
023700             07  XDBS-0107-BIRTH-DA  PICTURE 99.                  CPWSDB01
023800         05  XDBS-0108-SEX           PICTURE X.                   CPWSDB01
023900             88  XDBS-0108-SEX-MALE      VALUE 'M'.               CPWSDB01
024000             88  XDBS-0108-SEX-FEMALE    VALUE 'F'.               CPWSDB01
024100         05  XDBS-0109-CITIZEN-CODE  PICTURE X.                   CPWSDB01
024200             88  XDBS-0109-US-CITZEN     VALUE 'C'.               CPWSDB01
024300             88  XDBS-0109-RESIDENT-ALIEN                         CPWSDB01
024400                                         VALUE 'R'.               CPWSDB01
024500             88  XDBS-0109-NON-RESID-ALIEN-TXD                    CPWSDB01
024600                                         VALUE 'N'.               CPWSDB01
024700             88  XDBS-0109-NONRESID-ALN-EXMPT                     CPWSDB01
024800                                         VALUE 'E'.               CPWSDB01
024900         05  XDBS-0110-VISA-TYPE     PICTURE XX.                  CPWSDB01
025000         05  XDBS-0111-SOC-SEC-NR    PICTURE 9(9).                CPWSDB01
025100         05  XDBS-0112-ETHNIC-CODE   PICTURE X.                   CPWSDB01
025200             88  XDBS-0112-OTHR-WHITE    VALUE 'F'.               CPWSDB01
025300             88  XDBS-0112-AFRO          VALUE 'A'.               CPWSDB01
025400             88  XDBS-0112-CHINESE       VALUE '2'.               CPWSDB01
025500             88  XDBS-0112-JAPANESE      VALUE 'B'.               CPWSDB01
025600             88  XDBS-0112-FILIPINO      VALUE 'L'.               CPWSDB01
025700             88  XDBS-0112-EAST-INDIAN   VALUE 'R'.               CPWSDB01
025800             88  XDBS-0112-OTHR-ORIENTAL VALUE 'X'.               CPWSDB01
025900             88  XDBS-0112-NATIVE-AMER   VALUE 'C'.               CPWSDB01
026000             88  XDBS-0112-CHICANO       VALUE 'E'.               CPWSDB01
026100             88  XDBS-0112-LATINO        VALUE '5'.               CPWSDB01
026200             88  XDBS-0112-OTHR-SPANISH  VALUE 'W'.               CPWSDB01
026300         05  XDBS-0113-EMPLOYMENT-DATE.                           CPWSDB01
026400             07  XDBS-0113-EMPLMT-YR PICTURE 99.                  CPWSDB01
026500             07  XDBS-0113-EMPLMT-MO PICTURE 99.                  CPWSDB01
026600             07  XDBS-0113-EMPLMT-DA PICTURE 99.                  CPWSDB01
029100*****                                                          CD 40070508
026800         05  XDBS-0114-HOME-DEPT     PICTURE X(6).                14030225
026900         05  XDBS-0116-EDUC-LVL      PICTURE X.                   CPWSDB01
027000             88  XDBS-0116-NO-ACAD-INFO  VALUE SPACE.             CPWSDB01
027100             88  XDBS-0116-NO-ACAD-CRED  VALUE 'N'.               CPWSDB01
027200             88  XDBS-0116-HS-OR-EQUIV   VALUE 'H'.               CPWSDB01
027300             88  XDBS-0116-TRADE-CERT    VALUE 'T'.               CPWSDB01
027400             88  XDBS-0116-ASSOC-DEGREE  VALUE 'A'.               CPWSDB01
027500             88  XDBS-0116-BACH-DEGREE   VALUE 'B'.               CPWSDB01
027600             88  XDBS-0116-MSTR-DEGREE   VALUE 'M'.               CPWSDB01
027700             88  XDBS-0116-PROF-DEGREE   VALUE 'P'.               CPWSDB01
027800             88  XDBS-0116-DOCTORATE     VALUE 'D'.               CPWSDB01
027900         05  XDBS-0117-EDUC-LVL-YR   PICTURE 99.                  CPWSDB01
028000         05  XDBS-0118-PRI-EMPLR-CDE PICTURE X.                   CPWSDB01
028100             88  XDBS-0118-PRI-EMP-INDUSTRY                       CPWSDB01
028200                                         VALUE 'A'.               CPWSDB01
028300             88  XDBS-0118-PRI-EMP-STUDENT                        CPWSDB01
028400                                         VALUE 'B'.               CPWSDB01
028500             88  XDBS-0118-PRI-EMP-STATE-OF-CA                    CPWSDB01
028600                                         VALUE 'C'.               CPWSDB01
028700             88  XDBS-0118-PRI-EMP-ERDA-LAB                       CPWSDB01
028800                                         VALUE 'D'.               CPWSDB01
028900             88  XDBS-0118-PRI-EMP-OTHR-GOV                       CPWSDB01
029000                                         VALUE 'E'.               CPWSDB01
029100             88  XDBS-0118-PRI-EMP-SELF-EMPD                      CPWSDB01
029200                                         VALUE 'F'.               CPWSDB01
029300             88  XDBS-0118-PRI-EMP-NOT-EMPLOYED                   CPWSDB01
029400                                         VALUE 'G'.               CPWSDB01
029500             88  XDBS-0118-PRI-EMP-STANFORD                       CPWSDB01
029600                                         VALUE 'H'.               CPWSDB01
029700             88  XDBS-0118-PRI-EMP-INST-TECH-CA                   CPWSDB01
029800                                         VALUE 'I'.               CPWSDB01
029900             88  XDBS-0118-PRI-EMP-USC   VALUE 'J'.               CPWSDB01
030000             88  XDBS-0118-PRI-EMP-STATE-UNIV                     CPWSDB01
030100                                         VALUE 'K'.               CPWSDB01
030200             88  XDBS-0118-PRI-EMP-OTHR-CA-UNIV                   CPWSDB01
030300                                         VALUE 'L'.               CPWSDB01
030400             88  XDBS-0118-PRI-EMP-OTHR-UNIV-1                    CPWSDB01
030500                                         VALUE 'M'.               CPWSDB01
030600             88  XDBS-0118-PRI-EMP-OTHR-UNIV-2                    CPWSDB01
030700                                         VALUE 'N'.               CPWSDB01
030800             88  XDBS-0118-PRI-EMP-OTHR-UNIV-3                    CPWSDB01
030900                                         VALUE 'O'.               CPWSDB01
031000             88  XDBS-0118-PRI-EMP-OTHR-UNV-USA                   CPWSDB01
031100                                         VALUE 'P'.               CPWSDB01
031200             88  XDBS-0118-PRI-EMP-OTHR-UV-FRGN                   CPWSDB01
031300                                         VALUE 'R'.               CPWSDB01
031400         05  XDBS-0119-UC-STUD-STAT  PICTURE 9.                   CPWSDB01
031500             88  XDBS-0119-STUD-NOT-REGISTED                      CPWSDB01
031600                                         VALUE 1.                 CPWSDB01
031700             88  XDBS-0119-STUD-NOT-REG-DEGREE                    CPWSDB01
031800                                         VALUE 2.                 CPWSDB01
031900             88  XDBS-0119-STUD-UNDERGRAD                         CPWSDB01
032000                                         VALUE 3.                 CPWSDB01
032100             88  XDBS-0119-STUD-GRADUATE VALUE 4.                 CPWSDB01
032200*                                                                *CPWSDB01
032300*****    **********************************************      *****CPWSDB01
032400*        **  T A X I N G,   P A Y R O L L,   A N D   **          *CPWSDB01
032500*        **  B E N E F I T S   D A T A               **          *CPWSDB01
032600*****    **********************************************      *****CPWSDB01
032700*                                                                *CPWSDB01
032800         05  XDBS-0120-FICA-ELIG-CDE PICTURE X.                   CPWSDB01
032900             88  XDBS-0120-ELIG-FICA     VALUE 'E'.               CPWSDB01
033000             88  XDBS-0120-ELIG-MED-FICA VALUE 'M'.               14140251
033100             88  XDBS-0120-NOT-ELIG-FICA VALUE 'N'.               CPWSDB01
033200         05  XDBS-0121-UI-ELIG-CODE  PICTURE X.                   CPWSDB01
033300             88  XDBS-0121-UI-COVERED    VALUE 'C'.               CPWSDB01
033400             88  XDBS-0121-UI-NOT-COVRED VALUE 'N'.               CPWSDB01
033500         05  XDBS-0122-RETR-SYS-CODE PICTURE X.                   CPWSDB01
033600             88  XDBS-0122-NO-RETR-PLAN  VALUE ' '.               CPWSDB01
033700             88  XDBS-0122-UCRS-RETR-ND  VALUE 'B'.               CPWSDB01
033800             88  XDBS-0122-UCRS-RETR     VALUE 'U'.               CPWSDB01
033900             88  XDBS-0122-PERS-RETR     VALUE 'P'.               CPWSDB01
038500*************88  XDBS-0122-CSTRS-RETR    VALUE 'C'.               37640580
034100             88  XDBS-0122-FCSRS-RETR    VALUE 'F'.               CPWSDB01
034200             88  XDBS-0122-SCERA-RETR    VALUE 'S'.               CPWSDB01
034300             88  XDBS-0122-OCERS-RETR    VALUE 'O'.               CPWSDB01
034400             88  XDBS-0122-NOT-ELIG      VALUE 'N'.               CPWSDB01
086860             88  XDBS-0122-SFHBR-RETR    VALUE 'H'.               01900580
086861             88  XDBS-0122-UCRS-FY-ND    VALUE '1'.               37640580
086862             88  XDBS-0122-PERS-FY-ND    VALUE '2'.               37640580
086863             88  XDBS-0122-FCSRS-FY-ND   VALUE '3'.               37640580
086864             88  XDBS-0122-SCERA-FY-ND   VALUE '4'.               37640580
086865             88  XDBS-0122-OCERS-FY-ND   VALUE '5'.               37640580
034500         05  XDBS-0123-NDI-CODE      PICTURE X.                   CPWSDB01
034600             88  XDBS-0123-NDI-PLAN-A    VALUE 'A'.               CPWSDB01
034700             88  XDBS-0123-NDI-PLAN-B    VALUE 'B'.               CPWSDB01
034800         05  XDBS-0124-STAFF-SAL-RVW PICTURE X.                   CPWSDB01
034900             88  XDBS-0124-MERIT-INC-MAN VALUE 'A'.               CPWSDB01
035000             88  XDBS-0124-RECLASS-NO-SAL-CHNGE                   CPWSDB01
035100                                         VALUE 'B'.               CPWSDB01
035200             88  XDBS-0124-CASAL-TRANS   VALUE 'C'.               CPWSDB01
035300             88  XDBS-0124-DEMOTION      VALUE 'D'.               CPWSDB01
035400             88  XDBS-0124-EXCEPT-INCR   VALUE 'E'.               CPWSDB01
035500             88  XDBS-0124-TRANSFER-HI-MIN                        CPWSDB01
035600                                         VALUE 'F'.               CPWSDB01
035700             88  XDBS-0124-RECLASS-HI-MIN                         CPWSDB01
035800                                         VALUE 'G'.               CPWSDB01
035900             88  XDBS-0124-NEW-HIRE      VALUE 'H'.               CPWSDB01
036000             88  XDBS-0124-REHIRE        VALUE 'I'.               CPWSDB01
036100             88  XDBS-0124-FLAT-RATE-INC VALUE 'J'.               CPWSDB01
036200             88  XDBS-0124-SPEC-CDE-REVW VALUE 'K'.               CPWSDB01
036300             88  XDBS-0124-TRANSFER      VALUE 'L'.               CPWSDB01
036400             88  XDBS-0124-MERIT-INCREASE                         CPWSDB01
036500                                         VALUE 'M'.               CPWSDB01
036600             88  XDBS-0124-NO-SAL-ACTION VALUE 'N'.               CPWSDB01
036700             88  XDBS-0124-RECLASS-UP    VALUE 'P'.               CPWSDB01
036800             88  XDBS-0124-PROMOTION     VALUE 'Q'.               CPWSDB01
036900             88  XDBS-0124-RECLASS-UNFILL-POSTN                   CPWSDB01
037000                                         VALUE 'R'.               CPWSDB01
037100             88  XDBS-0124-6MO-INCREASE  VALUE 'S'.               CPWSDB01
037200             88  XDBS-0124-TRAINEE-INCR  VALUE 'T'.               CPWSDB01
037300             88  XDBS-0124-UNION-RATE    VALUE 'U'.               CPWSDB01
037400             88  XDBS-0124-RECLASS-DOWN  VALUE 'V'.               CPWSDB01
037500             88  XDBS-0124-OS-AWARD      VALUE 'W'.               CPWSDB01
037600             88  XDBS-0124-SEPARATION    VALUE 'X'.               CPWSDB01
037700             88  XDBS-0124-6MO-INCR-NOT-GRANTED                   CPWSDB01
037800                                         VALUE 'Y'.               CPWSDB01
037900             88  XDBS-0124-MERIT-INCR-NOT-GRNTD                   CPWSDB01
038000                                         VALUE 'Z'.               CPWSDB01
038100         05  XDBS-0125-STF-RVW-STAT  PICTURE X.                   CPWSDB01
038200             88  XDBS-0125-AT-MAX        VALUE 'A'.               CPWSDB01
038300             88  XDBS-0125-UNIV-MANGMNT  VALUE 'B'.               CPWSDB01
038400             88  XDBS-0125-CASUAL-EMPYEE VALUE 'C'.               CPWSDB01
038500             88  XDBS-0125-FLAT-RATE     VALUE 'J'.               CPWSDB01
038600             88  XDBS-0125-MERIT-INCR    VALUE 'M'.               CPWSDB01
038700             88  XDBS-0125-NO-ACTION     VALUE 'N'.               CPWSDB01
038800             88  XDBS-0125-OVER-MAX      VALUE 'O'.               CPWSDB01
038900             88  XDBS-0125-PREV-EMPLMNT  VALUE 'P'.               CPWSDB01
039000             88  XDBS-0125-RESTRICT-EMPL VALUE 'R'.               CPWSDB01
039100             88  XDBS-0125-6MO-INCREASE  VALUE 'S'.               CPWSDB01
039200             88  XDBS-0125-TRAINEE       VALUE 'T'.               CPWSDB01
039300             88  XDBS-0125-UNION-RATE    VALUE 'U'.               CPWSDB01
039400             88  XDBS-0125-SEPARATION    VALUE 'X'.               CPWSDB01
039500         05  XDBS-0126-STAFF-REVIEW-DATE.                         CPWSDB01
039600             07  XDBS-0126-RVW-YR    PICTURE 99.                  CPWSDB01
039700             07  XDBS-0126-RVW-MO    PICTURE 99.                  CPWSDB01
039800         05  XDBS-0127-FED-TX-MRT    PICTURE X.                   CPWSDB01
039900             88  XDBS-0127-SINGLE        VALUE 'S'.               CPWSDB01
040000             88  XDBS-0127-MARRIED       VALUE 'M'.               CPWSDB01
040100         05  XDBS-0128-FED-TX-EXEMPT PICTURE 999.                 CPWSDB01
040200             88  XDBS-0128-W4E-ON-FILE   VALUE 998.               CPWSDB01
040300             88  XDBS-0128-EXMPT-FED-TX  VALUE 999.               CPWSDB01
040400         05  XDBS-0130-ST-TX-MRT     PICTURE X.                   CPWSDB01
040500             88  XDBS-0130-STX-SINGEL    VALUE 'S'.               CPWSDB01
040600             88  XDBS-0130-STX-MARRIED   VALUE 'M'.               CPWSDB01
040700             88  XDBS-0130-STX-HD-HOUSE  VALUE 'H'.               CPWSDB01
040800         05  XDBS-0131-ST-TX-PER-DED PICTURE 999.                 CPWSDB01
040900             88  XDBS-0131-EXMPT-ST-TX   VALUE 997.               CPWSDB01
041000             88  XDBS-0131-ST-W4-ON-FILE VALUE 998.               CPWSDB01
041100         05  XDBS-0132-ST-TX-ITM-DED PICTURE 999.                 CPWSDB01
041200*                                                                *CPWSDB01
041300*****            **********************************          *****CPWSDB01
041400*                **  P E R S O N N E L   D A T A **              *CPWSDB01
041500*****            **********************************          *****CPWSDB01
041600*                                                                *CPWSDB01
046200         05  XDBS-0134-FILLER        PICTURE 9.                   36070535
046300*********05  XDBS-0134-CHANGE-PAYRTE PICTURE 9.                   36070535
046400*************88  XDBS-0134-PR-6MO-INCR   VALUE 1.                 36070535
046500*************88  XDBS-0134-PR-CASAL-INCR VALUE 2.                 36070535
046600*************88  XDBS-0134-PR-TRNG-INCR  VALUE 3.                 36070535
046700*************88  XDBS-0134-PR-EXCPT-INCR VALUE 4.                 36070535
046800*************88  XDBS-0134-PR-OTHER      VALUE 5.                 36070535
042300         05  XDBS-0135-NXT-SAL-RVW   PICTURE 9.                   CPWSDB01
042400             88  XDBS-0135-NXT-6MO-REVW  VALUE 1.                 CPWSDB01
042500             88  XDBS-0135-NXT-MERIT-RVW VALUE 2.                 CPWSDB01
042600             88  XDBS-0135-NXT-OS-AWD-RV VALUE 3.                 CPWSDB01
042700             88  XDBS-0135-NXT-TRAINEE-RVW   VALUE 4.             20320077
042800             88  XDBS-0135-NXT-NO-SAL-AT-MAX VALUE 5.             20320077
042900         05  XDBS-0136-NXT-SAL-RVW-DATE.                          CPWSDB01
043000             07  XDBS-0136-NXT-RW-YR PICTURE 99.                  CPWSDB01
043100             07  XDBS-0136-NXT-RW-MO PICTURE 99.                  CPWSDB01
043200         05  XDBS-0137-LV-OF-ABS-BEGIN-DATE.                      CPWSDB01
043300             07  XDBS-0137-LOA-BG-YR PICTURE 99.                  CPWSDB01
043400             07  XDBS-0137-LOA-BG-MO PICTURE 99.                  CPWSDB01
043500             07  XDBS-0137-LOA-BG-DA PICTURE 99.                  CPWSDB01
043600         05  XDBS-0138-LV-OF-ABS-RETRN-DATE.                      CPWSDB01
043700             07  XDBS-0138-LOA-RT-YR PICTURE 99.                  CPWSDB01
043800             07  XDBS-0138-LOA-RT-MO PICTURE 99.                  CPWSDB01
043900             07  XDBS-0138-LOA-RT-DA PICTURE 99.                  CPWSDB01
044000         05  XDBS-0139-LOA-TYPE      PICTURE 99.                  CPWSDB01
044100             88  XDBS-0139-SAB-LV-FULL-PAY                        CPWSDB01
044200                                         VALUE 01.                CPWSDB01
044300             88  XDBS-0139-SAB-LV-PART-PAY                        CPWSDB01
044400                                         VALUE 02.                CPWSDB01
044500             88  XDBS-0139-SAB-LV-IN-RES VALUE 03.                CPWSDB01
044600             88  XDBS-0139-CHILDBEAR-LV  VALUE 04.                CPWSDB01
044700             88  XDBS-0139-EXTNDED-ILLNESS                        CPWSDB01
044800                                         VALUE 05.                CPWSDB01
044900             88  XDBS-0139-GOV-PUB-SERV  VALUE 06.                CPWSDB01
045000             88  XDBS-0139-PROF-DEVELOP  VALUE 07.                CPWSDB01
045100             88  XDBS-0139-PERSONAL-LV   VALUE 08.                CPWSDB01
045200             88  XDBS-0139-WORKER-COMP   VALUE 09.                CPWSDB01
045300             88  XDBS-0139-TEMP-LAYOFF   VALUE 10.                CPWSDB01
045400             88  XDBS-0139-MILITARY-LV   VALUE 11.                CPWSDB01
045500             88  XDBS-0139-MILITARY-WO-PAY                        CPWSDB01
045600                                         VALUE 12.                CPWSDB01
045700             88  XDBS-0139-SPEC-RESRCH-LV                         CPWSDB01
045800                                         VALUE 13.                CPWSDB01
045900             88  XDBS-0139-ADMIN-LV      VALUE 14.                CPWSDB01
046000             88  XDBS-0139-OTHER-LV      VALUE 99.                CPWSDB01
046100         05  XDBS-0140-SEPARATION-DATE.                           CPWSDB01
046200             07  XDBS-0140-SEP-YR    PICTURE 99.                  CPWSDB01
046300             07  XDBS-0140-SEP-MO    PICTURE 99.                  CPWSDB01
046400             07  XDBS-0140-SEP-DA    PICTURE 99.                  CPWSDB01
046500         05  XDBS-0141-SEP-REASON    PICTURE XX.                  CPWSDB01
046600             88  XDBS-0141-ACCEPT-OTHER-JOB      VALUE 'AA'.      CPWSDB01
046700             88  XDBS-0141-LOOK-OTHER-JOB        VALUE 'AB'.      CPWSDB01
046800             88  XDBS-0141-SELF-EMPLYD           VALUE 'AC'.      CPWSDB01
046900             88  XDBS-0141-DISSATFD-JOB          VALUE 'AD'.      CPWSDB01
047000             88  XDBS-0141-PREGNANCY             VALUE 'AE'.      CPWSDB01
047100             88  XDBS-0141-MARITAL-DOMESTIC      VALUE 'AF'.      CPWSDB01
047200             88  XDBS-0141-RESIGN-HEALTH         VALUE 'AG'.      CPWSDB01
047300             88  XDBS-0141-SCHOOL                VALUE 'AH'.      CPWSDB01
047400             88  XDBS-0141-MILITARY              VALUE 'AI'.      CPWSDB01
047500             88  XDBS-0141-LEAVE-NO-RETRN        VALUE 'AJ'.      CPWSDB01
047600             88  XDBS-0141-RESIGN-OTHER          VALUE 'AK'.      CPWSDB01
047700             88  XDBS-0141-GRANT-EXPIRED         VALUE 'BA'.      CPWSDB01
047800             88  XDBS-0141-APPTMNT-EXPIRED       VALUE 'BB'.      CPWSDB01
047900             88  XDBS-0141-INDEF-LAYOFF          VALUE 'CA'.      CPWSDB01
048000             88  XDBS-0141-RELEASED              VALUE 'DA'.      CPWSDB01
048100             88  XDBS-0141-LACK-PERFORMNCE       VALUE 'EA'.      CPWSDB01
048200             88  XDBS-0141-MISCONDUCT            VALUE 'EB'.      CPWSDB01
048300             88  XDBS-0141-QUIT-WO-NOTICE        VALUE 'EC'.      CPWSDB01
048400             88  XDBS-0141-MEDICAL-SEP           VALUE 'GA'.      CPWSDB01
048500             88  XDBS-0141-INACT-4-CONSEC-MNTH   VALUE 'I4'.      21440085
048600             88  XDBS-0141-EMERITUS-STAT-CHNGD   VALUE 'JA'.      CPWSDB01
048700             88  XDBS-0141-DEATH                 VALUE 'KA'.      CPWSDB01
048800             88  XDBS-0141-OTHER                 VALUE 'LA'.      CPWSDB01
048900             88  XDBS-0141-RETIRE-REG            VALUE 'RA'.      CPWSDB01
049000             88  XDBS-0141-RETIRE-VOL            VALUE 'RB'.      CPWSDB01
049100             88  XDBS-0141-RETIRE-EARLY          VALUE 'RC'.      CPWSDB01
049200             88  XDBS-0141-RETIRE-COMPULSRY      VALUE 'RD'.      CPWSDB01
049300         05  XDBS-0142-DESTIN-CODE   PICTURE X.                   CPWSDB01
049400             88  XDBS-0142-NXT-EMP-INDUSTRY                       CPWSDB01
049500                                         VALUE 'A'.               CPWSDB01
049600             88  XDBS-0142-NXT-EMP-STUDENT                        CPWSDB01
049700                                         VALUE 'B'.               CPWSDB01
049800             88  XDBS-0142-NXT-EMP-STATE-CALIF                    CPWSDB01
049900                                         VALUE 'C'.               CPWSDB01
050000             88  XDBS-0142-NXT-EMP-ERDA-LAB                       CPWSDB01
050100                                         VALUE 'D'.               CPWSDB01
050200             88  XDBS-0142-NXT-EMP-OTHR-GOV                       CPWSDB01
050300                                         VALUE 'E'.               CPWSDB01
050400             88  XDBS-0142-NXT-EMP-SELF-EMPD                      CPWSDB01
050500                                         VALUE 'F'.               CPWSDB01
050600             88  XDBS-0142-NXT-EMP-NOT-EMPLOYED                   CPWSDB01
050700                                         VALUE 'G'.               CPWSDB01
050800             88  XDBS-0142-NXT-EMP-STANFORD                       CPWSDB01
050900                                         VALUE 'H'.               CPWSDB01
051000             88  XDBS-0142-NXT-EMP-INST-TECH                      CPWSDB01
051100                                         VALUE 'I'.               CPWSDB01
051200             88  XDBS-0142-NXT-EMP-USC   VALUE 'J'.               CPWSDB01
051300             88  XDBS-0142-NXT-EMP-STATE-UNIV                     CPWSDB01
051400                                         VALUE 'K'.               CPWSDB01
051500             88  XDBS-0142-NXT-EMP-CAL-UNIV                       CPWSDB01
051600                                         VALUE 'L'.               CPWSDB01
051700             88  XDBS-0142-NXT-EMP-UNIV-GRP1                      CPWSDB01
051800                                         VALUE 'M'.               CPWSDB01
051900             88  XDBS-0142-NXT-EMP-UNIV-GRP2                      CPWSDB01
052000                                         VALUE 'N'.               CPWSDB01
052100             88  XDBS-0142-NXT-EMP-UNIV-GRP3                      CPWSDB01
052200                                         VALUE 'O'.               CPWSDB01
052300             88  XDBS-0142-NXT-EMP-USA-UNIV                       CPWSDB01
052400                                         VALUE 'P'.               CPWSDB01
052500             88  XDBS-0142-NXT-EMP-FORGN-UNIV                     CPWSDB01
052600                                         VALUE 'R'.               CPWSDB01
055100*****                                                          CD 40070508
052800         05  XDBS-0143-COUNTRY-CODE  PICTURE X(2).                13450167
052900         05  XDBS-0159-DNTL-DE-ENROLL-IND PICTURE X.              13360276
053000*****                                                          CD 45240381
053100         05  XDBS-0165-LEGL-DE-ENROLL-IND PICTURE X(1).           14920327
053200         05  XDBS-0166-DEP-LI-DE-ENROL    PICTURE X(1).           45240381
055700*****                                                          CD 40070508
053420         05  XDBS-0167-FORM-8233-IND      PICTURE X.              45440439
053430             88  XDBS-0167-FORM-8233-FILED       VALUE 'Y'.       45440439
053440             88  XDBS-0167-FORM-8233-NOT-FILED   VALUE 'N'.       45440439
053450             88  XDBS-0167-FORM-8233-BLANK       VALUE ' '.       45440439
053500         05  XDBS-0144-EMPLMNT-STAT  PICTURE X.                   CPWSDB01
053600             88  XDBS-0144-ACTIVE-STATUS VALUE 'A'.               CPWSDB01
053700             88  XDBS-0144-LV-WO-PAY-STATUS                       CPWSDB01
053800                                         VALUE 'N'.               CPWSDB01
053900             88  XDBS-0144-LV-WTH-PAY-STATUS                      CPWSDB01
054000                                         VALUE 'P'.               CPWSDB01
054100             88  XDBS-0144-SEPARATED-STATUS                       CPWSDB01
054200                                         VALUE 'S'.               CPWSDB01
054300             88  XDBS-0144-INACTIVE-STATUS                        CPWSDB01
054400                                         VALUE 'I'.               CPWSDB01
054500         05  XDBS-0145-MIN-RCD-FLAG  PICTURE 9.                   CPWSDB01
054600             88  XDBS-0145-MIN-DATA      VALUE 0.                 CPWSDB01
054700             88  XDBS-0145-NOT-MIN-DATA  VALUE 1.                 CPWSDB01
054800         05  XDBS-0146-PRI-SERV-MO   PICTURE 999.                 CPWSDB01
054900         05  XDBS-0147-OLD-EMP-NR    PICTURE 9(9).                CPWSDB01
055000         05  XDBS-0148-LAST-EFFECTIVE-DATE.                       CPWSDB01
055100             07  XDBS-0148-EFF-YR    PICTURE 99.                  CPWSDB01
055200             07  XDBS-0148-EFF-MO    PICTURE 99.                  CPWSDB01
055300             07  XDBS-0148-EFF-DA    PICTURE 99.                  CPWSDB01
055400         05  XDBS-0149-LST-PR-ACTIVITY-DATE.                      CPWSDB01
055500             07  XDBS-0149-PR-ACT-YR PICTURE 99.                  CPWSDB01
055600             07  XDBS-0149-PR-ACT-MO PICTURE 99.                  CPWSDB01
055700             07  XDBS-0149-PR-ACT-DA PICTURE 99.                  CPWSDB01
060700         05  XDBS-0150-FILLER        PICTURE 9.                   36070535
060800*********05  XDBS-0150-RECLASS-TYPE  PICTURE 9.                   36070535
060900*************88  XDBS-0150-RECLASS-UP    VALUE 1.                 36070535
061000*************88  XDBS-0150-RECLASS-LATRL VALUE 2.                 36070535
061100*************88  XDBS-0150-RECLASS-DOWN  VALUE 3.                 36070535
056200         05  XDBS-0151-PRI-GRS-CTL   PICTURE 9(3).                CPWSDB01
056300         05  XDBS-0152-PRI-PAY-SCHED PICTURE XX.                  CPWSDB01
056400             88  XDBS-0152-PY-CL-MO      VALUE 'MO'.              CPWSDB01
056500             88  XDBS-0152-PY-CL-MO-ARRS VALUE 'MA'.              CPWSDB01
056600             88  XDBS-0152-PY-CL-SEMI-MO VALUE 'SM'.              CPWSDB01
056700             88  XDBS-0152-PY-CL-BIWKLY  VALUE 'BW'.              CPWSDB01
056800         05  XDBS-0153-MERIT-PCT     PICTURE 99V99.               CPWSDB01
056900         05  XDBS-0154-LEAVE-STAT    PICTURE X.                   CPWSDB01
057000             88  XDBS-0154-LWP           VALUE 'P'.               CPWSDB01
057100             88  XDBS-0154-LNP           VALUE 'N'.               CPWSDB01
057200         05  XDBS-0155-LI-DE-ENROLL-IND    PICTURE X.             CPWSDB01
057300         05  XDBS-0156-AD-D-DE-ENROLL-IND  PICTURE X.             CPWSDB01
057400         05  XDBS-0157-STD-DE-ENROLL-IND   PICTURE X.             CPWSDB01
057500         05  XDBS-0158-HLTH-DE-ENROLL-IND  PICTURE X.             CPWSDB01
057600         05  XDBS-0160-EMP-REL-CODE  PICTURE X.                   CPWSDB01
057700                 88  XDBS-0160-CBUC-MGR-A    VALUE 'A'.           00820049
057800                 88  XDBS-0160-CBUC-MGR-B    VALUE 'B'.           00820049
057900                 88  XDBS-0160-CBUC-SUP-C    VALUE 'C'.           00820049
058000                 88  XDBS-0160-CBUC-SUP-D    VALUE 'D'.           00820049
058100                 88  XDBS-0160-CBUC-OTHER-E  VALUE 'E'.           00820049
058200                 88  XDBS-0160-CBUC-CONFD-F  VALUE 'F'.           00820049
058300                 88  XDBS-0160-CBUC-HEERA-G  VALUE 'G'.           00820049
058400                 88  XDBS-0160-CBUC-BLANK    VALUE ' '.           00820049
058500         05  XDBS-0161-EMP-REL-UNIT  PICTURE X(2).                CPWSDB01
061300*****                                                          CD 40070508
058700         05  XDBS-0162-EXEC-BENEFIT  PICTURE 9.                   13880212
058800         05  XDBS-0163-UCRS-ELIG-DATE PICTURE 9(6).               CPWSDB01
061600*****                                                          CD 40070508
059000         05  XDBS-0164-W4-RCVD-IND   PICTURE X.                   14370265
059100         05  XDBS-0170-MONTH-PAY-INDS.                            21440085
059200                 09  XDBS-0171-JAN-IND       PIC X.               21440085
059300                 09  XDBS-0172-FEB-IND       PIC X.               21440085
059400                 09  XDBS-0173-MARCH-IND     PIC X.               21440085
059500                 09  XDBS-0174-APRIL-IND     PIC X.               21440085
059600                 09  XDBS-0175-MAY-IND       PIC X.               21440085
059700                 09  XDBS-0176-JUNE-IND      PIC X.               21440085
059800                 09  XDBS-0177-JULY-IND      PIC X.               21440085
059900                 09  XDBS-0178-AUGUST-IND    PIC X.               21440085
060000                 09  XDBS-0179-SEPT-IND      PIC X.               21440085
060100                 09  XDBS-0180-OCT-IND       PIC X.               21440085
060200                 09  XDBS-0181-NOV-IND       PIC X.               21440085
060300                 09  XDBS-0182-DEC-IND       PIC X.               21440085
060400         05  XDBS-0170-MONTHLY-PAY-INDS REDEFINES                 21440085
060500                     XDBS-0170-MONTH-PAY-INDS.                    21440085
060600                 09  XDBS-0170-MONTHLY-PAY-IND                    21440085
060700                        OCCURS 12 TIMES      PIC X.               21440085
060800         05  XDBS-0185-CAL-CAS-DED-IND                            21920145
060900                                         PICTURE X.               21920145
061000             88 XDBS-0185-CAL-CAS-NO-DED                          21920145
061100                                         VALUE 'N'.               21920145
061200         05  XDBS-0186-LTD-DE-ENROLL-IND  PICTURE X.              13500164
061300         05  XDBS-0187-VISN-DE-ENROLL-IND PICTURE X.              14120250
061400         05  XDBS-0184-VISA-ENDDT.                                14590300
061500             07  XDBS-0184-VISA-ENDYR    PIC 9(02).               14590300
061600             07  XDBS-0184-VISA-ENDMO    PIC 9(02).               14590300
061700             07  XDBS-0184-VISA-ENDDA    PIC 9(02).               14590300
061800         05  XDBS-0183-BELI-CHG-DATE.                             30920391
061900             07  XDBS-0183-BELI-CHG-YR   PIC 9(02).               30920391
062000             07  XDBS-0183-BELI-CHG-MO   PIC 9(02).               30920391
062100         05  XDBS-0115-FILLER-OP         PIC 9(02).               36010405
062200         05  XDBS-0133-CORP-CC-TYPE      PIC X.                   36010405
062300             88  XDBS-0133-AMEX-CARD       VALUE 'A'.             36010405
062400         05  XDBS-0168-CORP-CC-STATUS    PIC X.                   36010405
062500             88  XDBS-0168-CORP-CC-ACTIVE     VALUE 'A'.          36010405
062600             88  XDBS-0168-CORP-CC-CANCELLED  VALUE 'C'.          36010405
062700         05  XDBS-0169-CORP-CC-DATE.                              36010405
062800             07  XDBS-0169-CORP-CC-YR    PIC 99.                  36010405
062900             07  XDBS-0169-CORP-CC-MO    PIC 99.                  36010405
063000             07  XDBS-0169-CORP-CC-DA    PIC 99.                  36010405
063100         05  XDBS-0188-DEP-LI-DATE.                               45350412
063200             07  XDBS-0188-DEP-LI-YR     PIC 99.                  45350412
063300             07  XDBS-0188-DEP-LI-MO     PIC 99.                  45350412
063400             07  XDBS-0188-DEP-LI-DA     PIC 99.                  45350412
087161*****                                                          CD 40070508
087162         05  XDBS-0129-DCP-PLAN-CODE PIC X(01).                   40070510
087163*************07 XDBS-0129-DCP-PLAN-CODE PIC X(01).                40070510
087164                88  XDBS-0129-SAVINGS-FUND       VALUE 'S'.       40070508
087165                88  XDBS-0129-EQUITY-FUND        VALUE 'E'.       40070508
087166                88  XDBS-0129-BOND-FUND          VALUE 'B'.       40070508
087167                88  XDBS-0129-GIC-FUND           VALUE 'G'.       40070508
087168                88  XDBS-0129-MONEY-MKT-FUND     VALUE 'M'.       40070508
087169                88  XDBS-0129-MULTI-ASSET-FUND   VALUE 'A'.       40070508
087170                88  XDBS-0129-FIDELITY-FUND      VALUE 'F'.       40070508
087171                88  XDBS-0129-CALVERT-FUND       VALUE 'C'.       40070508
087172         05  XDBS-0189-LAST-DAY-ON-PAY PIC X(6).                  36070535
072100         05  FILLER                      PIC X(8).                UCSD0035
072200         05  XDBS-0194-VICE-CHAN-UNIT    PIC X(2).                UCSD0035
072300         05  XDBS-0195-COLLEGE-CODE      PIC X(3).                UCSD0035
072400****     05  FILLER                      PIC X(13).               UCSD0035
087178*********05  XDBS-0189-FILLER-OP2 PIC X(19).                      36070535
087179*************07 XDBS-0189-FILLER-OP2 PIC X(19).                   40070510
087180*************07 XDBS-0189-FILLER-OP2 PIC X(20).                   40070508
087181*****                                                          CD 40070508
072600*********05  XDBS-0189-FILLER-OP2        PIC X(20).               40070508
064000         05  XDBS-0191-TIMEKP.                                    UCSD0023
087184********     07  XDBS-0191-TIMEKP-DEPT   PIC X(6).                UCSD0023
087185             07  XDBS-0198-TIMEKP-DEPT   PIC X(6).                UCSD0023
087186********     07  XDBS-0191-TIMEKP-SUB    PIC X(2).                UCSD0023
087187             07  XDBS-0199-TIMEKP-SUB    PIC X(2).                UCSD0023
073000         05  XDBS-0192-EMPL-LV-CD        PIC X(1).                UCSD0023
073100         05  XDBS-0196-MAIL-DROP-CODE    PIC X(5).                UCSD0035
073200         05  XDBS-0197-ACAD-REVIEW-DATE  PIC X(6).                UCSD0035
073300****     05  XDBS-0190-FILLER-COS        PIC X(11).               UCSD0035
073400****     05  XDBS-0190-FILLER-COS        PIC X(20).               UCSD0023
