000000**************************************************************/   37540566
000001*  COPYMEMBER: CPWSRDBL                                      */   37540566
000002*  RELEASE: ___0566______ SERVICE REQUEST(S): _____3754____  */   37540566
000003*  NAME:_____M. SANO_____ MODIFICATION DATE:  ___04/23/91__  */   37540566
000004*  DESCRIPTION:                                              */   37540566
000005*  - INCREASED SIZE OF GTN-AMT                               */   37540566
000006*                                                            */   37540566
000007**************************************************************/   37540566
000100**************************************************************/  *36090513
000200*  COPYMEMBER: CPWSRDBL                                      */  *36090513
000300*  RELEASE: ____0513____  SERVICE REQUEST(S): ____3609____   */  *36090513
000400*  NAME: ______JAG______  CREATION DATE: ____11/05/90_____   */  *36090513
000500*  DESCRIPTION:                                              */  *36090513
000600*  - WORKING-STORAGE LAYOUT OF DBL TABLE ROW.                */  *36090513
000700**************************************************************/  *36090513
000800*    COPYID=CPWSRDBL                                              CPWSRDBL
000810*01  DBL-ROW.                                                     CPWSRDBL
000900     10 EMPLOYEE-ID          PIC X(9).                            CPWSRDBL
001000     10 GTN-NUMBER           PIC X(3).                            CPWSRDBL
001100     10 GTN-IND              PIC X(1).                            CPWSRDBL
001200*****10 GTN-AMT              PIC S99999V99 USAGE COMP-3.          37540566
001210     10 GTN-AMT              PIC S9999999V99 USAGE COMP-3.        37540566
001300******************************************************************CPWSRDBL
