000100*==============================================================*
000200*    COPY MEMBER: PAYDB2MS              CREATED: 02/20/90  RAY *
000300*    - ERROR MSG FIELD FOR DB2MSG-TAG OF PPDB2MSG-INTERFACE    *
000400*    - WS-DB2ERR-PLUS = + WHEN VIEW HAS MORE THAN ONE TABLE    *
000500*==============================================================*
000600 01  WS-DB2ERR-TAG-INFO.
000700     05  WS-DB2ERR-FUNCTION     PIC  X(08) VALUE SPACES.
000800     05  FILLER                 PIC  X(01) VALUE SPACES.
000900     05  WS-DB2ERR-TBL-NAME     PIC  X(03) VALUE SPACES.
001000     05  WS-DB2ERR-TBL-PLUS     PIC  X(01) VALUE SPACES.
001100     05  WS-DB2ERR-REL-OPER     PIC  X(03) VALUE ' = '.
001200     05  WS-DB2ERR-KEY          PIC  X(15) VALUE SPACES.
