000010*==========================================================%      DU040
000020*= UCSD LOCAL CHANGES HAVE BEEN IMPLEMENTED.              =%      DU040
000030*= COLUMN 73 THRU 80 DENOTES CHANGE NUMBER - DU040        =%      DU040
000040*=                                                        =%      DU040
000041*==========================================================%      DU040
000042*==========================================================%      DU039
000043*=    COPYMEMBER: PAYM53RD                                =%      DU039
000044*=    CHANGE # DU039        PROJ. REQUEST: DU039          =%      DU039
000045*=    NAME: MARI MCCEE      MODIFICATION DATE: 06/03/91   =%      DU039
000046*=                                                        =%      DU039
000047*=    DESCRIPTION:                                        =%      DU039
000048*=     INSTALL IFIS CHANGES                               =%      DU039
000049*=                                                        =%      DU039
000052*==========================================================%      DU039
000054*==========================================================%      DS542
000070*=    COPYMEMBER: PAYM53RD                                =%      DS542
000080*=    CHANGE # DS542        PROJ. REQUEST: REL542         =%      DS542
000090*=    NAME: R. MERRYMAN     MODIFICATION DATE: 04/12/91   =%      DS542
000091*=                                                        =%      DS542
000092*=    DESCRIPTION:                                        =%      DS542
000093*=     INSTALL PAF CHANGES RELEASE 535 AND RELEASE 542    =%      DS542
000094*=                                                        =%      DS542
000095*=     INSTALL LOCAL CHANGES                              =%      DS542
000096*=                                                        =%      DS542
000097*==========================================================%      DS542
000100***************************************************************   PAYM53RD
000200*    COPY MEMBER PAYM53RD                                         PAYM53RD
000300*    THIS COPY MEMBER REDEFINES THE LAYOUT OF MAP PAYM53          PAYM53RD
000400*    FOR THE PURPOSE OF CREATING AN ARRAY STRUCTURE.              PAYM53RD
000500***************************************************************   PAYM53RD
000600**************************************************************/    BT0388
000700*  COPYMEMBER: PAYM53RD                                      */    BT0388
000800*  RELEASE # ____0330____ SERVICE REQUEST NO(S)____3062______*/    BT0388
000900*  NAME ____B.TODD__  UCB MODIFICATION DATE ____03/23/88_____*/    BT0388
001000*                                                            */    BT0388
001100*  DESCRIPTION                                               */    BT0388
001200*   - ADD PERSONAL PROGRAM CODE (D.E. #2007) TO APPOINTMENT  */    BT0388
001300****************************************************************   BT0388
001400                                                                  PAYM53RD
001500 01  FILLER REDEFINES PAYM53AI.                                   PAYM53RD
001600     05  FILLER                       PIC X(185).                 PAYM53RD
001700     05  ARRAY-DATAI OCCURS 2.                                    PAYM53RD
001800                                                                  PAYM53RD
001900         10 APPT-NOL                  PIC S9(4)   COMP.           PAYM53RD
002000         10 APPT-NOF                  PIC X.                      PAYM53RD
002100         10 APPT-NOI                  PIC X(2).                   PAYM53RD
002200                                                                  DS542
002300         10 APPT-COPYL                PIC S9(4)   COMP.           DS542
002400         10 APPT-COPYF                PIC X.                      DS542
002500         10 APPT-COPYI                PIC X(2).                   DS542
002600                                                                  PAYM53RD
002700         10 APPT-ADCL                 PIC S9(4)   COMP.           PAYM53RD
002800         10 APPT-ADCF                 PIC X.                      PAYM53RD
002900         10 APPT-ADCI                 PIC X(1).                   PAYM53RD
003000                                                                  PAYM53RD
003100         10 PERSNL-PROGRML            PIC S9(4)   COMP.            BT0388
003200         10 PERSNL-PROGRMF            PIC X.                       BT0388
003300         10 PERSNL-PROGRMI            PIC X(1).                    BT0388
003400                                                                   BT0388
003500         10 APPT-TYPEL                PIC S9(4)   COMP.           PAYM53RD
003600         10 APPT-TYPEF                PIC X.                      PAYM53RD
003700         10 APPT-TYPEI                PIC X(1).                   PAYM53RD
003800                                                                  PAYM53RD
003900         10 BASISL                    PIC S9(4)   COMP.           PAYM53RD
004000         10 BASISF                    PIC X.                      PAYM53RD
004100         10 BASISI                    PIC X(2).                   PAYM53RD
004200                                                                  PAYM53RD
004300         10 PAID-OVERL                PIC S9(4)   COMP.           PAYM53RD
004400         10 PAID-OVERF                PIC X.                      PAYM53RD
004500         10 PAID-OVERI                PIC X(2).                   PAYM53RD
004600                                                                  PAYM53RD
004700         10 APPT-BEG-MML              PIC S9(4)   COMP.           PAYM53RD
004800         10 APPT-BEG-MMF              PIC X.                      PAYM53RD
004900         10 APPT-BEG-MMI              PIC X(2).                   PAYM53RD
005000                                                                  PAYM53RD
005100         10 APPT-BEG-DDL              PIC S9(4)   COMP.           PAYM53RD
005200         10 APPT-BEG-DDF              PIC X.                      PAYM53RD
005300         10 APPT-BEG-DDI              PIC X(2).                   PAYM53RD
005400                                                                  PAYM53RD
005500         10 APPT-BEG-YYL              PIC S9(4)   COMP.           PAYM53RD
005600         10 APPT-BEG-YYF              PIC X.                      PAYM53RD
005700         10 APPT-BEG-YYI              PIC X(2).                   PAYM53RD
005800                                                                  PAYM53RD
005900         10 APPT-END-MML              PIC S9(4)   COMP.           PAYM53RD
006000         10 APPT-END-MMF              PIC X.                      PAYM53RD
006100         10 APPT-END-MMI              PIC X(2).                   PAYM53RD
006200                                                                  PAYM53RD
006300         10 APPT-END-DDL              PIC S9(4)   COMP.           PAYM53RD
006400         10 APPT-END-DDF              PIC X.                      PAYM53RD
006500         10 APPT-END-DDI              PIC X(2).                   PAYM53RD
006600                                                                  PAYM53RD
006700         10 APPT-END-YYL              PIC S9(4)   COMP.           PAYM53RD
006800         10 APPT-END-YYF              PIC X.                      PAYM53RD
006900         10 APPT-END-YYI              PIC X(2).                   PAYM53RD
007000                                                                  PAYM53RD
007100         10 DUR-EMPLL                 PIC S9(4)   COMP.           PAYM53RD
007200         10 DUR-EMPLF                 PIC X.                      PAYM53RD
007300         10 DUR-EMPLI                 PIC X(1).                   PAYM53RD
007400                                                                  PAYM53RD
007500         10 TITLE-CODEL               PIC S9(4)   COMP.           PAYM53RD
007600         10 TITLE-CODEF               PIC X.                      PAYM53RD
007700         10 TITLE-CODEI               PIC X(4).                   PAYM53RD
007800                                                                  DS542
007900         10 GRADEL                    PIC S9(4)   COMP.           DS542
008000         10 GRADEF                    PIC X.                      DS542
008100         10 GRADEI                    PIC X(1).                   DS542
008200                                                                  PAYM53RD
008300         10 PCT-FULLL                 PIC S9(4)   COMP.           PAYM53RD
008400         10 PCT-FULLF                 PIC X.                      PAYM53RD
008500         10 PCT-FULLI                 PIC X(4).                   PAYM53RD
008600                                                                  PAYM53RD
008700         10 FXD-VARL                  PIC S9(4)   COMP.           PAYM53RD
008800         10 FXD-VARF                  PIC X.                      PAYM53RD
008900         10 FXD-VARI                  PIC X(1).                   PAYM53RD
009000                                                                  PAYM53RD
009100         10 ANNL-HRLYL                PIC S9(4)   COMP.           PAYM53RD
009200         10 ANNL-HRLYF                PIC X.                      PAYM53RD
009300         10 ANNL-HRLYI                PIC X(9).                   PAYM53RD
009400                                                                  PAYM53RD
009500         10 RATE-CODEL                PIC S9(4)   COMP.           PAYM53RD
009600         10 RATE-CODEF                PIC X.                      PAYM53RD
009700         10 RATE-CODEI                PIC X(1).                   PAYM53RD
009800                                                                  PAYM53RD
009900         10 PAY-SCHEDL                PIC S9(4)   COMP.           PAYM53RD
010000         10 PAY-SCHEDF                PIC X.                      PAYM53RD
010100         10 PAY-SCHEDI                PIC X(2).                   PAYM53RD
010200                                                                  PAYM53RD
010300         10 TIME-CODEL                PIC S9(4)   COMP.           PAYM53RD
010400         10 TIME-CODEF                PIC X.                      PAYM53RD
010500         10 TIME-CODEI                PIC X(1).                   PAYM53RD
010600                                                                  PAYM53RD
010700         10 LEAVE-CODEL               PIC S9(4)   COMP.           PAYM53RD
010800         10 LEAVE-CODEF               PIC X.                      PAYM53RD
010900         10 LEAVE-CODEI               PIC X(1).                   PAYM53RD
011000                                                                  PAYM53RD
011100         10 APPT-DEPTL                PIC S9(4)   COMP.           DS542
011200         10 APPT-DEPTF                PIC X.                      DS542
011300         10 APPT-DEPTI                PIC X(4).                   DS542
011400                                                                  PAYM53RD
011500         10 1ST-DIST-NOL              PIC S9(4)   COMP.           PAYM53RD
011600         10 1ST-DIST-NOF              PIC X.                      PAYM53RD
011700         10 1ST-DIST-NOI              PIC X(2).                   PAYM53RD
011800                                                                  DS542
011900         10 1ST-DIST-COPYL            PIC S9(4)   COMP.           DS542
012000         10 1ST-DIST-COPYF            PIC X.                      DS542
012100         10 1ST-DIST-COPYI            PIC X(2).                   DS542
012200                                                                  PAYM53RD
012300         10 1ST-DIST-ADCL             PIC S9(4)   COMP.           PAYM53RD
012400         10 1ST-DIST-ADCF             PIC X.                      PAYM53RD
012500         10 1ST-DIST-ADCI             PIC X(1).                   PAYM53RD
013000                                                                  PAYM53RD
013100         10 1ST-INDEXL                PIC S9(4)   COMP.           DU039
013200         10 1ST-INDEXF                PIC X.                      DU039
013300         10 1ST-INDEXI                PIC X(07).                  DU039
013400                                                                  DU039
013500         10 1ST-FUNDL                 PIC S9(4)   COMP.           DU039
013600         10 1ST-FUNDF                 PIC X.                      DU039
013700         10 1ST-FUNDI                 PIC X(06).                  DU039
013800                                                                  PAYM53RD
013900         10 1ST-SUBL                  PIC S9(4)   COMP.           PAYM53RD
014000         10 1ST-SUBF                  PIC X.                      PAYM53RD
014100         10 1ST-SUBI                  PIC X(01).                  PAYM53RD
014200                                                                  PAYM53RD
014300         10 1ST-FTEL                  PIC S9(4)   COMP.           PAYM53RD
014400         10 1ST-FTEF                  PIC X.                      PAYM53RD
014500         10 1ST-FTEI                  PIC X(4).                   PAYM53RD
014600                                                                  PAYM53RD
014700         10 1ST-DIST-PCTL             PIC S9(4)   COMP.           PAYM53RD
014800         10 1ST-DIST-PCTF             PIC X.                      PAYM53RD
014900         10 1ST-DIST-PCTI             PIC X(6).                   PAYM53RD
015000                                                                  PAYM53RD
015100         10 1ST-PAY-BEGL              PIC S9(4)   COMP.           DS542
015200         10 1ST-PAY-BEGF              PIC X.                      DS542
015300         10 1ST-PAY-BEGI              PIC X(06).                  DS542
015400                                                                  DS542
015500         10 1ST-PAY-ENDL              PIC S9(4)   COMP.           DS542
015600         10 1ST-PAY-ENDF              PIC X.                      DS542
015700         10 1ST-PAY-ENDI              PIC X(06).                  DS542
015800                                                                  DS542
015900         10 1ST-STEPL                 PIC S9(4)   COMP.           DS542
016000         10 1ST-STEPF                 PIC X.                      DS542
016100         10 1ST-STEPI                 PIC X(3).                   DS542
016200                                                                  DS542
016300         10 1ST-OVR-ABVL              PIC S9(4)   COMP.           DS542
016400         10 1ST-OVR-ABVF              PIC X.                      DS542
016500         10 1ST-OVR-ABVI              PIC X(1).                   DS542
016600                                                                  PAYM53RD
016700         10 1ST-RATE-AMTL             PIC S9(4)   COMP.           PAYM53RD
016800         10 1ST-RATE-AMTF             PIC X.                      PAYM53RD
016900         10 1ST-RATE-AMTI             PIC X(8).                   PAYM53RD
017000                                                                  PAYM53RD
017100         10 1ST-DOSL                  PIC S9(4)   COMP.           PAYM53RD
017200         10 1ST-DOSF                  PIC X.                      PAYM53RD
017300         10 1ST-DOSI                  PIC X(3).                   PAYM53RD
017400                                                                  PAYM53RD
017500         10 1ST-PERQL                 PIC S9(4)   COMP.           PAYM53RD
017600         10 1ST-PERQF                 PIC X.                      PAYM53RD
017700         10 1ST-PERQI                 PIC X(3).                   PAYM53RD
017800                                                                  DS542
017900         10 1ST-DUCL                  PIC S9(4)   COMP.           DS542
018000         10 1ST-DUCF                  PIC X.                      DS542
018100         10 1ST-DUCI                  PIC X(1).                   DS542
018200                                                                  DS542
018300         10 1ST-WSPL                  PIC S9(4)   COMP.           DS542
018400         10 1ST-WSPF                  PIC X.                      DS542
018500         10 1ST-WSPI                  PIC X(1).                   DS542
018600                                                                  PAYM53RD
018700         10 2ND-DIST-NOL              PIC S9(4)   COMP.           PAYM53RD
018800         10 2ND-DIST-NOF              PIC X.                      PAYM53RD
018900         10 2ND-DIST-NOI              PIC X(2).                   PAYM53RD
019000                                                                  DS542
019100         10 2ND-DIST-COPYL            PIC S9(4)   COMP.           DS542
019200         10 2ND-DIST-COPYF            PIC X.                      DS542
019300         10 2ND-DIST-COPYI            PIC X(2).                   DS542
019400                                                                  PAYM53RD
019500         10 2ND-DIST-ADCL             PIC S9(4)   COMP.           PAYM53RD
019600         10 2ND-DIST-ADCF             PIC X.                      PAYM53RD
019700         10 2ND-DIST-ADCI             PIC X(1).                   PAYM53RD
019800                                                                  PAYM53RD
020300         10 2ND-INDEXL                PIC S9(4)   COMP.           DU039
020400         10 2ND-INDEXF                PIC X.                      DU039
020500         10 2ND-INDEXI                PIC X(07).                  DU039
020600                                                                  DU039
020700         10 2ND-FUNDL                 PIC S9(4)   COMP.           DU039
020800         10 2ND-FUNDF                 PIC X.                      DU039
020900         10 2ND-FUNDI                 PIC X(06).                  DU039
021000                                                                  PAYM53RD
021100         10 2ND-SUBL                  PIC S9(4)   COMP.           PAYM53RD
021200         10 2ND-SUBF                  PIC X.                      PAYM53RD
021300         10 2ND-SUBI                  PIC X(01).                  PAYM53RD
021400                                                                  PAYM53RD
021500         10 2ND-FTEL                  PIC S9(4)   COMP.           PAYM53RD
021600         10 2ND-FTEF                  PIC X.                      PAYM53RD
021700         10 2ND-FTEI                  PIC X(4).                   PAYM53RD
021800                                                                  PAYM53RD
021900         10 2ND-DIST-PCTL             PIC S9(4)   COMP.           PAYM53RD
022000         10 2ND-DIST-PCTF             PIC X.                      PAYM53RD
022100         10 2ND-DIST-PCTI             PIC X(6).                   PAYM53RD
022200                                                                  PAYM53RD
022300         10 2ND-PAY-BEGL              PIC S9(4)   COMP.           DS542
022400         10 2ND-PAY-BEGF              PIC X.                      DS542
022500         10 2ND-PAY-BEGI              PIC X(06).                  DS542
022600                                                                  DS542
022700         10 2ND-PAY-ENDL              PIC S9(4)   COMP.           DS542
022800         10 2ND-PAY-ENDF              PIC X.                      DS542
022900         10 2ND-PAY-ENDI              PIC X(06).                  DS542
023000                                                                  DS542
023100         10 2ND-STEPL                 PIC S9(4)   COMP.           DS542
023200         10 2ND-STEPF                 PIC X.                      DS542
023300         10 2ND-STEPI                 PIC X(3).                   DS542
023400                                                                  DS542
023500         10 2ND-OVR-ABVL              PIC S9(4)   COMP.           DS542
023600         10 2ND-OVR-ABVF              PIC X.                      DS542
023700         10 2ND-OVR-ABVI              PIC X(1).                   DS542
023800                                                                  PAYM53RD
023900         10 2ND-RATE-AMTL             PIC S9(4)   COMP.           PAYM53RD
024000         10 2ND-RATE-AMTF             PIC X.                      PAYM53RD
024100         10 2ND-RATE-AMTI             PIC X(8).                   PAYM53RD
024200                                                                  PAYM53RD
024300         10 2ND-DOSL                  PIC S9(4)   COMP.           PAYM53RD
024400         10 2ND-DOSF                  PIC X.                      PAYM53RD
024500         10 2ND-DOSI                  PIC X(3).                   PAYM53RD
024600                                                                  PAYM53RD
024700         10 2ND-PERQL                 PIC S9(4)   COMP.           PAYM53RD
024800         10 2ND-PERQF                 PIC X.                      PAYM53RD
024900         10 2ND-PERQI                 PIC X(3).                   PAYM53RD
025000                                                                  DS542
025100         10 2ND-DUCL                  PIC S9(4)   COMP.           DS542
025200         10 2ND-DUCF                  PIC X.                      DS542
025300         10 2ND-DUCI                  PIC X(1).                   DS542
025400                                                                  DS542
025500         10 2ND-WSPL                  PIC S9(4)   COMP.           DS542
025600         10 2ND-WSPF                  PIC X.                      DS542
025700         10 2ND-WSPI                  PIC X(1).                   DS542
025800                                                                  PAYM53RD
025900 01  FILLER REDEFINES PAYM53AI.                                   PAYM53RD
026000     05  FILLER                   PIC X(185).                     PAYM53RD
026100     05  ARRAY-DATAO OCCURS 2.                                    PAYM53RD
026200                                                                  PAYM53RD
026300                                                                  PAYM53RD
026400         10 FILLER                    PIC X(2).                   PAYM53RD
026500         10 APPT-NOA                  PIC X.                      PAYM53RD
026600         10 APPT-NOO                  PIC X(2).                   PAYM53RD
026700                                                                  DS542
026800         10 FILLER                    PIC X(2).                   DS542
026900         10 APPT-COPYA                PIC X.                      DS542
027000         10 APPT-COPYO                PIC X(2).                   DS542
027100                                                                  PAYM53RD
027200         10 FILLER                    PIC X(2).                   PAYM53RD
027300         10 APPT-ADCA                 PIC X.                      PAYM53RD
027400         10 APPT-ADCO                 PIC X(1).                   PAYM53RD
027500                                                                  PAYM53RD
027600         10 FILLER                    PIC X(2).                    BT0388
027700         10 PERSNL-PROGRMA            PIC X.                       BT0388
027800         10 PERSNL-PROGRMO            PIC X(1).                    BT0388
027900                                                                   BT0388
028000         10 FILLER                    PIC X(2).                   PAYM53RD
028100         10 APPT-TYPEA                PIC X.                      PAYM53RD
028200         10 APPT-TYPEO                PIC X(1).                   PAYM53RD
028300                                                                  PAYM53RD
028400         10 FILLER                    PIC X(2).                   PAYM53RD
028500         10 BASISA                    PIC X.                      PAYM53RD
028600         10 BASISO                    PIC X(2).                   PAYM53RD
028700                                                                  PAYM53RD
028800         10 FILLER                    PIC X(2).                   PAYM53RD
028900         10 PAID-OVERA                PIC X.                      PAYM53RD
029000         10 PAID-OVERO                PIC X(2).                   PAYM53RD
029100                                                                  PAYM53RD
029200         10 FILLER                    PIC X(2).                   PAYM53RD
029300         10 APPT-BEG-MMA              PIC X.                      PAYM53RD
029400         10 APPT-BEG-MMO              PIC X(2).                   PAYM53RD
029500                                                                  PAYM53RD
029600         10 FILLER                    PIC X(2).                   PAYM53RD
029700         10 APPT-BEG-DDA              PIC X.                      PAYM53RD
029800         10 APPT-BEG-DDO              PIC X(2).                   PAYM53RD
029900                                                                  PAYM53RD
030000         10 FILLER                    PIC X(2).                   PAYM53RD
030100         10 APPT-BEG-YYA              PIC X.                      PAYM53RD
030200         10 APPT-BEG-YYO              PIC X(2).                   PAYM53RD
030300                                                                  PAYM53RD
030400         10 FILLER                    PIC X(2).                   PAYM53RD
030500         10 APPT-END-MMA              PIC X.                      PAYM53RD
030600         10 APPT-END-MMO              PIC X(2).                   PAYM53RD
030700                                                                  PAYM53RD
030800         10 FILLER                    PIC X(2).                   PAYM53RD
030900         10 APPT-END-DDA              PIC X.                      PAYM53RD
031000         10 APPT-END-DDO              PIC X(2).                   PAYM53RD
031100                                                                  PAYM53RD
031200         10 FILLER                    PIC X(2).                   PAYM53RD
031300         10 APPT-END-YYA              PIC X.                      PAYM53RD
031400         10 APPT-END-YYO              PIC X(2).                   PAYM53RD
031500                                                                  PAYM53RD
031600         10 FILLER                    PIC X(2).                   PAYM53RD
031700         10 DUR-EMPLA                 PIC X.                      PAYM53RD
031800         10 DUR-EMPLO                 PIC X(1).                   PAYM53RD
031900                                                                  PAYM53RD
032000         10 FILLER                    PIC X(2).                   PAYM53RD
032100         10 TITLE-CODEA               PIC X.                      PAYM53RD
032200         10 TITLE-CODEO               PIC X(4).                   PAYM53RD
032300                                                                  PAYM53RD
032400         10 FILLER                    PIC X(2).                   DS542
032500         10 GRADEA                    PIC X.                      DS542
032600         10 GRADEO                    PIC X(1).                   DS542
032700                                                                  PAYM53RD
032800         10 FILLER                    PIC X(2).                   PAYM53RD
032900         10 PCT-FULLA                 PIC X.                      PAYM53RD
033000         10 PCT-FULLO                 PIC X(4).                   PAYM53RD
033100                                                                  PAYM53RD
033200         10 FILLER                    PIC X(2).                   PAYM53RD
033300         10 FXD-VARA                  PIC X.                      PAYM53RD
033400         10 FXD-VARO                  PIC X(1).                   PAYM53RD
033500                                                                  PAYM53RD
033600         10 FILLER                    PIC X(2).                   PAYM53RD
033700         10 ANNL-HRLYA                PIC X.                      PAYM53RD
033800         10 ANNL-HRLYO                PIC X(9).                   PAYM53RD
033900                                                                  PAYM53RD
034000         10 FILLER                    PIC X(2).                   PAYM53RD
034100         10 RATE-CODEA                PIC X.                      PAYM53RD
034200         10 RATE-CODEO                PIC X(1).                   PAYM53RD
034300                                                                  PAYM53RD
034400         10 FILLER                    PIC X(2).                   PAYM53RD
034500         10 PAY-SCHEDA                PIC X.                      PAYM53RD
034600         10 PAY-SCHEDO                PIC X(2).                   PAYM53RD
034700                                                                  PAYM53RD
034800         10 FILLER                    PIC X(2).                   PAYM53RD
034900         10 TIME-CODEA                PIC X.                      PAYM53RD
035000         10 TIME-CODEO                PIC X(1).                   PAYM53RD
035100                                                                  PAYM53RD
035200         10 FILLER                    PIC X(2).                   PAYM53RD
035300         10 LEAVE-CODEA               PIC X.                      PAYM53RD
035400         10 LEAVE-CODEO               PIC X(1).                   PAYM53RD
035500                                                                  PAYM53RD
035600         10 FILLER                    PIC X(2).                   DS542
035700         10 APPT-DEPTA                PIC X.                      DS542
035800         10 APPT-DEPTO                PIC X(4).                   DS542
035900                                                                  PAYM53RD
036000         10 FILLER                    PIC X(2).                   PAYM53RD
036100         10 1ST-DIST-NOA              PIC X.                      PAYM53RD
036200         10 1ST-DIST-NOO              PIC X(2).                   PAYM53RD
036300                                                                  DS542
036400         10 FILLER                    PIC X(2).                   DS542
036500         10 1ST-DIST-COPYA            PIC X.                      DS542
036600         10 1ST-DIST-COPYO            PIC X(2).                   DS542
036700                                                                  PAYM53RD
036800         10 FILLER                    PIC X(2).                   PAYM53RD
036900         10 1ST-DIST-ADCA             PIC X.                      PAYM53RD
037000         10 1ST-DIST-ADCO             PIC X(1).                   PAYM53RD
037100                                                                  PAYM53RD
037600         10 FILLER                    PIC X(2).                   DU039
037700         10 1ST-INDEXA                PIC X.                      DU039
037800         10 1ST-INDEXO                PIC X(07).                  DU039
037900                                                                  DU039
038000         10 FILLER                    PIC X(2).                   DU039
038100         10 1ST-FUNDA                 PIC X.                      DU039
038200         10 1ST-FUNDO                 PIC X(06).                  DU039
038300                                                                  PAYM53RD
038400         10 FILLER                    PIC X(2).                   PAYM53RD
038500         10 1ST-SUBA                  PIC X.                      PAYM53RD
038600         10 1ST-SUBO                  PIC X(01).                  PAYM53RD
038700                                                                  PAYM53RD
038800         10 FILLER                    PIC X(2).                   PAYM53RD
038900         10 1ST-FTEA                  PIC X.                      PAYM53RD
039000         10 1ST-FTEO                  PIC X(4).                   PAYM53RD
039100                                                                  PAYM53RD
039200         10 FILLER                    PIC X(2).                   PAYM53RD
039300         10 1ST-DIST-PCTA             PIC X.                      PAYM53RD
039400         10 1ST-DIST-PCTO             PIC X(6).                   PAYM53RD
039500                                                                  PAYM53RD
039600         10 FILLER                    PIC X(2).                   DS542
039700         10 1ST-PAY-BEGA              PIC X.                      DS542
039800         10 1ST-PAY-BEGO              PIC X(6).                   DS542
039900                                                                  DS542
040000         10 FILLER                    PIC X(2).                   DS542
040100         10 1ST-PAY-ENDA              PIC X.                      DS542
040200         10 1ST-PAY-ENDO              PIC X(6).                   DS542
040300                                                                  DS542
040400         10 FILLER                    PIC X(2).                   DS542
040500         10 1ST-STEPA                 PIC X.                      DS542
040600         10 1ST-STEPO                 PIC X(3).                   DS542
040700                                                                  DS542
040800         10 FILLER                    PIC X(2).                   DS542
040900         10 1ST-OVR-ABVA              PIC X.                      DS542
041000         10 1ST-OVR-ABVO              PIC X(1).                   DS542
041100                                                                  PAYM53RD
041200         10 FILLER                    PIC X(2).                   PAYM53RD
041300         10 1ST-RATE-AMTA             PIC X.                      PAYM53RD
041400         10 1ST-RATE-AMTO             PIC X(8).                   PAYM53RD
041500                                                                  PAYM53RD
041600         10 FILLER                    PIC X(2).                   PAYM53RD
041700         10 1ST-DOSA                  PIC X.                      PAYM53RD
041800         10 1ST-DOSO                  PIC X(3).                   PAYM53RD
041900                                                                  PAYM53RD
042000         10 FILLER                    PIC X(2).                   PAYM53RD
042100         10 1ST-PERQA                 PIC X.                      PAYM53RD
042200         10 1ST-PERQO                 PIC X(3).                   PAYM53RD
042300                                                                  DS542
042400         10 FILLER                    PIC X(2).                   DS542
042500         10 1ST-DUCA                  PIC X.                      DS542
042600         10 1ST-DUCO                  PIC X(1).                   DS542
042700                                                                  DS542
042800         10 FILLER                    PIC X(2).                   DS542
042900         10 1ST-WSPA                  PIC X.                      DS542
043000         10 1ST-WSPO                  PIC X(1).                   DS542
043100                                                                  PAYM53RD
043200         10 FILLER                    PIC X(2).                   PAYM53RD
043300         10 2ND-DIST-NOA              PIC X.                      PAYM53RD
043400         10 2ND-DIST-NOO              PIC X(2).                   PAYM53RD
043500                                                                  DS542
043600         10 FILLER                    PIC X(2).                   DS542
043700         10 2ND-DIST-COPYA            PIC X.                      DS542
043800         10 2ND-DIST-COPYO            PIC X(2).                   DS542
043900                                                                  PAYM53RD
044000         10 FILLER                    PIC X(2).                   PAYM53RD
044100         10 2ND-DIST-ADCA             PIC X.                      PAYM53RD
044200         10 2ND-DIST-ADCO             PIC X(1).                   PAYM53RD
044300                                                                  PAYM53RD
044800         10 FILLER                    PIC X(2).                   DU039
044900         10 2ND-INDEXA                PIC X.                      DU039
045000         10 2ND-INDEXO                PIC X(07).                  DU039
045100                                                                  DU039
045200         10 FILLER                    PIC X(2).                   DU039
045300         10 2ND-FUNDA                 PIC X.                      DU039
045400         10 2ND-FUNDO                 PIC X(06).                  DU039
045500                                                                  PAYM53RD
045600         10 FILLER                    PIC X(2).                   PAYM53RD
045700         10 2ND-SUBA                  PIC X.                      PAYM53RD
045800         10 2ND-SUBO                  PIC X(01).                  PAYM53RD
045900                                                                  PAYM53RD
046000         10 FILLER                    PIC X(2).                   PAYM53RD
046100         10 2ND-FTEA                  PIC X.                      PAYM53RD
046200         10 2ND-FTEO                  PIC X(4).                   PAYM53RD
046300                                                                  PAYM53RD
046400         10 FILLER                    PIC X(2).                   PAYM53RD
046500         10 2ND-DIST-PCTA             PIC X.                      PAYM53RD
046600         10 2ND-DIST-PCTO             PIC X(6).                   PAYM53RD
046700                                                                  PAYM53RD
046800         10 FILLER                    PIC X(2).                   DS542
046900         10 2ND-PAY-BEGA              PIC X.                      DS542
047000         10 2ND-PAY-BEGO              PIC X(6).                   DS542
047100                                                                  DS542
047200         10 FILLER                    PIC X(2).                   DS542
047300         10 2ND-PAY-ENDA              PIC X.                      DS542
047400         10 2ND-PAY-ENDO              PIC X(6).                   DS542
047500                                                                  DS542
047600         10 FILLER                    PIC X(2).                   DS542
047700         10 2ND-STEPA                 PIC X.                      DS542
047800         10 2ND-STEPO                 PIC X(3).                   DS542
047900                                                                  DS542
048000         10 FILLER                    PIC X(2).                   DS542
048100         10 2ND-OVR-ABVA              PIC X.                      DS542
048200         10 2ND-OVR-ABVO              PIC X(1).                   DS542
048300                                                                  PAYM53RD
048400         10 FILLER                    PIC X(2).                   PAYM53RD
048500         10 2ND-RATE-AMTA             PIC X.                      PAYM53RD
048600         10 2ND-RATE-AMTO             PIC X(8).                   PAYM53RD
048700                                                                  PAYM53RD
048800         10 FILLER                    PIC X(2).                   PAYM53RD
048900         10 2ND-DOSA                  PIC X.                      PAYM53RD
049000         10 2ND-DOSO                  PIC X(3).                   PAYM53RD
049100                                                                  PAYM53RD
049200         10 FILLER                    PIC X(2).                   PAYM53RD
049300         10 2ND-PERQA                 PIC X.                      PAYM53RD
049400         10 2ND-PERQO                 PIC X(3).                   PAYM53RD
049500                                                                  DS542
049600         10 FILLER                    PIC X(2).                   DS542
049700         10 2ND-DUCA                  PIC X.                      DS542
049800         10 2ND-DUCO                  PIC X(1).                   DS542
049900                                                                  DS542
050000         10 FILLER                    PIC X(2).                   DS542
050100         10 2ND-WSPA                  PIC X.                      DS542
050200         10 2ND-WSPO                  PIC X(1).                   DS542
050300                                                                  PAYM53RD
